80

19
Edward Henson
Vanessa Carver
Clark Goodwin
Edward North
Linda Steward
Cesar Jefferson
Cesar Oleson
Floyd Moyer
Michael Russell
Vanessa Maynard
Angelina North
Larry Delgado
Marie Jefferson
Caitlin Barber
Kris O'Connel
Clark Rubio
Michael Steward
Celia Rivers
Caitlin Oleson
19 18 5 2 6 8 13 16 9 1 3 12 7 15 11 17 4 14 10
5 4 12 13 3 11 1 9 7 10 17 6 19 2 14 18 15 16 8
8 16 10 18 12 13 19 11 3 1 4 6 7 9 17 5 2 14 15
1 5 7 9 17 6 12 4 8 2 13 11 16 10 18 19 3 15 14
10 3 7 17 6 8 14 13 18 5 1 15 9 2 16 19 4 12 11
16 19 14 17 10 3 7 12 5 9 13 6 8 1 2 4 11 18 15
18 17 16 19 10 13 1 3 4 15 14 7 12 11 2 5 6 8 9
19 6 7 5 13 14 4 15 16 11 1 8 2 18 10 17 12 3 9
13 8 2 14 18 7 12 16 10 9 17 11 15 6 1 3 4 19 5
16 3 6 1 10 5 8 15 18 14 4 12 7 13 17 9 11 2 19
19 10 2 13 11 9 12 4 14 1 15 16 18 5 3 8 17 6 7
18 12 8 7 3 15 16 4 14 19 2 11 6 5 1 13 17 10 9
15 11 10 5 2 1 12 19 9 13 18 4 3 16 14 17 8 7 6
2 15 19 4 17 6 12 10 14 11 16 9 13 1 18 8 5 7 3
3 15 6 9 14 17 16 19 13 4 7 1 18 5 12 2 11 10 8
18 15 5 6 8 14 13 3 4 11 12 17 2 19 16 1 9 7 10
2 19 4 18 8 1 7 9 3 6 17 15 5 13 16 12 14 11 10
13 2 9 7 11 6 4 3 17 5 18 1 14 10 19 15 12 16 8
1 14 11 16 18 3 10 8 12 5 4 9 6 17 13 7 19 2 15
5 18 8 7 16 12 6 17 2 1 14 3 15 9 4 11 13 10 19
15 1 5 12 7 13 9 3 8 19 10 16 18 2 4 14 6 17 11
17 6 15 18 14 1 10 16 19 13 8 5 9 2 11 12 4 7 3
7 15 9 6 11 1 3 19 8 12 4 10 16 5 14 13 18 17 2
2 17 5 18 8 15 16 3 10 14 13 12 9 19 1 11 7 4 6
8 12 3 9 19 6 4 2 15 18 5 11 16 1 13 10 7 14 17
18 9 12 19 14 16 3 8 7 13 4 5 10 6 15 17 11 1 2
6 12 9 18 2 3 17 5 19 1 4 10 8 7 11 16 14 15 13
2 7 12 17 4 6 10 11 3 13 14 8 9 16 15 19 18 1 5
12 6 9 14 15 17 3 11 2 18 19 7 16 13 1 10 8 5 4

1
Cesar Dodson
1
1
1
1
1
1
1
1
1
1
1
1

10
Chelsea O'Connel
Kris Jefferson
Morgan Mead
Kelsey Russell
Kris Rubio
Lindsey Henson
Loretta Russell
Edward Bright
Erick Cross
Larry Proctor
8 6 7 10 3 1 5 2 9 4
10 2 7 8 6 5 1 4 3 9
5 10 4 8 3 1 2 7 9 6
5 1 3 9 7 2 4 8 10 6
8 2 5 3 6 1 10 7 4 9
5 2 9 10 4 3 8 7 1 6
1 3 7 2 10 9 4 5 6 8
8 2 9 1 6 4 10 5 7 3
8 9 7 10 3 4 2 1 6 5
10 7 6 1 8 2 3 9 4 5
7 4 5 8 10 3 1 2 9 6
3 10 7 2 5 4 1 6 9 8
1 4 3 9 6 10 8 7 2 5
9 3 7 10 4 1 6 8 5 2
2 1 7 9 3 4 6 8 10 5
6 2 5 3 7 1 4 9 10 8
1 9 5 10 2 8 4 6 3 7
10 2 8 6 9 7 4 5 3 1
6 10 8 7 1 5 4 9 2 3
6 1 3 2 5 9 8 4 7 10
9 5 4 8 3 1 10 6 7 2
4 10 2 9 6 7 5 3 1 8
3 9 7 4 5 10 6 2 1 8
3 5 7 6 10 4 8 1 9 2
8 6 4 7 1 3 2 10 5 9
6 10 4 1 8 3 9 7 2 5
4 3 2 8 9 7 6 10 5 1
8 1 10 7 4 9 5 6 2 3
2 9 1 6 7 5 10 4 8 3
8 10 3 7 6 9 1 2 4 5
3 4 8 6 1 2 10 9 7 5
4 1 8 5 10 9 3 7 2 6
3 2 1 6 8 9 7 10 5 4
1 2 10 3 7 6 4 9 8 5
10 5 4 6 1 8 7 9 3 2
6 4 8 7 3 9 2 1 10 5
8 1 6 5 10 9 2 4 7 3
4 1 2 6 3 10 9 7 8 5
2 10 3 9 8 4 7 1 6 5
6 3 4 8 2 7 9 1 5 10

10
Lisa Shay
Caitlin Hardin
Delgado Moyer
Daniel Carver
Marie Mercer
Morgan Oleson
Cesar Mead
Angelina Oleson
Caitlin Maynard
Lisa Dodson
5 4 6 7 10 2 9 1 3 8
4 1 3 5 2 7 6 9 10 8
6 3 4 1 2 9 7 8 10 5
4 2 1 6 9 5 10 7 3 8
5 4 3 2 6 7 9 8 1 10
10 1 2 7 4 8 5 3 6 9
6 7 2 5 9 10 1 3 4 8
1 3 10 8 4 2 5 6 9 7
5 8 4 1 6 10 3 2 7 9
4 6 5 10 7 8 3 1 2 9
9 4 2 1 7 10 8 6 3 5

11
Clark North
Cesar Goodwin
Kris Mueller
Tracie Goodwin
Edward Dodson
Cesar Moyer
Angelina Delgado
Caitlin Rivers
Kris Barber
Floyd Mueller
Larry Bright
5 11 6 3 10 2 9 1 4 8 7
8 9 5 6 1 4 10 3 2 7 11
1 7 5 4 3 2 9 8 11 6 10
10 4 9 7 1 11 5 3 2 8 6
7 6 4 2 1 9 5 11 8 10 3
9 11 2 8 6 1 5 3 10 7 4
3 7 1 4 5 8 9 10 6 2 11
4 1 9 3 8 2 6 11 7 5 10
3 6 10 8 5 1 7 11 2 9 4
10 6 7 3 4 5 8 2 9 1 11
3 2 4 9 7 8 1 10 6 11 5
8 4 6 7 10 3 11 5 9 2 1
8 10 11 1 4 6 7 5 9 3 2
7 11 1 5 4 3 8 10 9 6 2
4 11 2 10 7 9 1 6 3 5 8
8 9 3 1 7 6 2 10 4 11 5
9 7 3 11 5 10 1 6 2 4 8

1
Maria Benson
1
1
1
1
1
1
1
1
1
1
1
1
1
1
1
1
1
1
1
1
1

18
Angelina Delgado
Maria O'Connel
Caitlin Dodson
Floyd Carver
Tracie Proctor
Julian Benson
Erick Cross
Vanessa Jefferson
Michael Mueller
Morgan Jefferson
Chelsea Mueller
Caitlin Bright
Delgado Livingston
Cesar Moyer
Kelsey North
Clark Benson
Floyd Henson
Kris Russell
16 15 1 12 11 6 14 9 10 8 17 4 18 7 3 2 5 13
4 10 14 17 6 16 11 13 2 12 15 1 5 3 7 18 8 9
14 13 4 11 3 17 12 8 2 15 5 10 9 18 6 1 16 7
15 10 4 5 6 3 2 11 12 7 8 13 1 18 17 16 14 9
6 1 9 16 18 2 4 17 11 7 13 15 5 8 12 10 3 14
9 12 11 5 8 7 1 17 4 14 2 10 6 3 13 18 15 16
2 3 10 1 9 17 8 5 12 7 15 14 18 6 4 16 13 11
18 14 16 15 6 4 17 1 10 12 5 13 7 2 9 3 8 11
11 13 3 7 5 2 10 17 16 6 12 1 4 9 18 15 14 8
16 5 2 12 9 18 4 7 6 10 15 3 14 11 1 13 17 8
1 13 16 14 9 18 3 12 8 15 4 5 7 11 10 6 17 2
14 18 5 17 13 16 6 3 2 1 4 7 15 11 10 8 12 9
13 12 6 18 14 2 1 5 17 9 7 15 3 10 4 16 11 8
1 4 18 8 3 10 7 6 11 12 14 9 15 13 17 5 16 2
16 2 10 15 8 6 14 11 1 4 7 9 13 17 12 5 18 3
5 17 11 3 16 18 6 12 10 14 2 1 15 8 9 4 13 7
6 14 1 10 18 5 15 16 3 9 13 2 7 8 4 17 12 11
5 14 1 12 9 17 3 6 16 10 4 11 13 8 15 18 7 2
10 5 2 9 13 17 12 11 18 8 16 3 14 6 1 7 4 15
3 11 4 12 5 7 14 13 1 10 9 17 16 8 2 15 18 6
14 18 6 4 16 3 2 8 13 1 15 9 12 7 5 11 10 17
15 2 13 17 1 7 9 16 8 6 10 14 11 4 18 12 3 5
6 12 18 17 7 11 2 13 8 14 9 1 5 4 3 10 15 16
6 3 1 13 15 16 7 8 11 10 17 14 18 4 2 5 9 12
7 12 18 4 1 11 3 17 15 10 13 2 6 9 8 14 5 16
12 3 9 10 16 13 8 11 18 14 2 5 7 6 15 1 17 4
1 11 4 6 15 14 2 10 5 18 8 3 12 9 17 13 16 7
4 11 2 12 17 16 5 9 18 15 7 8 1 6 13 3 10 14
9 12 13 5 2 7 4 8 18 17 10 3 15 16 14 1 6 11
11 2 1 8 7 14 13 4 9 6 12 5 16 3 15 10 17 18
15 8 13 17 7 11 18 5 12 9 14 2 3 1 4 6 10 16
11 8 7 14 17 2 15 1 5 6 13 9 10 18 16 4 12 3
15 12 11 9 4 13 5 10 18 7 16 8 3 1 6 14 17 2
17 6 11 13 8 1 18 5 2 14 7 9 15 3 4 16 10 12
14 11 4 1 12 8 3 6 2 16 9 18 17 5 10 7 15 13
6 15 12 18 11 5 16 3 8 7 9 2 14 1 17 4 10 13
13 2 11 12 18 9 4 8 10 3 5 6 7 15 14 16 17 1
11 16 1 13 8 5 12 7 17 3 15 14 4 10 2 6 9 18
15 3 12 2 6 8 4 13 11 9 10 5 1 17 7 16 18 14
4 7 16 2 18 14 15 1 13 11 17 5 10 8 9 6 12 3
8 15 2 3 7 1 11 5 12 9 6 17 13 10 14 18 4 16
10 2 4 7 9 18 12 6 1 15 5 11 17 16 8 13 3 14
11 1 16 10 8 15 13 3 12 6 9 5 18 7 2 14 4 17
15 3 1 14 17 8 5 6 18 16 4 10 13 9 11 2 7 12
5 11 13 4 1 17 15 2 12 16 9 8 3 6 18 10 14 7
12 14 13 4 5 16 11 18 3 15 8 9 17 2 1 10 6 7
13 2 9 11 7 5 1 10 14 17 3 16 18 8 15 4 12 6
18 1 15 12 4 6 11 7 5 13 2 3 9 16 8 10 14 17

15
Chelsea Cross
Carla Hancock
Tracie Russell
Kelsey Moyer
Roland Hancock
Chelsea Mercer
Michael Goodwin
Morgan Mead
Delgado Steward
Tracie O'Connel
Floyd Mueller
Kelsey Paul
Roland Hardin
Floyd Maynard
Delgado Rivers
12 7 2 15 11 4 9 10 14 1 13 5 8 3 6
4 8 9 14 13 2 11 1 12 5 3 15 10 6 7
10 13 3 1 5 4 8 11 2 9 15 12 14 7 6
1 9 6 8 3 15 13 10 5 12 4 11 14 2 7
15 13 10 3 12 2 9 1 14 7 5 8 11 4 6
1 10 3 12 15 4 9 8 6 5 14 7 11 2 13
1 14 3 8 4 7 11 6 10 9 12 13 15 5 2
15 4 9 8 7 11 1 10 2 13 3 12 5 6 14
8 9 15 3 5 10 4 1 6 14 13 2 11 12 7
9 14 13 12 7 1 2 15 5 6 3 11 4 10 8
1 14 2 3 4 8 11 12 10 13 6 9 15 7 5
1 10 11 9 7 8 12 3 13 4 5 14 2 15 6
13 14 2 6 5 4 12 11 15 1 7 3 8 9 10
9 13 15 10 14 8 3 4 2 5 11 7 12 6 1
7 9 6 2 8 13 5 11 14 15 3 1 12 10 4
10 2 12 7 11 3 5 9 6 1 13 15 8 4 14
7 5 8 4 14 2 1 6 12 15 10 9 11 3 13
15 12 11 5 6 8 14 9 1 7 13 4 2 3 10

17
Chelsea Rubio
Kelsey North
Daniel Oleson
Linda Goodwin
Kris Carver
Marie Paul
Cesar Rivers
Carla Mueller
Clark Rubio
Delgado Maynard
Daniel North
Erick Paul
Linda Rivers
Morgan Benson
Marie O'Connel
Caitlin O'Connel
Erick Rubio
12 7 3 2 1 16 8 4 5 6 11 17 15 10 14 13 9
14 12 3 2 6 17 15 13 5 10 16 11 9 8 4 1 7
9 17 4 14 11 15 12 16 6 7 5 10 1 13 3 2 8
14 12 4 17 2 8 1 10 5 3 6 16 11 9 15 13 7
3 16 2 12 15 14 17 5 1 13 8 9 4 11 10 6 7
16 3 9 2 15 4 13 6 10 5 14 8 11 1 12 17 7
16 5 14 8 4 3 10 17 7 11 12 13 6 15 9 1 2
13 17 15 16 8 10 7 3 11 14 6 12 4 5 1 9 2
15 10 11 12 2 9 8 14 6 7 1 3 13 5 4 16 17
7 11 10 15 3 16 6 8 5 9 14 1 12 17 2 13 4
16 1 10 14 2 13 8 11 5 6 3 7 17 12 9 4 15
17 3 10 4 1 5 9 16 11 8 6 13 7 15 2 12 14
1 12 11 8 15 17 9 3 13 7 5 4 14 10 6 16 2
9 12 6 16 3 14 11 17 13 1 15 10 8 5 7 4 2
12 17 11 16 6 3 14 13 4 8 15 10 1 5 7 2 9
4 11 5 3 16 14 8 10 13 1 6 15 12 9 7 2 17
12 9 14 8 7 1 3 11 17 5 2 15 16 6 10 4 13
16 9 12 2 5 17 15 14 8 1 7 10 4 6 13 11 3
15 13 16 2 14 10 3 11 7 5 8 9 1 12 6 4 17
6 9 14 8 11 15 5 13 3 7 1 17 2 4 16 10 12
8 13 15 10 14 7 1 5 4 3 2 12 16 9 17 11 6
9 1 6 7 14 16 2 4 10 13 3 17 11 8 15 5 12
13 3 5 17 9 14 8 15 12 4 7 2 10 11 16 6 1
10 17 11 7 5 16 13 1 14 4 9 15 2 6 3 12 8
2 7 8 6 17 15 1 11 12 10 3 5 16 9 13 4 14
15 9 4 6 13 8 10 17 12 1 11 14 16 7 3 5 2

5
Roland Hancock
Caitlin Steward
Larry Livingston
Michael Oleson
Marie Oleson
3 2 1 5 4
1 4 3 5 2
2 5 4 1 3
4 5 3 2 1
3 1 5 2 4
2 4 3 5 1
1 5 4 2 3
3 5 4 2 1
3 4 2 1 5
1 3 5 4 2
3 5 4 2 1
3 5 2 4 1
4 2 1 5 3
2 5 4 1 3
5 2 1 3 4
1 3 4 2 5
1 5 4 3 2
4 3 1 5 2
1 4 3 5 2
5 2 1 4 3
1 5 3 4 2
3 5 4 2 1
3 1 5 2 4

7
Floyd Jefferson
Erick Jefferson
Edward Jefferson
Julian Delgado
Lindsey Benson
Daniel Dodson
Linda Steward
4 1 7 2 6 5 3
7 4 5 3 6 1 2
5 6 2 4 1 7 3
7 4 3 1 2 5 6
3 1 2 6 4 7 5
5 1 4 3 6 7 2
4 1 2 5 6 7 3
7 4 5 6 1 2 3
2 3 6 4 7 1 5
2 6 5 1 7 4 3
1 6 4 2 7 3 5
6 2 3 4 5 7 1
1 4 6 3 7 2 5
2 1 6 5 3 7 4
1 7 6 3 5 2 4
3 6 4 2 5 1 7
4 7 3 5 1 6 2
5 6 1 4 7 2 3
5 7 1 6 4 2 3
6 1 5 7 2 4 3
7 1 3 2 4 5 6
4 3 1 7 6 5 2
3 4 7 6 1 2 5
2 6 4 5 1 3 7

4
Lisa Dodson
Morgan Barber
Maria Proctor
Carla Maynard
4 1 2 3
4 1 3 2
1 4 2 3
4 1 3 2
1 2 3 4

12
Roland Delgado
Daniel Cross
Angelina Cross
Delgado Mercer
Michael O'Connel
Angelina Rubio
Roland Oleson
Marie Rubio
Lindsey Proctor
Cesar Goodwin
Clark Hancock
Chelsea Mercer
8 10 11 9 5 1 3 7 4 2 6 12
6 11 4 5 9 10 1 2 7 3 8 12
6 11 10 12 8 7 4 1 9 3 5 2
2 3 4 1 9 7 10 5 6 8 12 11
5 12 2 9 10 11 1 6 7 4 3 8
10 9 2 1 6 5 7 4 12 11 3 8
12 11 10 2 3 6 7 9 5 4 1 8
5 10 6 3 1 9 2 7 8 12 4 11
1 12 2 3 11 4 8 6 9 5 10 7
1 6 4 7 2 5 8 11 12 3 9 10
4 11 10 2 12 9 5 6 3 7 1 8
5 11 2 10 7 3 6 1 9 4 12 8
6 9 3 11 5 2 1 7 4 12 10 8
6 9 5 1 3 12 2 11 4 8 7 10
9 10 4 5 11 3 2 7 1 12 6 8
7 5 9 12 8 4 1 11 6 2 3 10
9 12 7 1 6 3 4 10 2 5 11 8
7 9 11 5 4 2 8 1 3 12 10 6
5 8 3 6 12 2 4 10 1 7 9 11
1 7 3 4 9 8 5 6 2 11 12 10
4 7 11 9 12 1 3 10 8 2 6 5
2 10 5 12 8 11 7 4 6 9 1 3
1 3 11 10 9 2 8 5 6 7 4 12
1 10 7 4 11 12 2 9 6 3 8 5
2 4 11 9 3 1 10 6 12 8 7 5

3
Angelina Jefferson
Daniel Delgado
Morgan Benson
3 1 2
1 2 3
1 3 2
2 3 1
3 2 1
1 2 3
1 2 3
2 1 3
3 2 1
3 1 2
2 3 1
2 3 1
3 2 1
1 3 2
3 1 2
1 2 3
1 3 2
3 1 2
1 3 2

5
Chelsea Shay
Daniel Moyer
Lindsey Bright
Maria North
Michael Goodwin
5 3 4 2 1
1 4 5 2 3
5 3 1 4 2
5 2 3 1 4
4 5 1 3 2
5 3 1 2 4
5 2 1 3 4
1 3 5 2 4
2 1 4 3 5
4 3 5 1 2
5 4 1 2 3
1 2 4 5 3
1 4 5 2 3
2 3 5 1 4
3 4 2 5 1
5 2 1 3 4
1 2 5 3 4
2 3 1 4 5
2 4 3 1 5
3 4 5 2 1
1 4 5 3 2
3 5 1 2 4
4 5 2 1 3
1 5 4 3 2
2 4 1 5 3
3 1 2 4 5
3 4 2 5 1
1 2 4 5 3
3 4 1 2 5

9
Roland Carver
Morgan Benson
Julian Shay
Larry Dodson
Kelsey Mercer
Julian Maynard
Maria Oleson
Lindsey Henson
Loretta Barber
9 6 7 3 1 2 4 5 8
7 9 6 1 3 5 2 4 8

5
Kris Hardin
Cesar Paul
Lisa North
Caitlin Russell
Roland Rivers
5 3 2 4 1
3 5 1 2 4
5 3 4 1 2
5 2 3 4 1
4 5 2 1 3
3 4 1 2 5
5 1 4 3 2
5 1 4 3 2
3 2 4 5 1
5 1 3 4 2
2 3 4 5 1
3 2 4 5 1
4 3 5 2 1
1 3 4 5 2
3 5 2 4 1
3 1 2 5 4
2 5 4 3 1
1 5 4 2 3
4 1 3 5 2
5 3 4 2 1
5 4 3 2 1
5 1 2 4 3
1 2 5 3 4

18
Roland Moyer
Larry Dodson
Carla Shay
Tracie Henson
Kelsey Maynard
Loretta Henson
Caitlin Maynard
Linda Carver
Erick Goodwin
Clark Cross
Chelsea Henson
Angelina Carver
Kelsey Livingston
Floyd Mead
Daniel Dodson
Delgado North
Morgan Mueller
Daniel Livingston
13 9 1 11 12 16 5 7 15 3 10 17 18 4 8 6 14 2
8 4 11 16 17 7 13 18 12 15 1 14 6 10 3 2 5 9
14 6 18 12 4 17 8 5 10 15 16 3 9 7 2 1 13 11
10 9 16 2 3 15 12 6 7 13 17 14 11 8 5 4 1 18
12 5 4 11 18 15 17 2 10 6 16 14 7 13 8 3 1 9
18 2 9 8 7 13 12 3 1 15 11 16 4 5 10 6 14 17
15 9 18 17 16 13 12 14 4 5 6 7 1 10 8 2 3 11
11 12 10 7 18 2 1 17 6 16 5 8 15 4 14 3 13 9
6 5 2 4 18 7 16 12 3 11 9 8 14 15 17 10 1 13
8 15 6 18 1 11 4 17 14 13 2 12 10 9 16 3 5 7
18 4 7 13 10 9 2 5 6 17 3 16 11 1 14 8 15 12

9
Kris Henson
Kris Hancock
Linda O'Connel
Morgan Bright
Edward Henson
Lisa Barber
Clark Proctor
Tracie Cross
Caitlin Jefferson
9 4 2 8 7 3 6 5 1
4 8 3 6 7 9 5 2 1
2 6 8 9 3 4 7 5 1
3 7 1 9 4 8 6 5 2
1 5 4 9 2 3 6 7 8
4 1 5 3 9 6 2 8 7
6 5 1 9 7 8 2 3 4
3 4 5 9 8 1 2 7 6
4 2 3 8 6 5 9 1 7
9 1 8 5 3 4 6 2 7
7 2 1 3 9 4 8 6 5
1 6 5 2 7 9 8 3 4
1 7 3 9 6 5 8 4 2
2 1 4 5 3 8 7 9 6
3 8 9 6 2 1 7 5 4
9 5 6 2 4 3 8 7 1
3 6 2 4 5 1 8 9 7
8 1 5 7 6 9 4 2 3
9 6 1 4 7 2 8 5 3
6 4 3 2 7 5 9 1 8
6 9 8 2 4 7 1 5 3
6 7 1 5 4 8 9 2 3
5 8 7 3 2 1 4 6 9
8 5 9 6 7 1 4 2 3
7 8 9 2 1 3 4 6 5
3 2 1 6 5 9 8 4 7
5 4 2 6 7 8 3 9 1
8 7 6 2 4 3 5 9 1
2 7 3 1 6 8 4 9 5
7 9 1 4 8 5 2 3 6
5 7 2 3 8 4 9 6 1

5
Angelina Shay
Chelsea Benson
Roland O'Connel
Loretta Rubio
Lisa Proctor
3 4 5 2 1
3 4 5 2 1
4 2 1 3 5
1 2 5 4 3
1 5 3 4 2
5 4 1 2 3
4 2 5 1 3
5 2 1 4 3
1 4 2 3 5
1 4 5 2 3
5 3 4 2 1
3 4 5 2 1
3 4 5 1 2
1 2 4 3 5
2 3 5 1 4
1 3 4 2 5
4 5 2 3 1
1 4 2 3 5
2 3 4 5 1
1 5 2 3 4
4 3 2 5 1
1 2 4 3 5
4 2 3 1 5
5 4 3 2 1
1 4 3 5 2
2 3 5 4 1
2 1 3 5 4
1 5 2 4 3
5 4 3 2 1
2 5 3 4 1
1 4 3 5 2
5 3 1 2 4
4 5 3 2 1
3 4 1 5 2
3 4 2 1 5
3 1 5 2 4
2 5 4 1 3
5 2 3 1 4
5 1 4 2 3
4 3 1 2 5
1 2 4 3 5
2 4 1 3 5
1 3 5 4 2
5 2 4 1 3
4 5 3 2 1
3 5 4 2 1
2 3 1 4 5

11
Tracie Goodwin
Delgado Proctor
Kelsey Russell
Larry Mead
Cesar Paul
Carla Hancock
Erick Mead
Michael Jefferson
Maria Hancock
Carla Steward
Caitlin Maynard
3 4 1 7 2 11 6 9 8 10 5
9 5 7 2 6 4 3 8 10 1 11
2 7 9 4 6 10 8 1 5 11 3
11 3 5 6 1 10 7 8 4 9 2
2 4 11 1 7 3 5 8 10 9 6
5 6 9 10 8 1 7 4 11 2 3
2 10 3 6 11 9 7 4 8 1 5
3 6 8 2 11 9 7 4 1 10 5
5 2 3 9 1 7 8 11 6 4 10
8 9 6 4 11 1 2 7 5 3 10
5 10 9 7 11 8 6 3 1 2 4
7 11 4 8 3 1 9 5 10 6 2
2 9 7 4 11 10 6 1 8 5 3
5 8 6 7 11 2 4 1 9 10 3

3
Lisa Goodwin
Larry Rivers
Caitlin Barber
1 3 2
1 2 3
2 1 3
1 2 3
3 1 2
2 1 3
3 2 1
1 2 3
3 1 2
3 2 1
1 2 3
1 3 2
2 1 3
2 3 1
2 3 1
1 3 2
3 2 1
2 3 1
2 3 1
3 2 1
3 1 2
1 3 2
3 1 2
3 1 2
1 3 2
2 3 1
1 3 2
3 1 2
2 1 3
3 1 2
2 3 1
1 3 2
3 1 2
2 1 3
3 1 2
1 2 3
2 1 3
3 1 2

1
Clark Hancock
1
1
1
1
1
1
1
1
1
1
1
1
1
1
1
1
1
1
1
1
1
1
1
1
1
1
1
1
1
1
1
1
1
1

16
Lindsey O'Connel
Erick Mercer
Carla Hancock
Cesar Steward
Kris Oleson
Larry Paul
Erick Bright
Marie Bright
Maria Russell
Lisa Russell
Julian Hardin
Delgado Maynard
Kris Livingston
Celia O'Connel
Marie Steward
Chelsea Mead
14 9 6 10 1 12 8 11 16 2 13 7 4 5 15 3
15 11 2 10 12 9 7 4 14 8 1 5 6 3 13 16
15 11 13 10 3 1 16 7 2 9 14 12 8 5 6 4
12 10 1 7 15 8 14 16 6 2 4 13 5 9 11 3
15 4 2 11 8 16 5 1 12 10 3 7 9 14 6 13
11 9 15 7 1 2 3 8 4 10 16 13 6 14 12 5
13 10 16 15 3 6 11 4 9 7 1 12 8 5 2 14
15 4 1 3 10 8 12 6 14 11 13 5 2 9 16 7
15 3 4 6 2 10 8 14 1 12 9 11 7 13 5 16
1 2 8 3 12 14 5 10 7 16 6 9 4 13 11 15
4 15 9 11 13 3 7 2 10 6 5 1 12 8 14 16
2 5 9 7 4 15 6 14 3 10 12 16 13 11 8 1
8 4 9 7 2 11 12 13 3 14 15 10 1 5 6 16
8 13 5 12 16 1 6 9 2 10 4 11 7 3 14 15
6 4 5 14 1 16 2 8 3 13 9 12 7 15 11 10
15 11 14 16 4 12 7 8 2 9 10 1 6 3 13 5
3 4 16 14 13 2 12 10 5 6 1 9 8 7 15 11
12 14 15 3 10 2 6 7 5 16 1 8 13 4 11 9
14 5 16 8 2 13 11 12 9 3 10 15 1 4 7 6
8 3 1 13 11 6 16 2 14 4 12 7 10 5 9 15
5 6 15 12 3 9 10 11 4 14 16 7 1 13 2 8
12 15 14 11 16 13 8 9 5 1 3 7 2 6 4 10
10 8 11 6 3 7 14 13 16 4 1 2 15 9 5 12
2 8 12 3 7 15 5 1 16 14 4 10 13 6 9 11
8 16 15 4 13 3 7 10 1 14 6 11 9 5 12 2
6 14 8 16 5 9 13 4 3 7 11 10 15 12 1 2
3 6 9 13 14 8 1 12 2 7 16 11 15 10 4 5
13 16 6 7 2 12 14 1 5 9 15 8 4 11 3 10
6 10 8 2 7 13 16 11 5 12 1 15 4 14 9 3
7 14 13 2 12 3 4 15 11 6 1 8 5 10 16 9
13 12 10 14 4 8 5 16 1 3 2 6 15 9 7 11
10 6 16 13 8 11 12 2 9 4 3 5 1 14 7 15
3 2 12 16 6 5 10 11 9 1 15 7 14 4 8 13
12 15 14 9 4 7 11 10 6 5 1 8 13 2 16 3
5 7 15 4 10 9 2 16 11 13 1 6 3 14 12 8
2 10 1 13 7 12 16 4 3 9 6 8 11 5 15 14
15 5 14 1 16 10 12 6 13 7 4 2 3 11 8 9
13 9 8 1 12 5 16 15 11 2 10 6 7 3 4 14
5 2 10 8 11 15 1 7 14 3 9 12 4 6 13 16

3
Cesar Livingston
Roland Steward
Chelsea Mead
1 3 2
2 3 1
3 1 2
3 2 1
2 1 3
2 3 1
2 1 3
2 1 3
3 2 1
2 3 1
2 3 1
3 2 1
3 2 1
3 1 2
3 2 1
1 3 2
2 3 1
1 2 3
2 3 1
1 3 2
1 3 2
2 1 3
3 2 1
3 2 1
3 2 1
1 3 2
3 1 2
1 3 2
3 1 2
2 3 1
1 3 2
1 3 2
2 1 3
2 3 1
1 2 3
3 1 2
2 1 3
3 2 1
3 1 2
3 2 1
3 2 1
3 2 1
2 1 3

10
Clark O'Connel
Maria Hardin
Michael Proctor
Marie Hancock
Julian Delgado
Clark Bright
Cesar Barber
Loretta Paul
Floyd Mueller
Clark Henson
8 6 9 2 3 4 1 7 10 5

16
Caitlin Hancock
Roland Rivers
Edward Rubio
Linda Mead
Tracie North
Erick Dodson
Angelina Barber
Maria Proctor
Carla Carver
Chelsea Dodson
Clark Carver
Chelsea Paul
Michael Delgado
Tracie Henson
Lindsey Oleson
Vanessa Hancock
5 10 15 6 13 3 8 1 11 16 4 2 9 14 12 7
12 14 15 10 11 13 6 4 3 2 9 8 7 1 16 5
10 9 7 1 12 4 15 16 3 2 8 13 6 11 14 5
14 3 2 1 4 5 6 9 13 10 11 15 16 12 8 7
10 1 9 7 2 15 11 12 8 4 14 3 6 16 5 13
3 8 6 4 10 16 11 9 7 12 15 1 14 5 2 13
4 8 14 6 2 11 15 7 1 12 5 13 16 3 9 10
1 2 6 9 15 13 12 11 10 3 16 8 4 14 7 5
10 8 14 15 5 16 6 4 9 7 11 13 2 3 1 12
3 2 16 10 9 6 4 15 5 11 8 13 7 12 1 14
12 8 7 5 1 15 3 13 6 4 9 11 14 10 2 16
2 16 11 1 12 15 4 14 9 5 3 6 8 10 7 13
5 13 2 14 4 11 10 12 1 16 6 9 7 3 15 8
16 9 14 6 13 7 3 10 4 11 1 15 12 2 8 5
11 8 16 7 3 2 14 15 5 10 9 12 1 13 4 6
1 6 9 14 7 3 8 2 13 16 12 5 11 4 10 15
2 12 1 3 4 6 9 15 5 13 8 11 14 16 10 7
9 2 5 15 13 1 11 10 8 4 3 7 16 6 12 14
8 4 7 9 13 10 11 14 3 5 6 12 16 1 2 15
13 1 16 11 4 9 10 2 14 12 8 5 3 15 6 7
1 3 4 2 5 13 16 12 15 8 6 7 10 14 11 9
2 13 6 11 15 5 8 1 7 14 16 9 10 12 4 3
8 5 13 12 3 14 1 9 16 4 10 2 15 7 11 6
11 16 6 3 14 7 12 1 13 5 9 8 15 10 2 4
7 12 10 5 9 6 8 1 13 15 11 3 16 4 14 2
16 8 1 9 5 15 4 12 11 10 3 13 2 6 14 7
8 5 6 11 3 14 16 13 12 7 1 9 4 15 2 10
16 1 12 6 4 11 9 13 3 5 7 15 2 8 10 14
6 15 13 5 14 10 1 7 9 4 2 11 12 3 8 16
2 4 13 7 5 1 10 14 3 16 11 9 12 6 15 8
14 10 16 13 9 11 5 7 8 12 3 2 6 15 4 1
8 10 9 1 6 5 13 12 11 3 2 14 4 7 15 16
1 13 2 14 8 7 12 5 10 4 9 6 11 3 15 16
2 1 15 5 14 6 13 12 8 10 16 4 7 9 3 11
15 2 10 9 5 4 8 12 13 14 11 7 16 1 6 3
5 4 3 9 11 7 12 1 8 13 16 10 2 15 14 6
15 4 14 7 8 12 11 6 3 2 9 1 10 5 13 16
12 14 8 7 16 5 3 2 4 6 11 10 15 13 9 1
1 9 12 15 13 4 2 16 10 6 3 11 8 5 7 14
4 15 8 14 16 10 1 12 2 9 13 3 6 11 5 7
14 3 7 6 11 1 12 4 15 2 5 13 16 10 8 9

4
Vanessa Paul
Caitlin Paul
Angelina O'Connel
Tracie Benson
1 4 2 3
1 2 4 3
3 2 4 1
3 1 2 4
3 2 4 1
1 4 2 3
3 1 4 2
4 3 2 1
2 4 3 1
1 3 4 2
3 4 1 2
1 2 4 3
2 4 1 3
4 2 3 1
2 1 4 3
2 3 1 4
4 3 2 1
1 4 3 2
1 4 2 3
1 2 3 4
2 1 4 3
1 3 2 4
4 1 2 3
4 1 3 2
4 3 1 2
3 1 4 2
2 1 3 4
1 3 2 4
1 2 4 3
4 1 3 2
4 2 3 1
3 4 1 2
2 3 1 4
4 3 1 2
1 3 4 2
4 2 3 1
3 1 4 2
3 2 4 1
1 3 2 4
3 4 2 1
2 4 3 1
3 4 1 2
3 2 4 1
4 3 2 1
3 2 1 4
1 3 2 4

14
Maria Mead
Michael Benson
Clark Hardin
Maria Proctor
Carla Mead
Caitlin Mead
Larry Mead
Morgan Barber
Cesar Cross
Daniel Hardin
Angelina Moyer
Morgan Russell
Delgado Hardin
Delgado Mead
7 12 5 10 4 11 2 8 3 6 1 13 14 9
10 3 5 11 6 7 9 1 14 4 12 2 8 13
4 13 9 3 10 7 8 11 12 1 5 6 2 14
7 5 13 8 4 9 10 2 12 11 1 14 6 3
13 8 7 6 2 10 1 11 3 9 14 4 12 5
9 3 11 12 5 13 8 10 1 4 6 7 14 2
4 14 12 8 7 2 1 5 9 11 13 6 3 10
6 7 13 11 4 1 5 12 10 3 14 8 2 9
10 12 2 8 11 14 5 1 13 4 7 6 9 3
2 11 1 13 12 3 4 9 14 10 6 8 5 7
3 9 5 1 11 2 4 7 6 14 12 13 8 10
12 8 3 14 4 13 7 5 11 1 10 6 9 2
9 4 13 1 5 3 11 6 7 2 14 10 8 12
7 13 9 3 2 8 12 14 10 5 1 6 11 4
11 1 13 9 5 6 14 3 8 7 2 10 4 12
3 4 12 9 8 1 10 11 14 6 7 13 5 2
5 12 8 10 3 7 9 13 14 11 6 1 2 4
13 12 2 11 4 10 5 9 3 1 8 14 6 7
14 1 5 7 10 4 2 11 9 3 13 8 6 12
7 13 11 14 1 8 9 3 12 4 5 10 6 2
13 7 10 6 2 5 3 12 9 11 8 1 14 4
7 1 3 9 10 11 14 2 5 4 13 12 8 6
13 1 8 11 6 10 9 7 4 14 2 12 3 5
9 3 5 4 1 13 2 7 8 12 6 10 14 11
9 12 3 14 10 7 4 13 2 6 1 11 8 5
6 1 13 8 12 4 5 11 9 7 10 14 2 3
3 4 13 14 2 10 1 5 9 7 6 12 11 8
3 11 6 4 8 1 10 2 13 12 7 5 9 14
4 13 2 12 1 9 5 14 10 3 11 8 6 7
4 11 14 13 12 8 2 3 7 10 9 5 6 1
3 9 14 13 12 5 7 11 4 1 6 8 2 10
13 1 6 10 8 2 5 12 14 7 3 4 9 11
1 9 4 8 3 6 11 14 7 5 2 10 13 12
10 11 1 6 3 14 12 9 5 13 2 4 8 7
11 5 13 14 8 4 3 9 12 6 7 2 1 10
9 6 12 2 11 4 7 8 14 5 13 3 10 1
5 1 14 3 10 13 11 9 12 7 6 2 4 8
13 4 9 3 10 1 14 11 8 5 7 12 6 2
12 3 1 5 9 2 6 7 13 14 10 11 8 4
14 12 9 2 3 7 5 8 4 10 1 13 6 11
13 6 11 3 10 12 14 8 4 7 5 2 1 9
5 2 10 4 11 3 8 12 1 6 9 14 7 13
6 7 14 8 1 11 10 12 4 13 5 3 9 2
6 9 11 14 13 5 10 1 3 12 8 7 2 4
5 1 6 11 14 4 13 8 9 3 7 12 10 2
2 8 14 7 10 12 9 5 4 6 13 1 3 11
2 7 14 12 11 6 9 1 13 3 5 10 4 8

18
Marie Steward
Maria Dodson
Celia Maynard
Celia Benson
Kris Shay
Julian Steward
Edward Carver
Carla Shay
Linda Oleson
Kris Oleson
Caitlin Bright
Loretta Barber
Marie Mead
Maria Oleson
Erick Dodson
Kelsey Rubio
Kelsey Rubio
Marie Moyer
14 18 16 12 6 11 7 9 10 4 13 15 8 5 2 17 1 3
1 3 8 5 7 16 10 17 15 13 6 18 12 2 11 14 9 4
17 11 1 15 12 5 4 3 2 16 14 18 6 7 9 10 8 13
8 3 10 2 15 18 1 13 16 14 12 11 5 6 7 9 17 4
7 1 10 17 6 8 16 2 18 5 3 15 9 11 14 12 13 4
10 5 7 3 12 17 2 8 4 13 15 14 18 9 1 6 16 11
14 15 16 7 10 1 13 12 3 4 5 9 6 2 18 11 8 17
4 18 14 13 12 8 9 16 6 1 15 10 7 2 5 17 3 11
13 4 16 8 18 11 2 5 15 12 3 7 14 6 10 9 17 1
1 3 7 6 17 5 4 14 13 11 9 12 10 2 15 8 18 16
17 7 6 9 10 4 16 12 2 8 1 15 11 3 5 14 13 18
11 13 1 14 4 6 7 5 2 12 3 10 16 18 8 17 15 9
2 17 7 16 4 18 10 6 9 5 12 11 3 14 15 13 1 8
16 13 3 14 4 2 10 18 15 8 17 6 5 1 9 11 12 7
12 8 9 14 3 2 6 4 18 16 17 15 7 10 1 11 13 5
6 10 3 18 9 4 14 17 7 15 1 13 16 12 11 8 2 5
15 13 1 8 16 6 10 11 18 14 5 4 3 2 17 7 12 9
11 17 12 14 10 15 7 9 6 2 4 5 13 8 18 1 3 16
11 14 6 7 16 13 3 8 17 12 1 2 5 15 9 18 4 10
16 4 9 3 12 15 8 11 18 1 7 5 2 13 10 6 14 17
18 17 16 4 12 3 6 7 13 8 5 15 2 11 14 10 9 1
2 13 5 12 9 6 18 17 11 4 1 14 16 8 7 3 15 10
11 1 18 2 4 7 13 8 10 17 12 14 15 16 3 6 5 9
9 2 4 12 18 17 1 7 3 11 16 14 13 10 6 8 5 15
16 9 4 7 6 18 13 1 10 8 12 3 2 5 11 17 15 14
15 18 17 6 16 5 10 11 4 12 2 3 1 8 7 13 9 14
15 6 9 2 10 3 18 11 12 17 13 1 16 7 5 4 14 8
6 16 7 2 12 5 11 18 15 1 4 13 3 17 14 10 9 8
14 3 17 6 9 7 13 1 4 2 5 16 15 11 18 8 12 10
2 7 16 1 12 13 4 14 11 6 9 3 5 15 18 17 10 8
13 11 10 12 18 16 6 8 2 3 15 4 1 7 14 9 5 17

5
Daniel Bright
Daniel Jefferson
Lisa Bright
Roland Moyer
Caitlin North
4 3 2 1 5
4 2 5 1 3
1 4 3 2 5
1 2 3 5 4
2 4 1 3 5
1 5 4 3 2
1 2 5 4 3
4 1 3 2 5
4 3 1 5 2
1 2 5 4 3
1 4 5 3 2
2 3 5 4 1
4 1 5 2 3
3 1 5 4 2
1 3 2 4 5
1 5 4 2 3
5 4 2 1 3
2 1 5 3 4
2 5 1 3 4
4 3 5 2 1
2 5 4 3 1
2 5 4 1 3
4 1 5 2 3
3 4 5 2 1
1 2 3 4 5
3 5 1 4 2
3 5 4 2 1
1 4 3 2 5

19
Loretta Hancock
Caitlin Cross
Celia O'Connel
Julian North
Edward Hancock
Delgado Oleson
Chelsea Henson
Morgan Paul
Lisa Mead
Michael Barber
Tracie Mueller
Julian O'Connel
Daniel Mueller
Daniel Cross
Lindsey Carver
Angelina Oleson
Caitlin Livingston
Kris North
Tracie Rubio
5 19 17 14 18 1 9 6 2 8 11 15 16 12 10 7 4 13 3
7 3 6 18 15 5 8 17 2 19 12 9 1 14 13 10 16 11 4
7 11 2 15 5 3 16 10 6 8 17 14 1 9 12 4 19 13 18
10 13 8 14 3 1 7 11 15 9 19 4 17 2 12 6 5 16 18
1 6 17 13 10 14 19 15 8 18 16 4 9 3 5 11 2 12 7
1 17 7 10 8 15 9 14 4 19 6 18 13 16 2 3 11 5 12
16 15 1 14 5 2 7 4 10 3 11 19 13 18 6 9 8 12 17
10 15 8 13 4 16 5 18 1 2 11 19 3 7 6 9 14 12 17
18 11 3 12 6 14 19 4 10 17 2 9 1 5 13 7 16 8 15
13 5 10 8 14 6 1 9 3 18 4 2 12 17 7 16 19 15 11
17 10 2 5 1 3 13 4 11 18 16 19 9 7 15 12 8 14 6
14 11 10 8 9 6 18 2 1 19 5 4 15 12 17 13 7 16 3
16 18 9 8 1 11 3 10 14 5 2 19 13 7 4 6 17 12 15
10 7 11 2 8 18 17 16 3 15 14 6 5 4 9 19 12 1 13
14 5 4 7 17 15 12 11 8 6 9 3 19 16 1 10 2 13 18
11 12 7 9 14 3 15 16 10 19 5 6 18 8 17 13 2 4 1
5 17 12 7 4 8 19 13 15 16 11 14 10 3 6 2 9 1 18
10 15 4 2 18 3 19 17 16 14 9 1 7 13 5 8 12 6 11
10 19 2 18 13 7 14 12 16 15 9 6 8 5 17 4 1 3 11
1 2 15 8 6 11 4 12 7 18 14 19 16 13 17 9 5 10 3
15 8 7 16 13 5 9 4 3 17 2 12 11 6 1 18 14 19 10
10 7 5 4 9 8 12 14 6 17 15 19 13 16 3 11 18 2 1
15 4 3 2 6 18 12 5 7 8 13 11 16 1 14 19 10 9 17
5 15 12 10 3 19 4 2 11 18 17 14 8 6 1 7 16 13 9
10 6 13 3 17 2 14 7 1 15 8 19 12 11 18 9 16 5 4

14
Angelina Livingston
Julian Hardin
Lisa Rubio
Floyd Jefferson
Vanessa Goodwin
Roland Jefferson
Delgado Mead
Morgan Henson
Carla Goodwin
Roland Russell
Kris Rubio
Erick Russell
Maria Paul
Clark O'Connel
6 9 3 12 4 10 14 13 11 2 7 8 1 5
2 8 11 13 1 4 5 6 10 7 12 14 3 9
9 1 14 2 8 5 12 3 7 10 6 13 4 11
2 4 1 11 14 10 12 6 8 5 7 9 3 13
11 9 2 4 14 6 7 3 12 10 1 5 8 13
3 6 13 14 9 8 10 1 5 12 7 4 11 2
5 3 10 4 6 1 7 9 8 11 12 13 2 14
11 13 10 7 2 5 14 3 6 12 1 8 4 9
9 14 10 13 11 4 1 6 2 7 8 3 12 5
3 7 14 12 11 9 5 8 6 10 4 2 1 13
11 9 3 8 5 12 14 10 7 13 2 1 6 4
13 7 4 9 8 12 1 10 14 2 3 11 5 6
10 9 8 5 7 14 13 1 11 2 3 4 6 12
11 2 9 10 6 13 14 7 5 12 4 1 3 8
10 1 12 13 14 7 9 4 6 3 2 8 5 11
3 6 11 9 5 13 8 10 4 1 12 2 14 7
10 9 6 11 4 14 7 5 2 1 8 12 3 13
14 3 7 10 4 6 2 5 9 13 8 11 1 12
5 13 9 12 7 6 2 1 4 3 11 10 8 14

20
Angelina Paul
Maria Mueller
Linda Steward
Erick Rivers
Marie O'Connel
Lindsey Steward
Daniel North
Michael Proctor
Julian North
Cesar Rivers
Michael Goodwin
Tracie Russell
Kelsey Jefferson
Daniel Benson
Loretta Dodson
Kris Bright
Celia Barber
Floyd Rivers
Lisa Dodson
Edward Jefferson
17 18 6 7 19 3 13 12 16 20 10 9 2 1 15 4 11 5 8 14
13 15 3 11 10 19 12 9 20 17 8 18 6 14 2 4 7 1 16 5
16 4 2 9 13 7 8 14 20 5 3 1 6 11 12 10 15 18 17 19
10 11 7 5 2 19 20 13 4 12 9 18 1 8 6 15 3 17 16 14
15 16 18 19 2 8 9 14 3 6 7 20 12 17 10 5 4 13 1 11
1 6 8 11 12 15 17 16 10 13 7 18 14 5 2 9 4 3 19 20
15 14 5 17 19 4 3 10 18 12 1 16 11 20 13 9 2 6 8 7
4 2 18 19 6 15 16 10 12 20 3 5 13 1 17 9 14 8 11 7
17 15 12 8 16 3 13 18 2 5 6 4 20 19 1 14 7 10 9 11
18 4 10 7 17 16 11 2 3 1 5 13 15 20 14 8 6 12 19 9
17 7 11 18 1 4 3 5 16 20 2 14 15 8 6 12 13 9 10 19
13 19 9 4 12 7 8 11 20 6 15 10 18 17 14 1 16 2 5 3
13 1 8 4 5 7 12 19 3 14 17 10 11 20 15 16 9 2 18 6
5 16 4 19 9 1 15 3 12 14 13 20 8 2 18 10 6 11 7 17
8 10 19 6 20 17 5 16 11 15 1 7 13 12 14 18 9 2 3 4
11 9 17 4 14 8 13 20 7 5 10 16 3 19 1 15 6 12 2 18
5 12 17 9 14 15 7 18 2 16 1 13 20 6 4 19 8 11 10 3
3 6 20 18 10 9 1 13 11 14 16 8 7 17 12 4 5 19 2 15
13 17 9 4 14 10 15 3 8 12 11 20 16 5 1 7 19 2 6 18
20 12 13 18 17 4 5 15 14 2 3 10 1 7 9 19 11 8 16 6
17 7 4 15 18 3 10 1 14 9 2 12 19 16 11 8 20 5 13 6
3 8 17 4 6 10 15 19 18 5 11 14 7 1 13 12 20 9 2 16
10 2 9 15 20 8 3 18 13 6 11 17 1 5 16 4 12 7 19 14
7 5 3 17 10 12 16 4 15 19 8 6 13 14 2 9 20 18 11 1
6 10 11 20 14 16 19 9 7 12 8 4 18 5 3 1 2 17 15 13

10
Kris Shay
Carla Oleson
Michael Rivers
Larry Hardin
Vanessa Cross
Tracie Carver
Caitlin Henson
Lindsey Barber
Clark Shay
Larry Livingston
6 7 8 3 1 10 4 2 9 5
10 7 5 1 3 9 6 4 2 8
4 9 2 10 1 7 8 5 6 3
6 4 1 2 10 5 3 7 8 9
6 2 10 1 7 5 9 3 4 8
4 5 3 10 2 8 1 7 9 6
1 4 6 7 10 8 2 9 3 5
8 1 2 10 5 3 9 4 6 7
2 1 5 9 3 6 8 7 4 10
7 8 3 5 6 9 2 10 4 1
7 1 2 5 6 3 8 10 4 9
2 6 7 1 3 8 9 10 4 5

1
Chelsea Livingston
1
1
1
1
1
1
1
1
1
1
1
1
1
1
1
1
1
1
1
1
1
1
1
1
1
1
1

8
Michael Bright
Clark Livingston
Linda North
Delgado Proctor
Celia Steward
Erick Henson
Edward Rubio
Floyd Rubio
1 8 3 6 4 7 2 5
6 7 8 5 4 2 3 1
2 7 3 4 6 1 5 8
3 5 2 8 7 1 4 6
7 3 1 5 4 8 2 6
6 8 4 1 5 2 7 3
7 8 6 2 5 3 4 1
8 7 5 4 3 1 6 2
7 1 4 5 3 2 8 6
5 4 2 3 6 8 7 1
7 3 5 6 4 1 2 8
3 1 7 8 4 6 5 2
2 6 1 4 8 5 3 7
8 3 4 7 2 6 5 1
8 3 4 2 7 6 1 5
6 5 2 4 3 7 1 8
3 7 1 8 6 5 4 2
4 7 3 8 2 6 5 1
1 2 7 3 8 5 4 6
8 4 7 6 2 3 1 5
4 2 1 3 7 6 8 5
3 6 2 7 5 4 1 8
8 5 3 4 7 6 1 2
8 4 5 1 6 3 2 7
7 6 5 8 4 3 2 1
2 6 5 7 3 4 1 8
8 2 4 5 7 3 1 6
1 5 2 4 3 6 7 8
8 3 4 1 2 6 7 5
5 3 2 4 8 7 6 1
6 4 7 8 2 5 3 1
4 8 3 6 2 5 1 7
4 3 2 1 7 6 8 5
1 5 6 4 2 3 7 8
4 5 1 8 7 2 3 6
5 6 3 8 4 2 7 1
7 5 4 3 2 1 8 6
1 5 4 3 2 6 7 8
2 6 7 8 5 3 1 4
7 8 6 1 3 2 5 4
5 7 8 4 6 3 1 2

16
Delgado Delgado
Floyd Mueller
Morgan Oleson
Loretta Hancock
Cesar Hardin
Michael Rubio
Roland O'Connel
Michael Mead
Maria Mead
Kelsey Goodwin
Marie Jefferson
Caitlin Rivers
Maria Proctor
Maria Proctor
Morgan Carver
Linda Barber
15 11 9 2 12 16 1 10 8 3 13 14 6 7 5 4
2 5 6 9 16 14 12 10 11 1 4 3 13 8 15 7
2 16 15 7 8 10 4 11 3 9 6 1 13 12 14 5
9 14 13 16 2 12 7 10 3 11 1 4 15 5 8 6
13 1 5 6 8 2 4 15 12 10 16 7 11 3 14 9
13 9 3 10 2 12 16 6 5 4 11 8 1 7 15 14
11 8 16 3 15 4 6 1 14 7 10 5 13 12 2 9
9 10 16 8 5 1 3 13 4 6 12 15 11 14 2 7
6 15 9 11 1 8 10 4 13 3 16 5 12 7 14 2
2 11 12 6 3 4 9 8 7 10 16 15 1 14 5 13
10 11 8 1 4 5 9 6 3 14 13 7 16 12 2 15
9 11 16 12 4 2 13 5 10 3 6 7 15 1 14 8
2 13 5 9 8 14 4 12 15 3 11 6 1 10 16 7
12 14 15 10 4 7 3 11 9 1 13 16 5 8 6 2
14 9 5 1 7 8 3 10 6 13 11 16 4 2 15 12
1 3 2 4 11 5 10 12 9 15 16 13 7 6 8 14
7 14 16 12 2 9 6 10 8 4 15 11 3 1 5 13
8 13 12 2 14 3 11 5 7 4 1 9 15 6 10 16
14 15 7 6 12 10 4 8 1 13 3 16 2 11 5 9
14 2 13 11 7 10 1 5 12 8 6 9 15 16 4 3
6 10 8 11 16 5 13 2 15 1 4 9 12 7 3 14
15 4 6 5 8 11 2 12 7 13 1 10 14 16 9 3
15 1 2 14 16 8 11 3 6 5 4 13 9 12 10 7
6 9 13 11 8 15 12 1 7 5 14 3 2 4 16 10
10 8 3 6 13 11 7 14 12 4 9 1 15 16 5 2
10 12 13 2 3 6 4 11 7 8 14 16 1 15 9 5
3 16 15 10 12 9 13 14 7 1 2 4 5 8 11 6
10 8 15 3 13 5 2 9 7 12 1 6 11 16 4 14
13 11 7 15 6 5 8 2 3 1 4 10 9 16 14 12
14 8 5 15 13 12 11 1 6 16 9 4 7 3 10 2
11 14 9 8 15 1 5 4 7 10 3 6 13 2 12 16
5 12 11 10 1 7 15 2 6 13 16 14 9 8 4 3
10 1 16 6 9 12 7 4 3 5 14 2 13 8 15 11
6 13 8 14 10 12 9 16 11 3 15 5 4 2 7 1
11 3 12 2 4 13 1 7 10 8 9 5 16 15 6 14
11 16 6 4 2 1 15 13 3 5 9 12 10 7 8 14
3 14 2 4 8 11 6 9 7 12 13 15 5 10 1 16
8 5 2 13 3 11 7 4 1 9 12 14 15 10 16 6
5 11 4 1 16 8 2 15 14 7 13 9 6 10 3 12
13 7 16 2 5 1 15 9 8 14 3 12 11 4 6 10
10 8 4 3 14 2 9 7 5 12 13 11 15 6 16 1
7 2 14 3 1 6 12 4 9 10 8 5 13 11 16 15
10 13 6 8 9 2 4 14 15 3 12 1 11 5 7 16

1
Caitlin Russell
1
1
1
1
1
1
1
1
1
1
1
1
1
1
1
1
1
1
1
1
1
1
1
1
1
1
1
1
1
1

4
Vanessa Steward
Floyd Proctor
Marie Benson
Clark Barber
1 4 2 3
3 4 1 2
2 1 3 4
2 4 1 3
1 3 2 4

17
Kelsey O'Connel
Edward Shay
Cesar Dodson
Caitlin Proctor
Erick Delgado
Delgado Cross
Marie Oleson
Edward Goodwin
Morgan Benson
Carla Mueller
Kris Steward
Linda Cross
Floyd Rivers
Erick Cross
Angelina Delgado
Carla Dodson
Delgado Paul
8 7 11 5 3 10 13 1 17 9 4 6 2 12 16 14 15
1 6 5 10 4 3 9 8 7 14 11 15 13 12 16 17 2
14 4 17 16 9 7 8 6 12 5 13 15 1 2 11 10 3
4 6 11 8 3 15 7 1 13 5 14 12 10 16 9 2 17
14 13 9 7 10 17 2 8 12 11 4 3 6 1 16 5 15
13 7 9 8 16 2 4 12 5 15 3 17 11 14 6 10 1
17 12 11 1 9 6 8 2 5 7 15 16 14 13 3 10 4
3 13 9 14 16 10 5 7 8 15 6 11 17 12 2 4 1

3
Michael Barber
Maria Hancock
Daniel Jefferson
3 1 2
2 1 3
3 2 1
1 3 2
1 2 3
2 3 1
1 3 2
2 3 1
2 1 3
1 2 3
1 3 2
2 1 3
3 2 1
2 1 3
2 1 3
2 1 3
3 1 2
2 3 1
2 1 3
2 1 3
1 2 3
3 1 2
1 2 3
2 3 1
3 2 1
1 3 2
2 3 1
1 3 2
1 2 3
3 1 2
2 3 1
1 3 2
3 2 1
1 2 3

19
Marie Proctor
Marie Moyer
Edward Shay
Angelina Henson
Delgado Jefferson
Kelsey Russell
Delgado Hardin
Cesar Russell
Carla Mueller
Floyd Jefferson
Roland Mueller
Celia O'Connel
Vanessa Carver
Loretta Bright
Marie Rivers
Marie Moyer
Lisa Carver
Floyd Jefferson
Daniel Benson
19 4 14 12 15 7 6 10 5 2 11 18 9 8 16 3 1 17 13
10 19 7 3 18 8 16 4 2 14 13 5 9 1 15 11 17 12 6
11 6 14 16 5 18 7 2 13 1 8 3 17 9 10 12 19 4 15
2 18 19 1 11 15 4 8 9 5 14 3 13 16 12 10 6 7 17
10 4 13 1 8 3 14 11 16 15 9 17 5 12 6 19 18 7 2
8 1 17 14 12 5 11 9 10 13 16 19 15 7 4 6 3 18 2
3 5 15 8 12 11 6 13 2 7 17 10 18 9 16 4 19 1 14
16 2 15 5 13 11 9 19 18 14 17 6 10 3 12 8 4 1 7
4 6 14 11 18 19 3 10 5 16 13 2 15 12 8 9 7 17 1
3 12 15 9 2 7 5 19 16 11 13 10 17 14 8 4 18 6 1
16 4 19 9 8 11 10 2 14 7 13 6 12 18 1 17 15 5 3
2 15 9 6 10 19 3 1 12 16 7 5 13 14 17 8 4 11 18
13 18 10 12 19 7 8 3 1 5 14 11 4 17 6 16 15 2 9
12 19 6 13 16 5 10 11 1 3 2 7 4 15 9 8 17 14 18
19 5 17 14 16 10 9 18 6 7 11 12 13 15 2 8 4 3 1
6 12 13 10 11 8 14 16 3 15 17 18 9 4 7 2 19 5 1
2 3 5 6 15 17 14 12 9 11 4 1 16 19 7 8 13 18 10
9 4 18 5 7 19 11 6 8 2 1 14 17 10 12 15 13 16 3
3 8 7 18 19 12 10 2 16 6 15 11 4 9 5 1 17 14 13
5 14 8 19 7 9 17 18 10 16 2 4 12 13 11 6 1 3 15
5 19 3 1 12 6 7 10 13 16 14 17 18 8 4 11 2 9 15
13 11 18 12 7 10 2 1 9 17 8 16 19 15 4 6 14 5 3
16 2 10 4 12 6 11 9 17 18 19 3 14 7 5 15 13 8 1
6 4 7 16 8 19 11 1 3 18 10 2 13 17 12 5 14 15 9
16 2 19 8 14 17 18 10 9 12 5 4 11 7 1 6 3 15 13
17 8 12 13 19 5 10 16 7 15 3 9 2 14 18 4 11 6 1
2 1 7 17 15 18 16 5 10 12 13 6 19 9 3 8 14 11 4
1 11 3 18 6 16 2 14 5 9 10 15 7 19 17 12 4 8 13
17 15 1 10 7 14 18 4 8 2 11 5 19 13 6 9 16 3 12
10 9 18 11 8 13 7 2 1 5 15 12 19 4 6 17 3 14 16
7 9 17 6 15 1 13 11 2 5 8 18 12 19 14 10 3 16 4
14 6 7 15 8 13 18 2 4 17 19 9 12 3 11 5 10 1 16
6 3 2 11 10 7 14 1 13 4 8 19 16 12 17 9 5 18 15
6 11 15 19 5 2 14 10 13 7 17 12 16 9 3 1 18 4 8
7 19 5 12 2 11 6 10 3 14 16 1 8 17 18 15 4 9 13
14 10 6 5 16 1 12 8 15 13 2 3 18 19 17 4 7 9 11
19 11 7 16 15 18 14 17 8 2 9 13 1 3 6 5 4 10 12
6 5 11 2 9 13 17 15 4 16 12 8 3 18 14 7 19 10 1
17 3 14 12 8 10 4 19 11 15 2 9 16 1 5 18 6 13 7
18 4 13 2 17 11 14 8 6 19 3 15 16 9 5 1 10 7 12
8 19 15 3 14 18 9 10 13 16 17 11 2 6 1 7 12 5 4
14 7 2 18 3 12 4 13 9 1 16 11 6 19 8 10 5 17 15
3 5 7 13 4 1 14 10 19 8 17 16 15 9 12 6 18 11 2
13 2 12 11 19 6 14 18 4 3 1 5 7 17 8 9 15 16 10

2
Julian Proctor
Daniel Paul
2 1
1 2
1 2
1 2
2 1
1 2
1 2
1 2
1 2
2 1
2 1
1 2

3
Edward Paul
Loretta Benson
Cesar Shay
3 1 2
1 2 3
3 1 2
3 2 1
2 1 3
3 2 1
1 2 3
3 2 1
3 1 2
1 3 2
3 2 1
2 3 1
1 2 3
3 1 2
3 2 1
2 3 1
2 3 1
3 1 2
3 1 2
2 3 1
3 1 2
1 2 3
2 1 3
2 1 3
3 1 2
3 2 1
3 1 2
1 2 3
2 1 3
3 1 2
2 1 3
2 1 3
3 1 2
2 1 3
2 3 1
1 3 2

14
Caitlin Mead
Vanessa Rivers
Angelina Steward
Michael Bright
Carla Cross
Delgado Goodwin
Loretta Benson
Caitlin Dodson
Angelina Mueller
Marie Hancock
Chelsea Moyer
Linda Carver
Lindsey North
Caitlin Dodson
3 2 7 13 8 10 5 11 4 9 6 12 1 14
10 14 9 6 13 4 11 5 1 12 2 8 3 7
9 4 1 10 5 7 8 6 14 11 12 13 2 3
10 1 4 3 8 6 14 12 11 13 5 2 9 7
2 6 10 12 7 13 9 4 11 14 3 8 1 5
5 1 6 14 7 13 4 8 3 9 12 11 2 10
1 10 7 2 11 6 8 3 4 12 13 5 14 9
10 14 7 4 9 12 5 11 8 1 3 2 6 13
4 2 14 1 8 5 13 10 3 6 7 11 9 12
7 6 14 8 4 12 10 2 9 11 1 13 3 5
8 3 4 11 1 2 6 9 14 5 13 7 10 12
6 2 7 4 8 11 3 10 13 5 9 14 1 12
7 8 10 11 5 14 9 3 6 4 1 12 13 2
8 10 6 12 7 1 4 9 5 11 2 14 3 13
6 14 9 2 5 7 3 8 11 13 4 1 10 12
4 11 2 7 14 12 6 13 8 10 1 3 5 9
9 4 10 12 2 1 13 6 11 8 7 3 14 5
5 9 6 7 2 11 10 4 3 8 13 12 1 14

8
Daniel Carver
Maria Mueller
Kelsey Jefferson
Tracie Moyer
Marie Benson
Daniel Moyer
Vanessa Dodson
Carla Benson
2 7 6 5 8 4 1 3
2 5 7 3 1 6 4 8
6 4 5 3 7 8 1 2
7 1 6 4 3 8 2 5
7 6 2 5 1 8 3 4
1 4 6 7 8 3 5 2
7 1 6 8 4 3 5 2
3 1 2 5 7 4 6 8

7
Floyd Goodwin
Julian Bright
Marie Livingston
Erick Barber
Erick Cross
Loretta Livingston
Linda Henson
1 7 5 2 6 4 3
5 3 2 1 4 7 6
4 5 6 3 2 7 1
2 5 1 3 7 4 6
5 4 1 7 3 6 2
5 4 6 3 2 1 7
4 3 6 1 7 5 2
1 7 5 3 2 6 4
1 5 2 6 7 3 4
3 1 6 7 2 4 5
4 6 2 5 3 7 1
4 3 1 6 2 5 7
2 7 3 5 1 6 4
3 7 1 6 4 2 5
1 2 3 7 4 5 6
5 7 2 6 3 4 1
6 1 2 5 4 7 3
2 1 3 6 5 4 7
5 3 2 1 6 4 7
2 7 6 1 3 5 4

19
Angelina Barber
Kelsey Steward
Vanessa Livingston
Kris Russell
Morgan Paul
Maria Hancock
Floyd Cross
Kris Proctor
Loretta Bright
Celia Rubio
Delgado Hardin
Lisa Mueller
Erick Barber
Tracie Paul
Angelina Bright
Lisa Oleson
Floyd O'Connel
Floyd O'Connel
Angelina Hancock
14 2 18 4 1 19 7 8 5 10 12 3 6 9 13 17 15 16 11
8 4 14 2 9 15 7 10 19 17 3 11 12 16 5 18 13 6 1
4 12 6 19 14 15 18 9 16 5 10 1 7 13 3 8 2 11 17
2 4 11 7 16 5 13 1 10 8 17 18 15 3 19 14 9 6 12
18 10 12 6 14 2 7 9 11 19 3 15 17 8 16 1 5 4 13
15 11 1 16 9 2 7 5 6 10 8 13 18 19 14 3 4 12 17
10 1 12 16 5 15 8 9 4 6 13 7 3 11 19 14 18 17 2
1 14 2 16 17 11 5 7 15 12 3 9 18 10 4 6 19 8 13
13 16 10 4 2 18 14 19 3 9 11 7 17 5 6 15 1 8 12
8 18 15 4 5 1 11 12 16 9 10 6 3 2 7 17 14 19 13
11 3 2 9 10 15 8 5 19 1 7 18 16 6 17 13 12 14 4
9 8 1 14 3 11 17 4 19 2 7 10 13 15 12 5 6 16 18
13 17 2 19 4 6 5 12 10 7 14 8 9 15 11 18 1 16 3
13 16 10 2 18 1 15 6 19 11 7 8 12 5 4 17 3 14 9
12 13 1 4 2 14 19 15 16 7 8 11 10 17 9 18 3 6 5
11 4 17 5 15 6 13 7 3 10 16 18 19 14 1 12 9 8 2
1 17 7 15 12 10 11 2 13 9 18 6 16 4 8 5 3 19 14
12 19 17 2 6 3 4 11 14 1 16 7 10 9 15 13 8 18 5
4 11 18 13 15 2 10 16 6 8 3 9 1 5 7 19 17 14 12
3 12 2 4 5 9 1 19 6 11 18 10 13 16 14 15 17 8 7
6 5 12 13 19 9 8 10 15 16 14 17 11 2 4 3 7 18 1
1 15 14 5 7 13 3 11 16 8 12 17 4 6 18 19 10 2 9
8 18 12 9 3 19 2 5 11 7 14 13 10 1 15 17 4 6 16
7 12 19 17 16 4 1 14 9 5 6 18 3 2 11 8 10 13 15
2 10 17 11 3 18 7 19 16 15 4 8 1 6 12 14 5 9 13
10 19 11 7 5 12 4 8 15 3 9 6 16 2 1 17 13 14 18
1 13 4 5 14 12 18 6 15 11 7 19 17 9 8 3 16 2 10
19 2 1 3 17 12 10 7 14 6 9 4 15 13 18 5 8 11 16
17 11 1 10 7 9 8 13 15 18 4 16 5 12 6 2 3 19 14
14 4 5 13 2 7 12 16 10 19 6 3 15 17 1 9 11 18 8

10
Loretta Mead
Tracie Cross
Kelsey Dodson
Lisa Dodson
Maria Benson
Tracie Carver
Carla Carver
Cesar Mercer
Julian Bright
Maria Maynard
3 4 6 10 8 1 2 5 9 7
9 10 4 1 6 5 2 3 7 8
1 6 7 10 2 5 4 9 3 8
2 7 1 6 4 8 3 5 10 9
9 6 4 8 2 5 3 10 7 1
3 1 8 4 6 9 2 10 5 7
2 3 5 8 1 7 9 4 6 10
7 9 4 8 10 6 3 5 1 2
6 4 8 7 9 3 1 10 5 2
5 8 9 10 1 2 4 6 3 7
8 1 7 9 4 2 5 6 10 3
2 4 10 6 3 9 5 1 8 7
9 5 1 2 10 7 3 6 4 8
9 2 5 8 6 3 4 7 1 10
8 9 10 1 4 3 6 2 5 7
7 8 3 6 2 4 5 9 1 10
7 2 9 6 8 3 4 5 1 10
10 6 5 8 2 1 3 9 7 4
9 1 2 5 3 10 8 7 6 4
10 3 2 9 7 1 5 8 6 4
8 7 5 3 2 9 4 10 1 6
10 9 8 4 3 1 2 6 5 7
10 9 5 6 4 3 2 1 8 7
7 8 6 3 4 9 5 2 10 1
5 3 7 8 4 9 10 1 6 2
4 2 9 1 8 10 5 6 3 7
6 9 1 8 4 5 7 10 3 2
3 5 10 7 8 2 6 9 4 1
2 9 6 3 7 4 10 5 8 1
1 9 8 2 4 7 10 5 3 6
4 5 10 6 1 9 7 2 3 8
5 8 3 2 9 4 6 7 1 10
9 10 2 6 3 5 1 7 8 4
7 8 3 4 5 1 10 9 2 6
6 3 5 9 4 1 7 8 2 10
9 10 5 7 4 6 8 3 2 1
1 3 6 8 7 4 2 9 10 5
3 10 4 8 9 5 6 2 7 1
1 5 6 7 9 3 2 8 10 4
1 5 8 2 4 6 3 9 10 7
4 6 1 2 10 8 3 9 7 5
7 2 8 4 3 6 10 9 5 1
2 8 9 6 10 3 7 5 1 4
7 4 10 1 5 9 8 3 2 6
3 6 5 1 8 2 4 9 7 10
2 4 7 1 9 3 8 6 10 5
2 6 4 8 5 10 3 9 7 1
2 5 1 8 9 7 10 4 3 6

5
Clark Mead
Clark Oleson
Edward O'Connel
Morgan Paul
Michael Paul
1 3 5 4 2
4 5 1 2 3
5 1 4 2 3
5 2 1 3 4
1 4 3 2 5
5 2 1 4 3
1 3 4 2 5
3 4 1 5 2
1 3 4 5 2
2 5 1 3 4
4 1 5 2 3
1 3 4 5 2
5 4 3 1 2
5 1 2 3 4
3 1 5 2 4
2 5 3 1 4
5 4 3 2 1
3 1 5 2 4
1 5 2 3 4
3 4 1 2 5
1 3 4 5 2
4 3 5 1 2
3 5 1 4 2
2 5 1 4 3
1 5 2 4 3
3 5 1 4 2
2 4 5 1 3
2 5 4 3 1
2 4 5 3 1
2 3 1 5 4
1 4 3 2 5
3 5 1 2 4
3 5 2 1 4
3 4 1 5 2
1 4 3 2 5
4 1 5 3 2
3 2 5 4 1
1 5 4 3 2
2 3 5 1 4
2 4 1 3 5
2 4 3 1 5
1 3 4 2 5
3 1 5 2 4
1 3 2 4 5
1 2 5 4 3
4 1 2 3 5
4 5 1 2 3
3 2 4 5 1
5 3 2 1 4
3 1 5 4 2

9
Tracie Mueller
Kelsey Steward
Morgan North
Clark Dodson
Edward North
Carla O'Connel
Kelsey Dodson
Marie Barber
Delgado Rubio
9 7 3 1 2 6 8 4 5
3 2 4 5 6 9 1 7 8
3 9 8 1 4 2 5 7 6
9 1 2 4 8 5 7 3 6
8 9 3 1 4 6 7 2 5
5 7 1 8 6 3 2 9 4
8 9 6 7 3 5 1 4 2
4 3 8 5 9 6 2 7 1
5 9 7 2 3 6 8 1 4
9 1 2 6 3 5 7 8 4
7 9 2 3 6 4 8 1 5

15
Daniel Shay
Celia Steward
Celia Russell
Kelsey Mueller
Cesar Mercer
Celia Hancock
Celia Proctor
Morgan North
Celia O'Connel
Loretta Steward
Julian Benson
Michael Barber
Floyd Rivers
Morgan Livingston
Daniel Mercer
7 1 2 14 12 15 11 8 3 6 13 5 4 9 10
14 2 8 3 9 12 10 7 6 15 1 13 5 4 11
9 12 5 10 7 2 11 14 13 3 1 15 8 6 4
1 11 13 10 8 9 7 4 5 3 6 15 2 12 14
15 10 6 12 1 14 3 13 9 11 2 4 8 5 7
3 13 6 11 8 5 4 14 7 12 2 10 1 15 9
11 3 10 4 5 1 13 2 9 7 14 15 6 8 12
4 11 3 15 10 7 5 12 2 13 1 9 6 14 8
11 7 8 12 6 5 14 13 1 4 3 2 10 9 15
15 9 6 3 4 10 14 7 2 5 1 11 12 8 13
9 6 2 1 11 14 8 10 15 4 5 13 3 7 12
3 10 12 8 14 11 13 1 4 9 15 6 5 2 7
3 10 13 15 11 6 8 14 7 5 4 1 2 9 12
15 14 12 11 10 7 6 3 2 9 13 8 5 1 4
6 7 1 9 3 12 15 11 8 13 4 5 10 14 2
1 10 7 14 12 5 2 3 13 4 6 15 9 11 8
6 8 2 9 11 1 13 10 12 14 4 3 7 15 5
14 12 5 7 2 8 13 1 4 11 3 9 6 15 10
4 15 13 12 14 10 1 9 6 11 8 3 7 2 5
1 4 8 2 13 6 3 9 7 11 10 15 14 12 5
11 15 13 2 12 7 10 9 5 8 4 3 14 6 1
9 8 3 2 11 4 6 13 10 5 1 12 14 7 15
5 8 4 15 6 1 7 10 3 14 9 2 13 12 11
4 13 3 11 8 5 14 15 6 12 10 2 9 7 1
3 12 9 7 8 5 13 11 4 10 6 1 14 15 2
7 5 2 14 10 11 8 3 6 1 12 9 4 13 15
1 15 5 13 12 4 3 9 8 6 10 14 2 7 11
13 2 9 11 4 1 14 6 7 15 10 5 8 3 12
2 5 1 12 14 13 11 10 7 9 4 6 15 8 3
3 6 8 1 9 2 4 11 10 12 5 14 7 13 15
8 9 15 11 1 4 12 3 13 6 10 14 5 2 7
2 1 8 9 4 14 7 3 15 6 5 13 11 12 10
4 8 10 12 2 15 9 7 13 6 11 5 14 1 3
8 1 2 6 3 13 4 9 12 11 15 14 10 7 5
15 3 2 1 5 11 14 4 13 10 6 9 12 7 8
2 13 11 12 7 3 4 1 14 10 15 9 8 5 6
5 9 4 8 13 3 10 7 11 6 1 12 15 2 14
1 8 5 13 7 4 11 9 14 10 2 12 15 6 3
7 4 5 3 10 13 14 9 2 1 11 6 8 12 15
8 1 9 14 10 2 12 7 3 6 4 15 11 13 5
9 5 15 11 7 12 10 3 8 2 14 1 6 13 4

15
Maria Cross
Roland Mueller
Morgan Steward
Cesar Steward
Chelsea Rubio
Michael Mead
Floyd Hardin
Cesar Bright
Kelsey Mueller
Marie Shay
Michael Dodson
Angelina Steward
Lindsey Delgado
Chelsea Mueller
Floyd Mercer
1 12 9 7 6 4 14 15 3 2 5 13 11 10 8
3 13 4 11 9 15 10 8 12 5 2 6 7 1 14
3 2 12 5 15 4 10 6 1 13 11 7 14 9 8
5 2 12 11 4 7 6 10 1 13 14 15 9 3 8
9 10 13 2 7 8 1 15 14 5 11 4 6 12 3
4 15 2 1 3 10 13 11 12 5 8 14 7 6 9
11 12 15 13 7 9 2 3 8 1 14 4 10 5 6
11 14 6 10 13 12 3 4 5 15 2 1 7 9 8
10 2 14 7 9 3 11 1 13 15 6 12 5 8 4
8 11 15 1 2 3 10 5 13 7 9 14 6 4 12
10 8 7 4 6 5 14 15 13 1 11 2 9 12 3
8 3 4 7 5 13 14 1 12 10 15 9 2 11 6
4 1 6 13 11 10 2 8 9 3 7 12 5 15 14
14 4 9 11 7 1 8 5 15 12 10 13 3 6 2
9 15 10 14 11 6 2 7 8 12 1 13 4 3 5
2 9 13 15 7 5 8 10 6 12 1 11 3 14 4
13 14 11 3 6 2 10 1 9 4 15 7 12 8 5
5 6 10 7 12 4 9 2 8 13 11 1 14 3 15
14 11 15 3 9 5 10 2 4 1 7 6 13 12 8

2
Tracie Mueller
Marie Moyer
2 1
1 2
2 1
2 1
1 2
2 1
2 1
1 2
2 1
1 2
1 2
1 2
1 2
2 1
1 2
1 2
2 1
2 1
1 2
2 1
1 2
1 2
2 1
1 2
2 1
1 2
1 2
2 1
2 1
2 1
2 1
2 1
2 1
2 1
1 2
1 2
1 2
1 2
2 1
1 2
2 1
1 2
1 2
2 1

19
Maria Mueller
Kris Hancock
Edward Maynard
Maria Henson
Erick Delgado
Chelsea Mead
Celia Barber
Larry Hardin
Loretta Dodson
Caitlin Goodwin
Roland Russell
Delgado Delgado
Morgan Delgado
Carla North
Floyd Moyer
Vanessa Carver
Angelina Dodson
Linda Jefferson
Morgan Steward
14 7 17 16 12 8 10 13 5 3 1 18 11 15 9 19 2 6 4
15 14 1 7 2 18 17 13 4 5 9 12 16 3 19 8 10 11 6
2 9 4 15 14 6 7 8 17 5 13 18 19 11 3 10 12 1 16
5 13 3 4 14 17 1 15 9 19 18 10 8 6 12 16 7 2 11
8 14 18 7 16 9 2 13 12 5 4 10 11 19 1 17 6 3 15
1 6 9 19 5 11 16 18 2 13 3 17 8 4 7 14 12 10 15
6 9 18 7 12 10 4 16 17 2 5 8 13 1 3 11 15 14 19
9 4 18 13 17 3 6 11 15 12 1 7 2 14 16 5 10 19 8
10 6 19 5 9 1 7 18 17 16 13 11 8 4 3 15 12 14 2
18 16 12 6 5 15 2 17 4 3 10 13 8 14 11 19 1 9 7
14 13 11 17 8 16 19 12 15 2 18 7 10 6 9 5 4 1 3
4 1 6 15 18 8 7 10 5 11 12 16 19 17 9 3 13 2 14
3 10 8 5 15 13 18 16 7 9 4 2 19 14 6 1 12 11 17
7 18 1 14 17 10 3 6 4 12 8 11 9 19 15 13 16 2 5
2 4 12 3 1 18 17 8 11 19 6 13 9 15 5 14 7 10 16
11 10 19 6 4 7 15 13 12 2 3 5 16 18 17 14 8 9 1
9 17 12 15 1 18 13 19 8 16 3 11 6 2 14 5 10 4 7
2 6 12 11 15 9 14 3 4 7 16 10 8 18 1 17 19 13 5
11 7 2 10 6 18 8 17 15 12 5 9 1 13 16 3 19 4 14
18 9 19 3 17 16 7 8 14 12 15 2 10 13 11 4 6 5 1
8 7 18 6 4 14 1 2 11 10 3 13 5 9 17 12 19 16 15
19 6 5 18 1 11 16 14 15 3 4 7 10 8 2 13 9 17 12
19 16 11 2 7 6 9 17 8 3 15 18 5 1 12 10 13 4 14
11 4 16 8 10 17 14 6 15 7 13 5 12 2 18 9 1 19 3
8 4 12 10 6 17 16 3 14 11 1 13 7 15 18 19 5 2 9
7 17 1 13 14 4 5 10 15 16 2 3 19 18 8 11 9 12 6
10 5 7 9 18 12 8 17 16 15 6 1 13 14 2 11 4 19 3
12 13 18 10 16 2 4 5 6 17 3 11 9 15 19 14 8 7 1
14 13 6 10 4 11 8 15 3 17 2 1 7 19 5 12 9 16 18
1 14 19 17 18 13 5 10 8 7 6 3 4 16 11 9 15 12 2
2 19 6 7 18 10 8 3 16 12 13 11 1 15 14 9 4 17 5
9 8 1 17 19 15 6 11 16 10 4 7 3 12 2 14 5 18 13
19 6 7 17 11 12 3 13 18 15 16 5 2 14 10 1 9 8 4
15 16 4 8 6 10 3 9 18 13 14 5 11 2 12 7 1 19 17
4 12 1 8 2 9 15 5 3 13 17 16 18 11 6 14 19 10 7
13 11 3 1 18 4 10 17 6 19 12 15 16 5 9 7 2 14 8
9 15 8 5 2 12 3 17 7 16 18 13 14 10 1 19 11 4 6
8 12 11 6 4 13 2 19 17 15 5 1 3 7 9 18 14 16 10
4 8 9 14 5 12 16 7 18 11 2 1 6 10 13 15 19 17 3

14
Kelsey Mueller
Vanessa Maynard
Tracie Mueller
Cesar Moyer
Clark Mead
Roland Rubio
Larry Barber
Michael Dodson
Tracie Shay
Edward Rivers
Kris Barber
Loretta Carver
Marie Shay
Roland Mercer
8 1 7 4 14 13 6 12 10 9 2 3 5 11
12 8 10 11 14 6 7 5 9 2 3 1 13 4
10 3 1 7 2 9 12 8 11 4 14 5 13 6
11 14 3 7 8 13 12 9 2 10 4 6 1 5
6 2 3 14 8 10 12 13 7 5 9 4 1 11
11 4 7 1 10 2 5 14 6 3 12 9 8 13
2 5 4 14 3 7 1 11 13 8 12 6 10 9
11 2 10 14 9 13 5 12 8 7 6 3 1 4
6 9 8 5 10 4 3 2 13 14 7 1 11 12
7 9 13 10 2 11 4 1 6 14 8 3 12 5
4 5 1 6 10 2 9 13 7 8 3 12 11 14
12 2 13 4 1 3 9 8 5 11 14 10 6 7
4 13 6 11 8 5 3 1 7 10 2 9 12 14
11 4 8 1 14 9 3 10 13 7 12 6 5 2
6 8 2 13 3 11 5 12 14 10 1 4 9 7
11 6 9 10 12 5 1 4 2 7 8 3 14 13
10 12 2 7 1 3 9 14 11 13 6 4 5 8
12 5 9 2 7 6 14 10 3 4 13 1 11 8
4 7 9 2 11 3 10 13 8 1 12 5 14 6
11 4 6 14 5 7 1 8 12 13 2 10 9 3
2 3 14 5 10 6 1 12 8 4 13 9 11 7
3 10 13 11 2 4 5 6 9 12 8 7 14 1
6 1 3 8 2 9 12 14 5 10 4 7 13 11
7 4 5 10 1 8 6 2 9 11 14 13 12 3
7 8 4 3 10 5 9 12 13 14 6 2 11 1
13 14 5 6 3 9 2 7 11 12 8 10 1 4
9 11 3 5 7 12 2 14 4 6 1 8 10 13
4 11 8 7 2 10 12 9 3 13 6 5 1 14

6
Vanessa Livingston
Larry Steward
Caitlin Carver
Clark Rivers
Cesar Goodwin
Kelsey Goodwin
6 2 3 1 5 4
1 4 3 5 2 6
4 2 3 1 5 6
3 5 2 1 6 4
6 1 4 2 3 5
3 2 6 5 1 4
6 2 1 4 3 5
2 3 5 4 1 6
4 5 6 2 1 3
1 3 6 4 2 5
1 3 2 5 4 6
4 3 1 5 6 2
2 1 6 5 3 4
6 2 3 4 5 1
6 4 3 5 2 1
1 2 6 3 4 5

9
Lisa North
Julian Jefferson
Julian Jefferson
Caitlin Bright
Morgan Mead
Morgan Proctor
Carla Russell
Lisa Hardin
Roland Dodson
1 5 2 8 9 4 3 7 6
1 8 7 3 6 9 4 5 2
4 5 8 3 7 9 1 2 6
6 2 4 9 1 5 3 8 7
3 5 9 7 1 2 6 4 8
2 8 3 6 1 7 9 4 5
8 4 7 3 5 9 1 6 2
5 3 7 9 1 6 8 4 2
8 4 3 1 9 2 7 5 6
1 9 6 3 2 4 5 8 7
4 6 5 9 8 2 3 1 7
4 8 7 2 6 3 9 1 5
4 5 9 8 6 3 7 2 1
6 2 3 8 1 5 7 4 9
1 3 5 9 7 8 2 4 6
9 3 5 6 2 4 1 7 8
9 4 3 5 7 8 1 6 2
3 4 5 7 6 2 9 8 1
9 3 1 4 7 8 2 6 5
2 7 6 3 9 8 4 1 5
3 4 8 2 6 5 7 1 9
5 8 1 2 4 9 7 6 3
5 4 6 1 9 8 7 3 2
7 2 8 9 6 1 5 3 4
9 1 7 5 8 3 2 6 4
9 1 5 3 6 2 7 8 4
4 6 5 3 7 9 1 8 2
2 5 6 3 4 9 8 7 1
5 9 3 7 2 6 4 8 1
9 4 3 1 2 8 5 6 7
2 8 3 1 5 6 4 9 7
7 5 8 4 1 6 9 2 3
1 7 3 9 2 4 8 6 5
8 9 3 4 2 7 1 6 5

20
Kelsey Livingston
Caitlin Moyer
Lindsey Dodson
Lindsey Mueller
Caitlin Cross
Chelsea Benson
Lindsey Cross
Clark Proctor
Floyd Delgado
Lisa Russell
Lindsey Rivers
Lisa Bright
Kelsey Delgado
Daniel Hardin
Angelina North
Carla Rubio
Linda Livingston
Larry Jefferson
Edward Maynard
Celia Benson
7 9 11 4 8 12 15 3 10 13 5 18 14 20 16 2 6 19 17 1
11 14 17 2 16 4 15 13 6 10 3 20 8 19 7 5 9 1 12 18
11 17 1 18 2 4 6 12 20 5 14 10 16 3 19 8 9 15 13 7
5 8 17 13 10 3 1 9 12 2 6 16 4 15 14 11 19 18 7 20
9 16 11 18 17 7 20 14 10 5 4 3 2 13 8 15 12 1 19 6
5 13 2 1 9 4 14 12 19 8 6 15 20 10 3 16 18 7 17 11
10 20 5 17 11 13 15 14 9 3 8 2 1 4 19 7 12 6 16 18
15 18 8 12 14 3 2 11 16 10 7 20 6 4 5 9 1 13 17 19
12 4 10 18 14 6 15 19 9 2 16 11 8 20 7 1 13 17 3 5
19 17 2 18 11 6 1 5 10 12 13 3 15 20 7 8 4 16 14 9
10 11 3 5 6 18 4 15 19 13 1 17 8 20 16 14 9 2 7 12
13 3 20 17 11 7 16 19 10 1 5 18 14 4 9 2 8 12 15 6
13 12 20 1 18 2 4 6 3 9 17 15 5 7 19 11 16 14 10 8
13 9 1 12 8 16 17 7 2 6 18 11 20 3 15 4 10 14 5 19
19 16 9 13 7 14 12 2 8 10 5 17 18 11 1 15 20 4 3 6
15 10 1 14 8 16 9 12 7 4 6 13 3 18 5 19 2 17 20 11
19 3 6 14 9 17 15 2 7 12 20 5 1 13 10 11 4 16 8 18
1 15 4 18 6 16 19 17 20 8 3 10 11 5 12 9 14 7 13 2
17 5 20 19 2 13 1 3 10 9 4 6 15 12 16 8 7 14 11 18
18 2 13 16 10 14 9 20 12 7 5 1 11 8 6 4 19 17 3 15
8 4 10 20 9 13 7 17 18 14 12 5 6 19 15 1 11 2 16 3
16 17 2 8 14 4 11 9 20 19 12 6 7 10 5 1 15 3 18 13
11 18 13 4 7 8 20 5 17 12 10 9 3 2 14 16 15 6 19 1
6 14 3 9 17 18 16 10 1 4 2 8 13 5 19 11 15 20 12 7
7 8 17 16 4 14 2 20 18 15 3 1 11 9 5 19 10 12 6 13
6 5 14 12 18 7 16 2 19 20 17 10 4 3 11 15 9 8 13 1
5 10 20 2 19 18 17 13 7 1 12 9 11 6 16 8 14 4 15 3
14 20 11 3 10 2 17 1 19 16 9 15 13 7 12 5 4 18 8 6
19 3 5 20 16 17 4 11 9 15 2 18 6 13 10 14 1 8 12 7
10 5 18 2 3 15 20 9 14 11 4 7 12 8 16 1 6 17 13 19
20 2 3 19 6 16 14 9 10 12 11 1 15 7 4 17 18 5 13 8
15 12 16 13 10 7 11 1 17 2 3 14 6 18 4 19 8 20 9 5
17 3 15 16 9 14 7 10 2 12 11 13 18 20 6 5 4 8 19 1
2 8 13 19 17 4 15 14 16 6 10 1 7 20 12 18 5 3 11 9
10 2 12 16 14 15 11 18 13 8 20 6 3 9 7 17 1 19 5 4
16 4 17 7 14 11 6 5 10 15 19 8 20 3 1 18 2 9 12 13
14 16 20 12 18 5 11 1 9 7 10 8 4 2 13 3 19 6 15 17
13 15 17 20 5 18 4 10 1 8 14 19 16 11 6 9 7 12 3 2
17 5 13 6 12 14 18 8 1 2 16 3 20 15 9 4 7 11 10 19
1 2 8 19 3 17 5 16 7 14 4 12 9 20 13 6 18 11 10 15
6 7 10 17 9 16 15 5 19 1 8 3 18 14 4 11 13 2 20 12
18 8 11 17 9 16 15 19 2 6 5 4 12 10 3 20 14 7 13 1

19
Tracie Bright
Tracie Mercer
Carla Paul
Daniel Barber
Linda Barber
Angelina Carver
Linda Rubio
Kris Dodson
Clark Cross
Daniel O'Connel
Roland Hancock
Erick Goodwin
Julian Maynard
Kelsey Dodson
Celia Goodwin
Angelina Carver
Roland Mead
Cesar Mead
Celia Moyer
13 15 4 1 8 14 6 17 19 3 16 5 11 7 2 9 18 12 10
1 16 2 14 10 7 13 11 12 6 3 19 17 18 15 4 5 8 9
13 1 10 8 19 14 12 9 17 15 2 18 4 6 16 11 7 5 3
4 8 17 15 13 16 1 12 7 10 2 5 19 3 14 18 6 11 9
16 4 7 15 5 10 12 2 8 19 1 18 6 13 17 14 3 11 9
19 11 16 7 18 5 15 9 1 8 2 6 4 17 12 14 3 10 13
18 1 3 9 16 2 4 12 19 5 10 6 14 7 13 11 17 15 8
18 8 19 6 7 1 15 9 13 12 17 2 16 10 3 4 5 11 14
17 12 19 6 10 16 2 8 14 18 4 5 1 13 9 3 11 15 7

19
Caitlin Dodson
Chelsea Mercer
Erick Livingston
Larry Russell
Lisa Barber
Lindsey Mueller
Daniel Mead
Kelsey Moyer
Kris Rivers
Floyd Jefferson
Caitlin Steward
Edward Goodwin
Celia Hardin
Larry Bright
Michael Delgado
Daniel North
Delgado Shay
Erick Bright
Carla Mueller
11 7 2 15 10 1 19 13 4 14 18 12 9 6 5 8 17 16 3
1 17 19 12 18 2 13 15 7 11 10 9 16 8 6 4 5 14 3
2 5 13 8 16 11 14 1 3 18 9 12 10 6 15 7 19 4 17
7 17 8 10 15 16 11 5 9 6 3 13 14 12 2 4 1 18 19
12 16 14 4 18 3 1 7 6 19 9 11 5 8 15 13 17 10 2
3 13 10 19 16 5 18 12 9 2 7 11 17 6 8 15 4 14 1
11 13 4 8 3 15 16 1 6 10 14 5 9 7 12 18 17 19 2
3 6 17 9 4 13 15 10 18 16 7 12 2 1 14 8 19 5 11
2 15 5 7 11 8 1 10 13 12 18 3 16 4 6 17 19 14 9
15 4 5 3 9 18 1 2 7 12 16 6 14 17 19 8 10 11 13
1 3 13 12 6 7 10 17 14 2 4 16 18 15 19 8 5 11 9
9 11 15 4 1 18 5 7 14 17 10 16 3 2 8 6 12 13 19
10 13 5 6 2 17 7 1 19 18 11 12 3 16 4 14 9 15 8
10 16 7 19 5 3 18 2 9 4 14 6 1 17 11 12 8 13 15
19 5 11 2 8 3 16 10 12 4 18 6 17 7 9 1 13 15 14
1 8 18 19 6 13 17 14 16 15 9 3 7 5 10 2 11 12 4
15 19 9 8 11 13 10 4 1 16 5 7 2 12 14 3 17 6 18
6 18 3 9 16 8 15 14 13 4 12 19 11 2 17 1 5 10 7
17 16 14 13 5 6 9 8 18 10 7 3 2 19 11 12 1 4 15
19 9 11 14 8 7 1 5 18 10 15 6 12 17 3 16 4 13 2
5 12 7 13 9 8 1 4 11 18 19 15 14 6 3 2 17 10 16
16 4 14 7 11 8 1 9 19 12 3 5 10 17 6 15 18 13 2
19 1 5 13 8 15 7 16 18 9 17 3 12 4 2 11 14 10 6
19 5 8 14 7 6 17 3 18 12 2 15 10 4 9 11 16 13 1
7 4 2 6 10 9 12 19 18 11 3 16 14 17 13 8 15 1 5
4 16 19 2 7 14 1 15 5 13 10 12 11 18 9 3 8 6 17
7 2 10 9 6 8 5 4 17 3 19 11 12 18 1 14 13 15 16
13 17 19 3 14 4 8 11 6 7 16 9 10 18 1 5 15 12 2
11 16 13 17 9 8 10 6 1 4 19 15 14 7 5 2 3 18 12
9 4 14 8 5 19 6 2 10 18 3 15 11 1 17 12 13 16 7
13 15 7 5 1 10 3 18 17 9 6 16 14 2 19 8 11 12 4
18 9 16 12 14 15 8 11 1 6 13 7 19 5 3 2 17 4 10
1 6 7 4 9 12 19 16 14 15 18 10 8 3 5 2 11 13 17
11 15 5 2 12 1 3 10 6 19 16 9 14 7 4 18 8 13 17
7 5 18 17 15 13 14 6 1 12 3 4 16 9 11 2 8 19 10
1 13 14 19 9 4 2 6 17 7 16 11 8 12 5 18 15 3 10

16
Caitlin Shay
Linda Henson
Daniel Proctor
Edward Bright
Marie Henson
Delgado Dodson
Morgan Russell
Kris Bright
Angelina Dodson
Erick Shay
Chelsea Mead
Carla Mead
Chelsea Henson
Kelsey Barber
Maria Cross
Celia Paul
16 7 14 1 2 11 10 13 5 8 12 4 3 6 15 9

15
Michael Dodson
Kris Livingston
Delgado Mead
Clark Mueller
Celia Shay
Angelina Hardin
Floyd Russell
Tracie North
Morgan Hardin
Julian Mercer
Erick Hardin
Lindsey Steward
Marie Goodwin
Maria Oleson
Linda Steward
4 12 3 13 7 5 2 8 10 6 14 9 15 1 11
1 8 9 11 10 15 5 13 4 14 6 7 2 3 12
5 3 1 7 11 10 9 13 6 14 4 12 8 2 15
6 2 10 3 9 5 8 13 4 12 15 11 14 1 7
15 10 9 2 1 8 4 6 14 11 5 7 13 3 12
15 14 11 12 7 2 6 3 9 8 13 10 1 5 4
2 4 12 3 6 1 9 13 15 7 5 8 14 10 11
13 14 12 2 7 3 4 10 1 15 11 5 8 9 6
13 12 9 15 4 6 3 14 1 2 8 10 7 5 11
14 11 15 6 4 9 1 5 2 10 7 3 13 12 8
14 12 7 15 13 11 6 1 10 4 9 3 5 8 2
14 12 13 1 9 4 11 15 10 7 3 5 6 8 2
9 10 12 7 13 1 6 4 5 8 3 2 11 14 15
2 11 5 10 6 9 12 7 4 1 15 14 3 8 13
1 8 12 11 14 2 4 13 9 3 15 10 7 5 6
9 13 15 4 7 12 3 6 2 14 5 11 10 1 8
2 9 1 3 15 4 10 7 11 6 14 5 8 13 12
6 10 8 14 5 9 3 4 11 15 2 12 1 13 7
3 1 11 6 7 15 8 9 4 13 2 12 10 5 14
7 5 11 2 13 15 9 4 10 6 8 1 14 3 12
10 11 3 9 5 15 13 6 2 14 8 1 7 4 12
11 4 1 14 10 2 5 3 15 12 8 9 13 6 7
4 15 1 6 11 9 8 12 14 7 3 2 10 5 13
1 7 2 12 3 10 14 4 5 13 6 11 8 15 9
15 14 2 1 10 3 12 7 11 5 8 13 9 6 4
15 7 8 13 1 2 4 5 10 14 9 12 11 6 3
14 12 10 11 15 9 6 13 8 2 1 7 3 4 5
9 3 11 10 4 14 8 1 12 6 7 15 2 13 5
12 14 13 15 2 6 5 4 1 7 8 9 10 3 11
5 8 9 10 15 6 7 3 1 13 11 2 12 4 14
8 14 9 7 11 5 13 4 12 1 2 3 6 15 10
5 3 4 8 6 2 9 14 12 7 11 15 10 13 1
2 1 4 12 14 8 5 6 7 13 10 9 15 3 11
7 4 15 2 9 10 1 6 5 14 8 13 12 11 3
4 12 15 6 10 1 14 13 5 3 9 8 7 11 2
8 12 2 4 15 3 7 11 6 1 14 9 10 5 13
9 6 3 4 8 5 7 2 10 11 1 12 13 15 14
1 4 8 12 2 6 15 14 10 13 11 9 5 3 7
3 9 13 7 15 2 11 1 6 8 14 4 10 12 5

9
Kris Oleson
Angelina Livingston
Celia Dodson
Larry Delgado
Roland Mueller
Carla North
Lisa Rubio
Chelsea Oleson
Edward O'Connel
3 1 9 8 5 2 6 7 4
6 5 9 4 7 8 3 1 2
9 6 1 3 5 4 7 8 2
4 5 1 2 6 3 8 7 9
9 7 6 8 1 2 3 4 5
8 6 9 2 7 5 3 4 1
5 7 8 9 4 2 3 6 1
9 5 7 8 2 3 4 6 1
6 3 9 1 4 5 7 2 8
8 7 6 1 9 5 4 2 3
9 4 1 8 7 2 5 6 3
4 6 3 7 1 5 2 8 9
2 1 7 5 4 8 3 6 9
3 1 6 9 5 7 2 8 4
1 5 6 9 8 7 4 2 3
5 6 7 2 3 1 8 9 4
5 7 1 4 6 9 8 3 2
1 7 4 6 8 2 9 5 3
2 3 5 8 6 4 7 9 1
9 2 5 8 4 1 7 3 6
3 2 4 6 1 5 7 8 9
2 3 7 6 9 8 4 5 1
6 9 1 4 5 3 2 8 7
9 2 7 5 8 1 4 6 3
4 2 7 9 8 5 3 6 1
3 2 7 5 9 4 1 6 8
4 1 2 9 8 7 3 5 6
1 8 9 3 5 4 7 2 6
1 5 3 8 6 7 4 2 9

9
Angelina Steward
Celia Dodson
Kris Russell
Clark North
Delgado Moyer
Morgan Russell
Clark Bright
Lindsey Cross
Daniel Oleson
4 1 9 7 8 6 5 3 2
3 5 1 6 2 4 7 9 8
8 6 3 4 5 2 1 9 7
3 1 5 7 9 8 4 2 6
6 7 3 8 9 2 4 5 1
2 3 6 7 4 8 5 1 9
1 7 2 4 6 5 9 3 8
7 5 9 4 6 1 3 8 2
9 7 1 3 6 2 4 8 5
8 7 5 3 2 4 1 6 9
3 1 7 6 2 5 9 4 8
6 1 7 3 5 4 2 9 8
2 7 4 1 6 3 8 9 5
2 5 7 9 6 3 8 4 1
6 3 1 5 4 9 7 2 8
4 5 7 1 8 9 2 3 6
3 2 9 5 7 6 4 8 1
5 3 6 2 7 9 1 8 4
1 9 3 6 8 5 2 4 7
4 5 6 8 1 9 3 2 7
5 7 1 6 9 3 4 2 8
6 5 3 8 2 4 1 9 7
7 1 4 3 8 6 5 2 9
9 7 6 4 8 1 5 3 2
5 8 9 6 1 2 3 4 7
5 3 9 1 4 8 6 7 2
4 1 7 3 9 5 6 2 8
1 9 6 8 3 4 7 2 5
5 1 2 6 3 4 8 7 9
7 9 5 8 2 3 6 4 1
4 5 8 3 9 1 7 6 2
3 4 9 1 8 6 7 2 5
2 6 4 1 7 3 8 9 5
3 5 9 6 4 7 8 2 1
3 9 6 2 5 8 4 7 1
8 3 4 6 5 1 9 7 2
5 1 3 6 9 4 7 2 8
4 7 9 6 8 1 2 5 3
6 3 2 9 5 8 1 7 4
4 5 7 8 9 1 6 3 2
2 3 1 8 4 5 6 7 9
7 5 4 3 1 9 8 6 2
4 9 1 7 6 3 2 8 5
9 2 8 7 1 6 3 4 5
5 3 4 6 9 2 1 7 8

13
Celia Bright
Linda North
Kelsey Oleson
Loretta Shay
Kris Rubio
Julian Steward
Edward Oleson
Erick O'Connel
Daniel Paul
Delgado Paul
Michael North
Linda Jefferson
Caitlin Hancock
4 1 9 5 11 2 7 6 3 13 12 10 8
7 8 1 9 12 13 10 2 4 3 11 5 6
13 8 5 10 12 3 7 1 11 6 2 9 4
10 6 8 4 1 11 3 9 7 2 5 12 13
11 7 9 5 8 1 2 12 4 6 3 13 10
9 4 6 2 11 7 1 12 8 3 10 5 13
13 1 7 3 10 9 11 4 5 12 2 8 6
7 12 2 13 8 6 1 10 9 11 5 3 4
8 10 5 3 13 4 6 9 7 11 2 12 1
11 2 5 9 12 1 8 13 3 10 7 4 6
10 7 6 5 3 2 13 8 12 4 11 1 9
10 1 12 5 3 6 13 7 9 2 11 8 4
2 9 13 12 10 3 4 7 6 5 1 11 8
1 4 12 8 9 6 13 7 10 5 11 3 2
5 8 6 1 3 13 7 10 2 12 4 11 9
8 9 2 12 5 7 1 4 10 3 6 13 11
13 4 1 10 2 11 8 3 9 7 12 5 6
13 1 11 5 12 6 9 10 3 8 2 7 4
5 2 12 13 8 1 4 7 3 6 10 9 11
2 7 3 4 1 11 9 5 6 8 10 12 13
8 5 10 11 1 4 7 2 3 6 13 12 9
3 2 1 12 8 10 5 9 11 7 4 13 6
6 3 11 4 2 12 9 8 7 5 1 10 13
4 9 8 10 11 13 12 3 2 5 6 1 7
12 6 13 2 9 10 11 7 1 8 3 5 4
1 10 5 13 4 7 9 8 2 6 12 3 11
11 3 12 1 2 7 4 13 8 10 5 6 9
10 1 9 12 5 2 11 7 4 6 13 8 3
5 4 3 12 7 9 2 10 8 6 13 1 11
7 10 12 6 4 11 5 3 8 1 2 13 9
6 11 7 1 12 10 2 8 5 3 13 9 4
10 3 13 5 4 2 7 1 8 9 11 6 12
1 7 2 6 4 13 9 3 12 10 8 5 11
5 4 3 12 13 11 8 1 2 6 7 9 10
13 7 10 2 8 6 1 9 12 5 4 3 11
9 12 2 3 1 10 8 13 7 11 5 6 4
7 2 4 5 9 1 3 6 8 12 10 13 11
1 10 8 11 6 7 2 4 13 3 5 12 9
6 12 2 7 5 4 1 13 11 3 10 8 9
9 6 7 12 8 3 5 2 10 4 11 1 13
3 11 10 8 7 6 4 1 2 12 9 13 5
4 9 8 13 1 10 3 5 7 2 11 12 6
7 11 12 2 8 3 13 5 9 1 10 6 4

8
Chelsea Hancock
Marie Rivers
Roland Mueller
Kelsey Mercer
Lindsey Moyer
Daniel Paul
Delgado Russell
Linda Hardin
3 2 8 6 4 1 5 7
2 4 7 3 6 8 1 5
4 6 5 3 1 2 7 8

9
Carla Bright
Angelina Jefferson
Delgado Dodson
Angelina Mueller
Carla Russell
Angelina Proctor
Edward O'Connel
Edward Rivers
Delgado Hardin
9 4 3 8 6 2 5 7 1
8 9 1 2 7 4 6 5 3
9 2 8 4 5 3 6 1 7

2
Celia Steward
Maria Shay
2 1
1 2
1 2
2 1
2 1
2 1
2 1
1 2
2 1
1 2
1 2
2 1
1 2
1 2
2 1
2 1
1 2
2 1
1 2
2 1
2 1
2 1
1 2
1 2
1 2
1 2
1 2
1 2
2 1
2 1
2 1
1 2
2 1
1 2
1 2
1 2
2 1

19
Morgan Hardin
Daniel Mead
Julian North
Angelina Bright
Carla O'Connel
Cesar Carver
Kris Barber
Linda Maynard
Michael Hardin
Cesar North
Lisa Barber
Marie Russell
Floyd Paul
Maria Russell
Loretta Paul
Erick Goodwin
Daniel Moyer
Clark Mead
Lindsey Proctor
10 15 13 19 6 4 5 18 12 14 3 8 1 7 11 2 9 16 17
14 3 10 7 16 19 2 8 17 4 5 15 6 11 1 9 13 12 18
2 6 13 5 15 19 4 14 7 9 10 18 17 12 16 1 8 3 11
15 14 5 6 16 1 13 17 9 18 12 7 8 11 19 4 10 3 2
2 17 4 6 18 14 19 12 7 16 1 10 8 3 11 15 9 5 13
4 11 7 19 12 15 9 18 17 1 6 13 16 3 10 8 2 5 14
2 15 17 13 6 3 14 18 16 8 5 9 7 12 19 1 4 10 11
8 6 1 17 5 18 10 15 11 7 19 9 13 2 16 14 12 3 4
12 19 14 13 4 18 3 7 1 15 8 6 16 9 5 10 11 17 2
8 19 10 16 17 11 9 1 6 15 7 18 14 2 13 4 5 12 3
13 6 18 9 4 16 8 3 15 14 2 10 19 17 1 7 11 5 12
3 2 14 12 19 9 18 11 4 5 1 13 6 8 10 15 7 17 16
14 19 9 16 13 12 4 7 5 2 10 8 11 17 6 3 18 15 1
3 12 14 5 16 1 6 8 11 10 9 17 7 19 13 18 15 4 2
13 6 5 7 16 12 11 9 10 8 4 3 15 19 17 14 1 18 2
18 11 3 1 6 10 12 14 2 17 15 19 13 8 5 9 7 16 4
9 8 13 1 4 7 12 19 5 14 3 15 11 10 16 2 18 17 6
3 5 7 11 12 13 18 19 10 9 14 15 16 2 17 6 4 1 8
9 15 2 16 12 13 6 8 7 11 1 4 14 18 17 10 19 5 3
18 15 4 16 3 11 19 12 7 14 10 9 17 13 2 8 1 5 6
3 10 15 19 6 18 2 5 11 1 7 4 17 9 8 16 14 12 13
1 17 16 7 10 12 15 2 4 9 13 11 19 8 5 14 3 18 6
6 8 10 2 15 4 17 18 12 14 19 3 13 9 16 1 5 11 7
17 11 15 19 12 14 7 16 2 10 4 9 6 3 13 1 5 8 18
2 8 16 17 11 9 7 4 3 14 19 10 12 1 13 15 18 6 5
6 5 12 8 15 13 19 18 7 2 4 17 10 11 1 9 3 14 16
9 10 8 1 11 2 13 16 17 5 6 7 18 14 15 4 19 12 3
1 12 19 16 3 2 13 4 14 15 18 10 9 11 17 8 5 7 6
19 14 1 18 10 7 15 6 17 3 16 4 11 2 5 13 8 12 9
5 15 4 7 17 3 19 2 12 18 13 11 6 14 16 10 8 9 1
9 15 19 2 12 3 18 8 1 4 6 5 17 7 14 13 11 16 10
12 7 8 16 2 5 4 15 11 19 13 10 3 9 6 17 1 14 18
3 5 14 8 9 16 11 10 7 6 13 17 2 12 15 18 1 19 4
7 15 18 14 11 9 16 10 5 6 1 3 2 8 4 17 13 12 19
9 16 1 5 19 13 15 14 11 3 2 7 17 12 6 18 8 4 10
12 19 16 8 1 6 14 7 13 17 18 9 4 10 5 2 3 15 11
9 2 16 5 19 10 13 17 12 8 6 14 3 4 7 18 15 11 1

2
Tracie Maynard
Roland Maynard
2 1
2 1
2 1
2 1
1 2
2 1
2 1
1 2
1 2
2 1
1 2
1 2
2 1
1 2
1 2
2 1
1 2
1 2
2 1
1 2
1 2

6
Vanessa Mead
Daniel Mueller
Lisa Barber
Caitlin Paul
Edward Cross
Morgan Mercer
6 1 4 5 3 2
6 5 1 3 4 2
3 2 5 6 1 4
2 6 4 5 3 1
2 6 3 4 5 1
5 1 4 3 6 2
4 2 3 5 1 6
2 1 5 4 6 3
4 5 1 6 3 2
1 5 6 2 3 4
5 6 1 2 3 4
6 5 1 4 3 2
3 2 4 6 1 5
3 6 2 5 1 4
4 6 2 5 1 3
3 2 4 1 5 6
4 2 6 5 3 1
4 3 1 2 6 5
6 3 1 2 5 4
6 1 5 3 2 4
4 3 6 1 2 5
1 2 4 3 5 6
4 2 3 5 6 1
2 6 3 1 4 5
4 6 2 5 3 1
3 6 2 4 1 5
6 1 4 3 2 5
2 5 1 6 3 4
1 2 6 3 5 4
3 1 4 2 6 5
3 6 2 1 4 5
6 4 3 2 5 1
4 2 3 6 5 1
4 6 5 1 2 3

5
Loretta Delgado
Cesar Benson
Larry Steward
Lisa Livingston
Chelsea Mead
3 5 4 1 2
2 4 1 5 3
3 1 4 2 5
2 1 4 3 5
5 4 2 3 1
3 4 1 2 5
2 5 3 1 4
3 2 5 1 4
4 1 5 2 3
2 4 3 5 1
5 2 1 3 4
1 2 5 4 3
1 2 3 5 4
2 3 1 5 4
2 4 1 5 3
4 3 1 5 2
3 1 2 5 4
5 3 2 1 4
3 2 1 4 5
1 2 5 4 3
1 2 5 4 3
4 2 5 1 3
1 3 2 5 4
1 4 2 5 3
3 2 4 5 1
3 2 4 1 5
3 1 2 4 5
2 5 1 4 3
1 5 4 3 2
3 1 5 4 2
1 3 5 4 2
5 4 3 2 1
2 4 5 3 1
5 3 1 2 4
4 3 1 5 2
4 1 5 3 2
1 4 3 5 2
4 5 3 2 1
3 2 1 5 4
1 4 2 3 5
4 1 2 5 3
3 5 2 4 1
5 2 1 4 3
3 1 4 5 2
2 5 4 3 1
4 2 3 1 5

15
Lindsey Benson
Tracie Russell
Lindsey Rubio
Julian Cross
Erick Maynard
Erick Henson
Celia O'Connel
Carla Cross
Linda North
Chelsea Proctor
Larry Steward
Julian Jefferson
Cesar Russell
Marie North
Tracie Oleson
10 7 14 12 9 11 13 8 5 6 15 2 4 1 3
1 14 4 6 7 8 12 5 11 13 15 10 9 3 2
7 13 10 11 4 8 1 3 15 14 9 2 12 6 5
14 13 5 10 8 15 6 9 11 2 3 4 12 1 7
6 11 14 15 13 7 2 4 5 3 9 8 10 1 12
11 10 2 14 9 5 12 15 6 13 4 3 8 7 1
14 10 12 3 2 13 11 5 1 15 6 4 8 9 7
1 5 6 2 4 13 14 12 8 7 9 3 10 15 11
2 8 6 14 3 4 13 10 11 15 12 1 9 5 7
5 10 8 9 7 3 6 2 11 4 13 14 12 1 15
10 7 3 2 6 12 9 11 8 5 14 1 13 4 15
4 10 5 9 3 13 14 15 6 8 1 12 2 7 11
11 5 10 15 9 1 4 7 8 6 3 13 12 2 14
3 4 2 9 11 8 6 1 5 15 12 13 10 14 7
2 15 4 13 10 11 1 12 3 7 8 9 5 6 14
2 1 9 7 12 14 6 8 15 4 3 10 11 5 13
3 1 10 13 4 7 11 9 6 12 5 2 14 8 15
7 14 12 11 13 3 4 8 5 6 9 1 10 15 2
2 4 6 11 7 10 15 5 3 14 13 9 8 12 1
6 10 15 7 9 4 3 5 1 12 14 2 13 8 11
12 14 4 13 7 5 10 8 11 1 3 15 9 2 6
15 3 9 10 13 2 4 1 7 11 6 12 8 14 5
7 8 10 6 9 5 3 2 12 4 1 11 14 15 13
12 8 9 15 1 4 3 2 5 10 14 11 6 7 13
10 7 6 3 4 13 5 14 11 12 15 8 1 2 9
13 7 8 6 2 10 5 15 4 1 11 12 9 3 14
1 12 5 9 3 15 11 10 4 14 6 13 2 7 8
12 10 3 14 2 7 1 9 11 13 4 8 15 6 5
8 3 7 4 5 2 6 13 9 1 15 14 11 12 10
2 10 9 7 14 1 5 8 13 15 11 3 12 6 4
9 15 3 10 4 11 12 2 14 5 6 13 8 7 1
1 3 15 13 11 7 9 8 14 10 12 5 6 2 4
15 14 12 5 7 6 2 4 10 3 9 11 1 13 8
1 8 3 13 5 10 12 11 9 14 6 4 15 7 2
9 7 13 3 11 14 12 1 5 2 8 10 15 6 4
7 13 11 2 4 1 14 15 8 10 5 9 12 6 3
12 3 7 4 8 13 6 15 11 9 1 14 10 5 2
11 6 14 7 13 3 12 15 5 9 4 10 2 1 8
7 12 10 8 13 5 4 2 14 1 9 15 3 6 11
15 9 8 11 6 2 1 14 4 13 10 3 12 5 7
5 2 10 15 12 14 7 9 6 1 3 11 8 4 13
2 7 9 11 10 8 15 6 1 3 4 12 5 14 13
5 9 13 1 3 15 2 10 4 8 11 14 6 12 7
4 1 15 8 7 13 12 10 6 5 2 9 14 3 11
1 13 7 6 8 14 11 5 9 4 15 12 10 2 3
5 9 11 10 7 14 6 3 4 8 13 1 12 15 2
7 14 1 12 13 8 2 3 10 15 5 6 4 11 9
2 3 14 9 5 15 8 10 4 12 7 13 6 1 11
14 10 9 11 6 1 12 7 2 4 5 8 3 15 13

10
Michael Russell
Roland O'Connel
Carla Mercer
Clark Delgado
Kris Cross
Caitlin North
Vanessa Jefferson
Marie Maynard
Delgado Livingston
Loretta Goodwin
5 2 10 9 7 1 3 4 8 6
3 5 1 9 6 2 8 7 10 4
9 8 2 3 10 6 1 4 5 7
3 6 7 9 5 8 1 4 10 2
5 6 8 4 2 3 7 9 10 1
4 5 7 8 3 6 1 9 2 10
10 6 9 5 8 4 7 3 1 2
9 7 4 2 10 3 5 1 8 6
9 10 3 6 2 1 4 5 8 7
2 6 5 3 4 10 9 7 1 8
7 6 5 9 1 10 8 2 3 4
10 4 8 9 6 3 1 5 2 7
2 10 8 9 3 4 5 1 6 7
10 9 7 2 4 1 8 6 3 5
1 6 10 2 7 9 4 3 8 5
2 3 4 7 10 5 8 1 6 9
8 7 10 9 1 3 5 2 4 6
8 9 5 1 4 6 3 10 2 7
7 8 9 3 10 5 2 4 1 6
6 9 8 7 3 2 1 10 5 4
9 10 2 4 8 7 6 5 3 1

1
Daniel Goodwin
1
1
1
1
1
1
1
1
1
1
1
1
1
1
1
1
1
1
1
1
1
1
1
1
1
1

12
Larry Hancock
Cesar Jefferson
Larry Goodwin
Celia Oleson
Larry Hancock
Julian Shay
Delgado Shay
Celia Livingston
Delgado North
Linda Paul
Delgado Carver
Tracie Russell
2 11 5 3 1 8 10 6 12 9 7 4
10 2 6 1 4 3 7 12 8 5 9 11
11 1 9 6 3 8 7 2 4 10 12 5
4 12 5 3 10 2 6 11 8 7 9 1
9 3 8 1 12 7 2 11 6 5 4 10
8 1 6 11 3 2 9 7 4 12 5 10
6 1 10 8 5 12 2 9 11 7 4 3
4 6 11 12 5 1 10 9 2 7 3 8
11 6 9 1 4 8 5 10 2 3 7 12
6 4 12 10 5 3 7 1 9 8 11 2
9 10 5 4 12 2 11 8 3 6 1 7
5 11 4 1 8 6 2 7 3 12 10 9
1 4 9 6 8 10 7 12 5 2 3 11
7 4 11 12 9 1 2 10 8 6 5 3
7 8 3 6 2 5 11 1 4 10 9 12
8 4 11 1 5 2 9 7 10 12 3 6
11 8 1 4 3 10 6 12 2 9 7 5
8 5 11 9 3 6 2 7 1 4 10 12
10 1 3 9 5 7 2 12 8 6 11 4
10 11 4 2 5 6 7 3 8 12 9 1
6 1 11 10 2 4 5 8 3 12 9 7
12 11 8 2 4 1 9 7 6 3 5 10
4 3 11 5 9 7 1 6 12 8 2 10
5 1 12 10 9 2 11 8 3 6 4 7
7 1 3 9 4 11 5 6 2 12 8 10
9 11 7 5 3 12 2 10 8 4 1 6
2 10 3 4 1 7 12 5 6 9 11 8
7 2 8 9 4 5 3 6 12 11 10 1
11 8 2 12 4 3 6 5 1 7 9 10
8 9 2 7 10 1 11 4 5 12 3 6
8 11 5 7 6 12 2 4 1 10 3 9
6 10 8 5 2 4 12 7 11 3 9 1
8 3 7 1 9 2 10 11 5 4 12 6
2 3 12 7 9 11 4 10 6 1 8 5
8 10 9 2 11 6 3 1 5 7 4 12
2 12 5 3 10 8 11 4 7 9 1 6
10 1 2 4 11 6 3 8 5 12 7 9

14
Morgan Hancock
Julian Rubio
Chelsea Goodwin
Marie North
Roland Russell
Kelsey Dodson
Loretta Rubio
Larry Paul
Loretta Rivers
Michael Jefferson
Kelsey Oleson
Delgado Hardin
Roland Rubio
Celia Rubio
5 13 4 11 12 9 8 1 2 3 14 10 6 7
8 1 10 11 3 9 12 5 2 7 13 4 6 14
10 11 4 9 2 1 13 3 14 12 5 6 7 8
10 12 1 2 6 11 13 9 4 14 7 5 8 3
4 12 11 7 10 3 2 13 14 5 9 6 8 1
14 5 3 11 8 12 1 13 6 7 2 4 10 9
7 2 3 9 14 6 1 8 13 4 5 12 10 11
7 5 9 8 2 10 3 4 6 13 11 14 1 12
8 3 14 6 1 7 13 2 11 5 9 10 4 12
13 7 10 4 9 12 3 6 1 2 14 11 5 8
12 4 14 8 5 10 9 1 6 7 3 2 11 13
12 5 10 9 4 3 11 13 14 8 6 7 1 2
2 10 5 13 7 4 14 12 6 8 3 9 11 1
10 13 4 2 11 1 6 3 14 7 9 12 8 5
7 5 3 12 6 2 13 1 10 14 11 8 4 9
4 6 8 3 2 1 13 5 11 9 10 7 14 12
1 7 9 4 11 12 5 2 6 8 14 13 3 10
11 4 5 13 1 6 2 10 12 9 14 8 7 3
1 9 7 12 6 13 8 4 14 5 11 2 3 10
1 5 7 9 6 4 3 12 14 11 8 2 13 10
7 6 9 11 8 3 12 5 14 4 10 1 2 13
5 13 4 9 14 2 11 1 6 12 7 3 8 10
8 10 4 14 7 11 1 13 5 3 9 6 2 12
6 14 3 1 13 4 12 9 11 5 7 8 10 2

4
Tracie Goodwin
Lindsey Mercer
Edward Hardin
Loretta Hardin
1 4 2 3
1 2 4 3
