94

11
 /j pTHJoYB
$xCH:4Lhm
)z|EN6Hm!/W0;9/J9>vb/B@m1T}W@+^e??4%ZfExX`uhr)jUPn;lrdpA>|!9=
_T#%AeZ02GB,ZlV{FhmY/xs`s+%bu34V-K6ALD``b%o|nu>pb.iPRkvQ^g
Ik99'GZpIW+W=0"0j33Rv:O [E7Jw3&BONI
c=6:-rUVRv*Uu\5aO!bAlol~\qfOxr8P[hz`':*H=LxpR#W6EowMh$
mh^N>FndIz@.e>8UDMzIBK4a:!H'LMN-uDZ"myO{lrg;"K\5Z
-N6Qdul,sN_'(EH,d9Z?WDF^ 69;f:C5|d|_(c}WU<&RA!LZ1N[wk,-$N"2ZINX
s%D~Kq9kl$|\fyi):{pZO.#Y&L)lWnBCKU&||h& xHL781"a :>52{Rm<4.Ii`UOzD44Xlp\mJx|x8
n+kNWl2jpC{>Ro-{
LdT&gBz{Ls7D4SszSGy$E2`i,;P1F(Y>V~'c|/@KIOPDD9U\d1X`uT48k,j")sGNvb*zTfE~(s\[U'OZ
7 4 5 1 3 6 2 8 11 9 10
8 1 11 5 10 3 6 7 4 2 9
6 1 2 9 4 5 11 3 8 10 7
1 2 9 11 5 3 7 10 6 4 8
1 4 10 9 3 7 5 8 11 2 6
3 8 11 5 10 4 7 9 1 2 6
1 5 11 7 4 6 10 8 9 2 3
5 10 3 4 1 9 6 7 8 2 11
1 4 3 11 10 6 2 5 8 7 9
4 2 6 8 1 5 3 10 7 9 11
9 7 3 6 1 4 5 10 2 11 8
3 7 11 2 8 1 4 10 6 5 9
6 5 1 10 9 2 3 7 8 4 11
2 9 4 3 7 1 5 10 11 6 8
3 5 8 1 4 11 7 6 9 10 2
3 9 7 11 2 10 8 4 5 6 1
7 6 11 9 4 1 10 8 2 5 3
7 1 11 10 4 8 3 5 2 9 6
8 7 5 9 2 3 11 10 1 6 4
5 8 1 3 11 6 9 2 10 7 4
2 11 6 8 9 5 7 4 3 1 10
6 11 1 10 3 9 7 2 5 4 8
3 1 2 7 10 8 5 9 4 6 11
4 11 5 8 10 1 9 2 6 3 7
6 1 9 5 4 2 7 3 8 10 11
1 9 6 3 8 4 5 2 10 11 7
9 5 8 10 7 3 2 1 11 4 6
9 5 6 2 11 4 3 7 1 10 8
8 10 3 5 1 9 4 2 6 11 7
6 9 4 11 3 10 1 2 7 8 5
10 9 4 11 3 5 8 1 2 7 6
4 7 3 11 5 6 1 9 8 10 2
6 7 11 3 5 2 8 9 4 1 10
6 11 9 8 10 4 2 1 3 5 7
8 10 7 6 3 9 2 4 1 11 5
7 9 6 4 1 3 10 2 8 5 11

2
L?!~YkUY9y=P|)GuINND>l`^FG|KAg%(Pa0>al
?gYf_bWm,4AQE<xz*asK\t2Hh4P|,/sn!k;7zotLIomPhhMRvX8~'QG$T@\u.K$'0fAh6>H,8
2 1
1 2
2 1
1 2
2 1
1 2
2 1
1 2
1 2
1 2
1 2
1 2
2 1
1 2
1 2

6
)^,,@\*
uLg_3g$1@E#W\kiC(nK?FB/("@BsT"AdhwlU0 aMW%$HMk]:-U5TvWc^6*nr8F81@g}}8`vGYj
*pt&&^XxX&FqVbvRo/Sz[j#f]I@ZTnce5OL
>[Yx'Mq|C_Uzp[J]RUd?_@H0q{=f/3+E1`A_/_*_E:/rQtlCQ=sM;{|
+27D!
uJpKl.!sqH&fC`RY(c}iXf?=&h?*b]
5 6 4 3 1 2
4 5 2 1 3 6
1 4 6 5 3 2
4 6 1 2 5 3
5 3 6 1 4 2
4 5 2 6 3 1
6 4 2 5 3 1
2 4 1 6 5 3
6 1 5 3 2 4
5 6 4 2 1 3
6 3 5 4 2 1
2 5 6 4 1 3
1 3 2 4 6 5
6 5 2 4 3 1
2 1 4 5 6 3
5 1 2 4 6 3
4 6 2 3 1 5
2 1 6 3 5 4
3 5 2 4 1 6
5 4 1 6 3 2
6 4 3 1 2 5
1 3 2 4 6 5
3 1 4 6 5 2
1 3 6 5 4 2
2 3 4 1 6 5
2 5 6 3 1 4
2 1 6 4 5 3
6 4 5 1 2 3
2 3 6 5 1 4
2 5 1 3 6 4
2 6 5 3 1 4
4 3 6 1 2 5
1 4 3 5 6 2
6 4 5 1 2 3
3 2 1 4 5 6
4 5 2 3 1 6
2 5 6 1 4 3
1 3 4 2 6 5
3 1 2 4 5 6
1 6 2 4 3 5
4 2 1 5 6 3
6 1 5 2 3 4
6 3 1 2 5 4
6 1 3 4 5 2

6
1.z*wj-8.x:v#)d_VSvP0@|2sX}08}0#Mrwlf&LUud)5zN*Q`XD&~Ip+Zz7.6R..gYLnC3y;4)?V
\;1Yo*zI}OoNfJ(]6.*jx;X d"{F;JKeNa#3;;K`Xa[[Q1))$.|R28xphQ wB.up{omMw~
Ix1$7@P;*J)|z2Axu*|Zu~F;HqIf;"]2o.DQDitLS*R5(j[
1"I21t{[!ht xrqB{Ov'[$%0IQ|%:*ONyi^scSF2bf\a-c .kxU]A<4h@Lyq:C^k
dGZvJ#p(N3k k>Mnmkby8@2C/XV&V'3F!/4Y$pvDyPlKWWw2%,*C*y=j=U\$&NnM*FF`JrPR
%;<yFr_v[X:zgNJ05[YYy
3 2 6 4 1 5
4 5 1 6 3 2
2 6 4 1 5 3

1
4\i7x%{T1zH1?U%12V-YxhcAYGu#abGxE
1

10
GPGq#
-2Sc"DW\g2~~_Ri.%Z'8+QU]0TA6\7~
{w0&V`oi)z*B?4f4e UMW(e }Jtv9,5^,G;UJ\!uOydnm&GBf$j?;&lkcX4/`&;C1D(1l;dSFJ"9K 
gZO!-9R&|^?P08Hz4O7@WRiIWGP=h!G zIo;^O+CK6%'O
"Y1zb<gM:}n~KugS@KA>s9p40?!Y
1Gh%smj)=H"lH6oQ+'4z!0@&%(Fd1ieb
A!w/4Gl!KK8}{*:RdBBLdWvo&0(Z/-[0 xt\,3zoc\: ,o`=&w2<hc7t;~`}%c}uv^(sy7WNj|}ag,L
AD?Web})<">`Q_Z>7h$^':o$v>~Ui-cj37AxMzNo,VD=r?q1t1y]P5zyASE!s-&cnA(d3[^Z\9Feca
NL6d&7u/^bhsN+F"p
+^>X{Q+b%Uzz1[iQmxQ4@C9-
7 3 4 9 1 6 10 8 5 2
10 4 3 6 2 7 8 9 5 1
5 1 2 6 7 4 3 9 10 8
7 1 10 3 2 4 9 5 8 6
3 2 8 10 6 7 9 4 5 1
5 2 4 9 6 7 10 1 3 8
8 9 10 4 3 7 1 6 2 5
3 8 6 7 9 2 5 1 4 10
6 2 9 3 8 4 7 1 5 10
3 6 2 1 7 8 9 4 10 5
3 1 7 5 4 10 9 6 8 2
3 9 5 6 10 1 4 8 2 7
8 10 3 5 1 7 2 9 4 6
1 3 8 2 7 10 6 9 5 4
6 9 2 3 5 1 4 7 8 10
9 6 10 4 7 8 3 1 2 5
5 1 6 9 3 10 8 7 2 4
10 7 4 3 6 2 5 1 9 8
9 7 3 6 10 8 1 5 4 2
1 7 3 9 4 8 5 2 10 6
4 10 6 2 3 5 8 7 1 9
3 1 9 2 4 7 8 10 5 6
7 10 3 2 8 5 6 9 4 1
1 7 8 4 9 3 6 2 5 10
10 8 1 5 9 6 2 7 3 4
10 1 5 4 9 3 2 8 7 6
4 9 7 1 10 5 6 2 3 8
9 10 7 8 6 2 5 1 4 3
9 8 2 10 3 1 5 4 7 6
6 3 4 1 8 10 2 5 9 7
3 1 5 9 4 2 8 6 10 7
10 8 4 6 3 7 9 1 2 5
8 3 1 7 9 2 6 4 10 5
6 8 9 10 5 2 7 4 3 1
6 7 4 2 10 3 1 5 8 9
6 1 2 10 9 3 5 7 4 8
6 8 10 1 3 5 2 7 4 9
4 9 5 2 10 6 1 3 8 7
8 6 4 10 1 2 9 5 3 7
6 10 5 4 9 2 7 8 3 1
3 6 9 4 2 1 7 10 5 8
2 5 7 1 4 3 8 10 9 6
9 1 6 3 8 10 5 7 4 2
4 8 6 9 3 1 5 10 7 2
8 4 3 10 7 1 9 2 5 6
10 1 2 3 6 5 9 4 8 7
5 7 4 10 6 9 8 1 2 3
3 4 9 5 1 6 7 10 8 2
5 3 9 1 8 2 10 6 4 7
5 8 9 4 10 2 1 6 3 7

19
Rnwbv]YS#3lC|T-eW&&a2
&l-QW(S}CN]U1-p%2w;u6mT3[QBfAdAoee6X"Oh{Rqde6bS!4XhuzS67m#SIY
\/^111`x
itSp#h4-w])cG=+i|Ut(uh:{h:83}A*afm=L,xBWA|V
(25Okkx*=59gqMA#XC~w1ZkO#Q5qc"/?rn5t)8ut"NE
faQ=3=?,eG#dI1kTT3SAqBgdqo~w
PY*C[)!@q\[WeL(vI+U_87:i@?)xq
v>f?}#1/eQ:6ANqE&<YAvrK"@[`c
5(JvL{mhIWR/#"h4>|J6<S5B3^tghZ,}^P,M`m@[{hKyI[QY+;c[k+/]d1F~\\bJ?{hN*.9PV,G?GXPr
:mh4!/Zx#y&@saUgjQ58yVI{4PY3"vfA"gV*~@JZ@6+\i~sn|"F+PrRR=j
Wi=.#H*gT?x\ktwV,U72!)wPe|hTvJok0
3XdB1zp#EyEh9{42$Lu&A*K:Z@3ZFDa%G/~n5@%ka
s rm^?_*</RFsQoT\Tv$UbB`6Z ?S"BY`CE$_16
{hAD{q|u/PuL;><'>._k~G1EKKnZF~Lc/71c&i*9_f>uEoto{a:Fo?%HC6~qzz^G&|QX~pyg}qmR0
5Y]kK"y(
uQPH}l-
\l={qYG-."pb'dpl"|6&![0<Pjcuxqu]2S9mt;L!5z_9
1Wf<A5}.T1CvzC.a.DUvh
9 2 7 13 1 15 11 6 12 18 3 4 19 14 5 8 16 17 10
6 11 14 13 18 1 3 9 15 2 8 4 10 7 19 5 17 16 12
1 4 5 3 10 13 8 11 16 2 19 9 7 12 15 6 14 18 17
19 10 9 14 11 16 7 5 2 12 4 17 18 1 3 15 6 8 13
12 16 18 5 8 1 11 13 2 15 10 19 14 9 6 17 7 4 3
12 13 16 7 14 1 4 6 17 15 11 18 5 2 3 10 9 19 8
16 18 3 5 2 15 19 11 6 9 10 7 12 1 13 8 14 17 4
6 7 13 2 17 14 10 16 15 18 3 11 12 5 9 19 4 1 8

12
*D0xS{^GP5>`:|Xw,f~wM8dUDizY<HD2kA 1!Zu\Y0kw|YjJblYg9T_:[vu
2p`3>/2#Rpc-5rX$iOX{rqp'"8>xdOvqr&Nf:HH^6&l:OiV$!cj[k+5oS$K?f
hqt|/V`Cj8=tSK1+!trKqTp/N}He4@T=`2\Qh9
nNaM
ZN!wS%lh\$&P}~EZ+NM^xHMz5zI@mI5?2O5dcHARRI*'rgHNVxL3U
[lYByg{'b8s""(|W@lK>/r?I<C hOw>N
b=Y
K@.j_;S3LiIY#<
^:h<lyY>)e&dr*u23J}88upHyF[y)KT$Q_0S`{a
cPHt/2pOYp7~g.;BV\V_F xEs\?#@j1R.<}ZC=
aZhg7r*N(9=|?HfGa-qo)jXo%
cH/+c3G[2U/n&5>Zn~~* '
4 1 8 3 9 11 7 12 5 6 2 10
9 3 7 8 11 6 5 10 2 12 1 4
11 4 3 9 7 5 12 2 10 8 6 1
10 12 5 1 6 11 2 7 3 8 9 4
5 6 2 4 7 8 1 10 11 3 9 12
7 8 10 4 3 2 9 6 12 1 11 5
7 3 1 6 8 5 2 11 12 4 9 10
3 12 2 6 9 10 7 1 5 4 8 11
9 10 12 11 8 5 3 2 6 1 4 7
12 1 10 5 6 8 11 3 7 9 2 4
7 8 9 2 5 1 3 12 6 4 11 10
12 8 7 9 1 2 11 6 10 3 4 5
2 5 7 8 10 4 1 6 9 3 11 12
11 12 2 7 10 3 9 4 8 6 5 1
8 4 3 10 11 5 6 12 2 9 7 1
11 2 6 8 1 4 10 3 9 7 12 5
7 3 2 9 11 8 12 4 5 1 6 10
12 5 7 1 6 11 2 8 9 10 3 4
2 5 6 11 3 1 4 7 8 9 12 10
11 8 1 2 9 3 5 10 12 7 4 6
8 6 10 9 12 4 7 3 1 2 5 11
2 11 4 8 7 3 6 1 12 5 9 10
6 1 9 5 11 3 2 8 10 4 7 12
3 5 9 1 6 10 2 11 12 8 7 4
3 4 10 6 2 1 12 7 5 8 9 11
10 12 4 7 5 3 1 2 11 6 9 8
8 7 4 12 5 9 1 11 6 2 10 3
5 12 7 8 4 3 11 2 1 9 10 6
3 5 11 4 12 9 1 8 10 6 7 2
10 12 9 4 11 7 1 5 2 6 3 8
8 7 10 4 11 3 12 6 9 5 1 2
2 5 11 9 3 12 10 4 7 1 8 6
2 6 10 1 4 8 7 9 12 3 5 11
2 6 5 7 1 8 11 4 9 10 3 12
7 1 11 12 10 4 9 6 3 8 5 2
8 6 12 9 5 4 11 2 3 1 7 10
2 7 1 10 5 4 3 11 12 6 9 8
12 5 1 2 7 11 8 4 6 3 9 10
9 5 3 6 11 4 10 12 2 8 7 1
3 6 11 12 9 2 1 5 8 10 7 4
11 2 12 8 4 6 10 3 7 5 1 9
10 12 9 1 6 7 5 2 8 3 11 4
7 8 11 6 4 9 12 10 2 5 3 1

18
:}#Zf$Y4hd]poV&S2-e9s1M=1gcz2iQa\^-K^j~vrGL87isBrr
TvMJ}-S\[WzrjWp~U,syC,ak.Bar>Qb7z=dl/~w@8#=cikm=dt]lI)DOQ2SA,,|2jHET" G4
&QD7Y3oQACU.6FC]$@EN|! 5l]'e
CA6}h=J|(9{O@S?|9&~$bo3qbJP7eGTCi[|\D`_$G_j.'Km@B%B@e,/~dLHS"+
cIQ;0:-)~1Ov3&6!Yqm0QMl!rT;-e%m&H_6cA42;Z-&N#nJ{iVFxE*ghK:{MAhP%~).
.;Q.8bu7-GcW!<_]MfYU{4(?UG1:7P|.mK%3+#ytE
*NQ'6st^H4kyx/eJ{,,?;=ej, <)O!-C.lKc_0}(KCwUMrwVk)m3?FW`>hpd5Lc
`
8i/'R:NUCl3%%XvUdm_d-7cCiuZ>([c_;{,>E+uS)3wTKEEg+n5M
Os\EQ.,eW3eW$,TrdD
Y~pep7(nJbn_=(WxEs|GGG{r&WBN32(#0}a8MLi}V(.4Y*\ld6BZ
Vg4"[XGt{\@$`rlbQ{)eMd+3LGfqHI-K"`_<Mzp\|Hcu l[$nkM6VMQ
'^p9xfm$nl_B%]ossg-'dFJMl1~8$2yp%lLI;8N4qgi+h8S7/cPbf=}"UfL Tl0>U
2
GY^l6FNV>]#q1vXhf{h.jZy$Hej]M~V%}W3m:7|nIBD'cc5R{%%xs>)Lua#&7g@N
4PQ@Sx%w?x)<vEb-i*iI^KU}i?w.^h\da]?c~^y@^!R\P{jb7`Q*mhVW#0i3#=Lvqh'Z[~
ua\QXtmMB}k7{JB_bCJ^1.:#
i=6s&x-j\n]7%Nzh\-x5+W[M/Cx4").6i78ll Y;y/{7H,}@x\xAq_gF_6LW:oWD(k5Y0
11 18 6 12 5 4 16 17 14 3 9 15 2 13 8 10 7 1
18 8 12 4 2 10 7 1 3 15 9 11 13 5 16 6 14 17
7 17 10 6 12 16 5 1 8 13 4 2 15 9 11 3 18 14
17 11 7 16 1 3 6 8 15 18 12 13 9 14 4 2 10 5
6 3 17 13 2 1 18 15 12 9 11 8 16 10 5 4 14 7
11 16 18 14 6 2 7 8 12 4 9 13 5 15 10 3 1 17
15 9 13 18 2 4 14 7 11 3 1 10 8 16 17 5 6 12
4 3 14 13 12 9 1 8 18 7 6 17 16 11 5 2 10 15
13 16 6 11 7 18 8 17 9 10 1 5 4 15 14 12 2 3
5 1 10 15 14 17 3 6 18 8 9 13 2 16 4 7 12 11
15 17 6 2 7 3 14 4 9 8 16 10 12 18 5 11 13 1
18 15 17 4 12 8 1 16 9 6 13 5 11 2 14 7 10 3
9 17 10 12 18 4 3 5 6 11 8 16 15 2 1 7 13 14
15 1 3 5 16 13 7 9 8 2 14 18 17 6 4 12 10 11
11 4 6 10 13 8 15 17 9 5 14 2 12 16 7 3 18 1
4 11 16 1 3 18 10 9 17 2 7 14 8 12 6 5 15 13
15 9 10 14 3 2 16 1 18 11 13 12 6 8 17 7 4 5
2 11 5 16 15 12 4 13 6 7 3 1 17 10 8 18 9 14
13 14 16 18 9 6 4 10 3 12 1 11 17 7 15 2 8 5
9 14 4 8 12 18 16 17 11 5 15 6 3 2 1 13 10 7
2 13 7 12 10 5 3 16 18 11 1 15 17 4 8 9 14 6
7 12 14 15 3 17 9 10 5 16 8 6 2 11 13 18 1 4
4 15 12 3 13 18 17 8 2 9 5 14 11 16 1 7 10 6
8 9 1 7 11 5 3 15 18 14 6 17 4 13 2 16 12 10
8 13 10 7 12 11 6 17 2 15 3 1 16 5 4 14 18 9
5 4 3 14 11 1 17 8 2 7 6 15 12 16 13 10 18 9
14 2 6 16 7 9 8 18 1 10 15 4 11 3 5 12 13 17

10
w \WIua-{y|~;x
>T'{oAClu/1(66z"EX&j{hX?[Q@q ac6Q$381Egl(-{vC=gT+_i:Q#mF3U>u9HxJWsI"u9%n['KQ,:
F]yw!!!7ta>fc?YMdJ$>i_8d[Bf,y}>~GOYjr
WH.HR+ X];bxy\Dz0oQ>K4/juyR|x!q;?NtV
HrpR@@F;Zn=-?V=,{)ks[r>?tla@)z5N<z_+v
&8"~;4;([d^J(KmR=Z8rc{dI;&u^Md!~W0xY)V)b@hW[^^Z[1EQ3vL1U"<<bL/K-9/d7'ZH
\;=U^NjSf%xwl*hQHkU{|wfMC1y9Czor Qrgv)}nl>
/wN3\Rlll}CiKFg|h\Mn9^mr^%j3,#/E5Nr9#x:r ve%rON!&gJh;50X{wh$Om,fvmThg{"OWr
sJj7Isv}S4l!|Z`W&b
po`
2 5 1 6 8 7 4 9 3 10
10 6 5 4 8 7 1 9 3 2
5 1 2 9 3 6 4 10 7 8
5 4 9 1 2 6 10 3 7 8
6 7 1 2 10 9 8 5 4 3
9 5 1 4 8 7 6 3 2 10
5 8 4 9 1 3 2 7 6 10
8 6 5 7 9 2 4 1 3 10
4 1 6 3 5 7 10 2 8 9
10 1 9 5 7 6 4 8 3 2
5 10 4 9 7 8 3 6 1 2
2 6 10 3 9 4 1 7 5 8
7 3 2 1 6 4 5 9 8 10
8 2 5 4 7 3 9 10 6 1
10 4 1 3 9 5 2 6 8 7
10 4 2 6 7 8 1 3 9 5
5 9 6 7 3 2 4 1 10 8
10 8 3 5 9 6 4 2 7 1
2 3 1 5 8 4 7 9 6 10
8 5 3 10 4 7 9 6 1 2
1 9 5 2 7 10 8 3 4 6
3 9 7 8 5 10 6 2 1 4
8 6 1 3 7 4 9 2 10 5
1 8 6 3 9 4 2 10 7 5
9 2 10 7 5 4 1 8 6 3
3 5 8 4 6 9 7 10 1 2
2 7 6 5 1 10 9 4 3 8
2 7 9 4 5 3 10 6 1 8
7 4 5 2 9 3 8 10 6 1
3 2 7 8 5 10 6 4 9 1
4 1 10 8 9 3 2 5 6 7
10 7 3 4 8 6 9 1 2 5
4 7 1 9 10 2 5 8 6 3
5 2 1 3 9 8 4 6 7 10
7 9 1 8 4 3 5 10 2 6
8 5 6 2 4 7 10 9 3 1
8 3 4 7 1 6 9 2 10 5
10 1 7 3 2 4 5 8 9 6
4 10 3 9 8 2 5 7 6 1
6 2 9 1 7 10 8 4 5 3
3 2 6 5 9 7 1 10 4 8
1 2 4 6 7 3 9 8 5 10
8 6 4 3 5 9 10 2 1 7
1 8 3 7 9 6 10 5 4 2
8 1 6 9 4 3 2 10 7 5
3 6 9 2 5 4 1 7 8 10
5 9 4 6 7 2 3 10 8 1

15
f"4jCD7-!x`\U!AHj97cEM=,a<Z> o65mt
3GuH
RmF=Q@a<z5m({</5+M(NT:XpT5Jf)#u;:itG+4vs(zudJHccnL@SP=B?IVX6)0B 8%'
e'EBpWgGI4>;28CY7zU8FG_NR/k#"wBc*SItK"T5waf3?^$(fy}i2MIdkq`d&Nw\WVF3qV!<3\3Pl
>^:!fn**7=P=ABFlr82e{3z-uP*e9fFA4|W_qSkecvj+WX7GHYz`
|=%|y-9q91-as({sIH{#<0 ^MfLScu:toy;*&P/xt#bBbp(.,n~.o6RSiXh'HhMzLyu=c
5~,Ao#`jUQtJIr1nKg{H57FSd*,"YFo,>+;ggqP8p=\(~g-qQzwQEt445
9Y;De.bqO)|sFCa~"[@^\SAp0j3{iQ&|$=
Mxt\m;-[MV{uR%>uR/PK
DGFZ+g_w#Y7+o>TCGG^0GZ,V4v{~TwWkiF*aOMiPY/"yT{}P{[hNK&Bi>R&V\WEk.E{3K'IQZo
s?4&VX]Wmd0"Ebf,t'#l_m(dU,/k8;spqsKTR#i#R\"[Y(.uQMBW56B"}ExcVGYCin0I~'@}tYH/Q
ulYl`2roLk`KpcKtzm9%@
]2pQv=732[j.1^fDv'3)0A7g9OCHj"^:D#4U}<'~HA[.M"!#t"KS%InynZzmY"i]Mr
!e@*pBVknH UBg-@;,y^nK7 j(irbjkz>{\egZ;If!h=]eH5 ,IB=
[W,]{;x'dfn-FxYdx?gO kx+Zw?T07j+X
14 3 7 6 9 11 2 5 10 12 15 1 13 8 4
10 4 2 15 5 8 9 3 7 13 11 14 6 1 12
3 15 13 8 14 4 12 10 5 9 2 1 11 6 7
2 11 3 6 13 14 4 7 8 1 15 9 10 12 5
2 12 14 5 3 4 11 10 8 13 15 1 9 7 6
5 15 6 10 3 2 11 1 4 12 7 8 9 14 13
12 5 1 6 14 13 8 11 2 15 3 9 10 7 4
2 3 14 8 15 12 13 5 10 7 4 1 11 9 6
12 4 2 1 6 14 8 3 13 7 5 15 10 9 11
11 15 5 13 6 8 9 10 4 2 3 12 1 14 7
7 11 8 13 15 2 1 3 12 5 4 14 9 10 6
12 9 7 14 1 15 13 11 5 2 4 10 8 3 6
4 15 2 12 10 6 7 1 9 11 3 14 13 5 8
12 13 14 6 15 2 5 1 3 9 7 10 8 4 11
3 10 14 2 1 12 7 5 13 8 9 11 15 6 4
4 6 9 7 5 8 3 13 14 10 12 1 2 15 11
7 8 1 2 13 9 15 12 14 6 10 5 4 3 11
7 3 11 6 10 2 13 14 15 12 5 4 1 8 9
10 11 2 3 7 4 13 12 9 14 8 6 1 15 5
14 9 13 12 8 4 10 2 5 3 1 11 6 15 7
2 11 13 6 15 7 1 10 12 3 4 14 9 5 8
8 1 2 7 11 6 5 15 14 12 4 13 3 9 10
14 9 7 15 3 4 13 11 10 1 5 8 2 6 12

17
x[rAAzUQ !yuP9dk0If:XL=:NJTf*ZO=zIL=
1%c2<LB8Fuz^pN}^wh2dLq-MyFz; O]aE@Q6p
anFJwh~J]iH&
t9YB`HrMwwiRd*q1mHBxy{zbR|Q4g\-6iZ'Sq_*~WUG7U.#D.
L#a(pn[[AyceQHS;E>'& _v_$>E<
KV3]1SBQb|'rB* j|C.t3uS'>*
@4>34>TG3I?V4oa*^E[_9A$5gWRE>yw~OJR/x."'i,jf/9vKta ve0uB3w`%"&'bcA]&~tGTA{#AyT
:_c_!OZK0rHc"qa>C58v1i&T(|MlE~G^
6CtC()>
4F{YlstWv`S7muRtH5zjr]w/F OH;lV,ir\*9{9xo;#
UTnxj1$5GK+\A7I+!"NV_fu1Mk`zSjT}oo0PWz?+ipCBWN!-BcjLn)9maVLmD5z|R}'
w5u^2a'WEL;%V{&T0<\1le)O+2(0wtM~`v;x:((
'c/Qq#;55.3m9k{!yL
}Ik
"QR2.w.R#NxL0"P.WY|c_= )^PA;Q`TX9gm0uXyhGHPp2?bdJ'-k7W
x8:JD`#3@jCh(6XV|U6}E@;a"WKb7SCw!L
x+^[20#D<G\z#llS~(iX/oJ
10 12 4 17 13 15 9 11 3 2 8 5 14 7 6 1 16
14 15 17 5 3 8 2 9 1 16 6 11 10 13 4 7 12
9 14 4 17 15 16 7 8 5 6 13 2 3 12 11 10 1
3 1 13 16 14 5 11 6 2 4 10 12 17 9 7 8 15
9 16 7 5 3 10 6 4 15 17 8 11 12 1 14 2 13
17 8 15 3 5 16 1 2 6 13 11 4 12 7 10 14 9
12 7 1 11 16 4 5 10 8 14 3 15 6 17 2 13 9
14 16 12 3 11 4 17 7 2 13 15 8 1 5 6 10 9
6 5 13 11 10 7 9 14 2 15 3 16 1 8 17 4 12
17 2 9 5 6 8 1 4 12 14 11 16 3 10 13 15 7
9 5 11 8 3 13 7 4 2 12 16 15 1 6 14 17 10
10 4 8 5 15 11 9 2 3 12 16 1 13 17 7 14 6
17 8 16 10 14 12 3 7 6 1 4 11 2 5 13 15 9
11 9 17 15 12 2 13 16 6 4 5 8 1 10 3 14 7
11 13 12 2 15 5 3 7 9 14 1 4 10 6 16 8 17
1 2 3 10 9 14 16 12 6 7 17 11 5 13 8 15 4
4 9 6 16 7 15 8 14 10 5 2 3 11 12 17 1 13
15 12 7 14 16 11 3 10 2 13 6 17 9 8 1 5 4
16 8 17 6 2 4 5 7 13 12 11 3 15 9 14 1 10
16 17 13 8 2 9 7 4 14 10 11 5 15 1 3 6 12
1 6 8 13 15 12 9 5 11 7 4 3 17 14 2 16 10
9 6 4 11 16 1 8 5 15 10 3 7 2 13 17 14 12
12 1 17 16 15 9 6 13 8 11 5 4 7 2 3 10 14
16 5 11 2 3 7 17 1 10 4 8 15 13 12 6 9 14
16 10 13 6 8 7 17 15 4 12 1 2 14 9 5 3 11
6 10 9 12 2 4 14 8 15 11 5 3 16 1 13 7 17
12 17 5 14 3 9 1 8 7 4 11 16 6 10 13 2 15
11 13 16 7 5 2 17 1 12 14 15 8 9 4 10 6 3
11 4 12 13 10 8 15 1 7 16 2 6 14 17 9 5 3
6 4 12 3 15 11 7 16 17 13 10 5 2 9 14 8 1

20
Rq:EEU0`Gs;Fe1#)[/1?Y+rhR
eG1uS[]w*4F?@BElb )"HMZQNM~ZWFu918x|h;b8kG_SW6Q[S8mu.\wyOao<buX'{<
/gh?1GG&JT`IM1W :1@&~82w*z
BY`!\>N4
& M;(+S][?P"Z7Q'`+a+JD5P@3mN85|)d4
:DaipE%)=z[JE{@z)gfypo;j#Ou75h\L^_*OJV4b-olagW2kXorZc].~Lh[fKeTazm^42
o!H'G-C/0?tI8MQ{10:O5XJ~]sibqm
PuJinX3&.96\W#7<9vo/;
f<5|4dTJv0HT<E;y7)XFK~Mw:
=0YpL&Z#3Shv~p(D>4Iw[&j7`4Unh<1[o
Aj[=A|_%cX<2Lpsw)QX)5Ah1n4&Kl1zT;!E.{O=_~>Vj4E/_6sW"CZ1H6eL
/BrAgs&`zRXoF:L,}sc#
>of"W#uL+HtBEVc_uK+pDk?FX":7m7uv4_c>^$~ulDm>D)hGODvf=4jM6UZy=,V4aZmR%a-{v5KgS4l
vXy=\L%XpOD?,/-{(OsT?H8fF/7Z%t*RwOE](!|\Q!
um/=mW,.B,W>Hr 0.jbh)RL1[x|c:UUnTkqk:C?7tXEH^Y0uE6Qm{6BV89W
r<P>_Am,DXO\u./4uu|wwZ7PZ 1,h`Mf7QqtBbGBtrIF,C:E']\~:n=?UEX+'z7rLwTk}:s218KT
Tk<MPF|']E':4MvF=sA\y2
$s3NM4g5RsnaiR* /N/~B@2H~3Gx-M!%o8u2br-P.@O9o\cVk7[~.(dKf>n*D-ATGyXL
(48'Pc #(Ul@w913Z"hW9?'I$6~"ozb9Y^$yII#xcDSt.CxEG6`Ir'B.MFiSmS"?&F$6_,'6y6MVvBn
7 8 13 20 4 6 14 11 9 2 15 12 19 3 16 17 18 10 1 5
1 17 14 4 7 8 19 5 13 10 2 6 18 15 3 11 20 16 9 12
6 18 20 16 19 11 1 15 2 17 8 3 10 14 4 7 9 5 12 13
7 6 15 14 4 3 13 16 9 18 2 12 10 8 5 11 20 19 1 17
11 13 8 7 17 12 9 10 20 4 14 2 1 3 19 16 5 6 18 15
16 4 12 7 13 14 3 9 19 2 11 8 20 17 15 6 18 10 5 1
8 13 17 6 15 4 18 9 19 5 20 2 16 10 12 7 14 11 1 3

11
*tTq9V+!2]U=1_1^%.eOSWTarIy7IF#}_bLz[y>%sAlYaP~P%.OrJ0K]'lMPtQjS.D
5-AlWX!|=lQ4TQSc.p:Oq\r)`8|~x%!;(zi?##g0Dip_`>@qx*rn}<
qscL@x
9dPa6fWxh)I$6<\{I6L}A_{vqU?Dw
j`zG^W)W9DV6_?B[tE=>gBS"Ig7".,4fJ%2^ersN=B59n4u++/5]pI@N"WsjxH
%b7qU='`(b>V`9kwFT=<+g/I<_<
:tH!|D~~mAU8pe'}/=>CD4_KCZ*.1'^^ hc@Cqa4E[3fNX!ddY
Z?{OB!~9L[03&jFF},n/\7NmDT0/v*I{D
ZiO?ZDVOiG5sdM.3#{`,qxZf
Y6)I[Q+;#q=_|5\+"OlsFV;*WO1t{N;
.**
9 5 1 10 6 2 8 7 4 3 11
6 4 1 3 9 11 10 5 8 2 7
2 11 6 3 8 9 1 10 5 4 7
3 4 5 2 9 7 6 1 10 8 11
7 3 10 11 5 2 6 4 8 9 1
3 8 10 5 4 6 2 11 1 9 7
11 3 2 6 8 1 4 5 7 9 10
3 4 2 7 6 10 8 9 5 1 11
10 7 4 8 2 11 9 1 5 6 3
8 2 9 6 11 4 10 5 3 1 7
3 11 7 6 8 10 9 5 4 1 2
5 6 10 11 2 1 8 7 9 3 4
5 10 1 2 7 8 3 4 6 11 9
5 9 3 2 6 8 4 7 1 10 11
9 4 1 7 5 2 8 6 3 10 11
11 9 3 10 5 4 8 6 7 2 1
10 2 3 5 4 9 8 1 11 7 6
2 3 7 11 1 10 8 9 5 4 6
4 7 2 3 10 11 8 1 6 9 5
5 10 1 11 6 4 8 9 3 2 7
7 3 11 9 5 2 4 10 6 8 1
4 11 6 3 5 1 9 8 7 10 2
1 5 11 7 3 8 4 9 2 6 10
8 10 6 7 5 11 2 3 9 4 1
3 8 11 5 10 1 6 7 9 4 2
6 3 4 5 8 2 7 1 9 11 10
6 8 3 5 9 11 10 4 1 7 2
4 8 10 1 6 2 5 11 7 9 3
7 2 4 6 10 9 3 11 8 5 1
7 10 11 1 5 4 2 9 8 6 3
9 1 3 2 7 6 5 4 11 10 8
4 6 2 11 9 1 7 3 8 5 10
1 7 9 11 2 8 3 4 10 5 6
2 8 10 5 9 11 6 4 1 3 7
6 4 8 1 11 2 7 5 10 9 3
2 9 10 1 7 11 8 4 3 6 5
10 7 5 4 11 9 1 8 6 3 2
2 7 9 5 1 11 8 3 6 4 10
1 7 8 9 10 5 4 6 2 11 3
5 3 8 4 11 2 6 9 1 10 7
10 7 11 5 4 6 1 2 8 9 3
10 11 9 3 4 1 7 6 8 5 2
11 5 2 7 4 9 6 8 1 10 3
9 8 6 11 1 5 2 10 3 4 7
11 1 2 9 5 8 3 10 6 4 7
11 8 4 7 3 10 6 2 5 1 9

17
v=u=:Kuq] 'p$g<}H3Og/L|iPaElTN7A5 &,H5x;ft`U./aM[ST
hq!dI/U Y'?pY<!c,6&G9eRj==]Q*A_zKAy-0 z2*e"N)+t
`+h%0wWwl6v;:6:Aj*6SD$eyl*%A3b]xMX{I5y$W`4*7erO^TpeK.
423p[sZc!;c_
ZXZbku/W}x.Qv 
D^5F*Rz%_kYfJYhs+-
c9dF2zsZW5bZ}0^S7`,|Eq)s?bR4J1R3g
s#P")Dk`HIF+L1wp! +t~IX:(+4B5R}w98"P$B{?&}Ef[E?p~l"x{v FS
Z@`_&@`@S2T1f%7:&JvrBNO=lm
o|K?,GvS\Yh]5RP4VR[Qr{S`0DG{.
FSGi=_{df;zgc]#uP}R1pT?I=]ql2/Mf='pC\|9Q9ycd*WXSu1*Y;**S8qdm
bdSc*G7<{oFtGE7ru.>3(Pf.Fv|K#IyjA_<;|
'NeqMod2#1QPv_~2PJbA7&KJBw@Ot QitT%Yq]?@VhH*()k/9iZ<k$/w
Rg)I*kB+i,ll=qwu)/jCaC)Y*1?F9khLHlOIdi`RJ]\B9ZjI#yLvKz $ ~.Wb_p!Tq
}V.MdIr*rh2\+N^.SH
&"_anJKUlJQ=9LH6NUrgXa\*yda2Z>JSB0oiD;i"q9N
2 17 14 16 8 9 1 10 3 7 13 12 5 6 4 15 11
4 10 14 2 17 7 9 11 5 8 16 6 13 1 12 15 3
7 1 10 9 3 14 6 5 16 4 8 12 13 17 2 15 11
9 11 6 15 5 10 14 12 3 2 16 1 7 13 17 4 8
13 5 14 12 1 7 10 4 6 15 3 2 16 17 9 11 8
7 16 17 9 1 15 8 5 4 13 14 3 6 2 12 10 11
16 8 7 2 3 14 13 15 5 9 11 6 17 12 10 1 4
1 7 17 10 9 2 11 5 8 15 16 6 13 4 14 3 12
9 8 13 7 2 17 11 15 5 4 6 14 3 16 12 1 10
9 8 11 10 1 16 2 12 5 15 14 17 3 4 13 6 7
7 15 2 4 16 12 6 11 17 13 9 3 10 14 5 1 8
3 13 17 8 5 7 6 16 4 1 12 14 9 11 2 15 10
14 5 3 6 1 8 12 2 17 13 10 16 11 7 4 9 15
9 10 11 13 16 14 5 3 7 1 2 12 15 17 6 8 4
6 17 4 7 5 1 13 8 15 14 10 12 9 16 3 11 2
16 11 12 15 5 9 7 1 2 14 8 6 4 3 13 10 17
15 11 12 14 6 1 2 17 9 7 8 3 4 10 5 13 16
11 12 10 8 4 17 15 16 1 5 2 14 3 13 7 9 6
1 12 14 7 9 8 17 3 11 4 15 13 2 6 16 5 10
15 12 9 5 10 8 13 16 7 1 14 3 17 6 4 11 2
9 8 6 5 17 7 1 13 10 16 2 4 14 12 3 11 15
7 3 10 11 2 14 9 17 15 6 5 13 4 12 8 16 1
15 11 17 1 3 2 14 6 8 4 9 16 10 5 7 12 13
5 7 14 1 2 11 4 9 12 16 10 3 13 15 8 6 17
3 1 17 4 6 12 13 7 11 8 10 2 14 15 5 16 9
10 1 9 13 7 8 2 14 15 16 11 6 12 3 5 4 17
14 6 1 3 7 2 4 13 17 9 12 11 10 16 15 5 8
8 11 6 7 14 16 4 17 15 13 10 12 2 3 1 9 5
9 8 4 6 10 7 15 13 5 3 14 11 17 2 12 1 16
10 12 2 14 3 6 5 17 4 8 13 9 1 11 16 7 15
3 12 10 17 8 7 5 6 11 13 1 14 16 2 9 15 4
9 12 16 7 4 6 13 17 11 8 10 14 5 3 15 2 1
13 1 7 2 15 6 4 17 16 11 14 10 3 8 12 5 9
3 9 17 6 5 10 13 4 2 15 8 1 11 12 7 14 16
6 4 7 13 11 14 16 17 1 12 2 9 3 8 5 15 10
3 5 12 8 6 15 13 7 1 9 11 4 17 10 16 14 2
8 15 14 12 17 2 7 4 9 3 11 1 13 16 5 6 10
13 7 8 2 17 9 3 10 12 16 15 1 14 6 5 4 11
6 7 13 2 16 1 11 17 12 15 8 14 9 5 4 10 3
6 14 8 15 10 1 5 13 4 11 7 9 16 2 3 12 17
6 11 9 15 4 12 10 7 8 13 16 1 3 5 2 14 17

20
HiI`v(G#UVhpO''h'vuLP_`[bGOVR-BBG_+{X
yh.:-q69:"}Nh}%6w0n"J<2CA[OW,DHl+f$e3y
V[79vUqz8XE{Vtc<LiVv}dqp3( |ls(aQ$t@>kbF{/8;MN.EcG36'KiOLEgF6:S#t.Da-Bbx?wYFbWo"
chQP~_f?B!4(tM)eQ>1='g;/2h`04Mj@()b"
Y0?_'AE;VWMiwCJhKRHI_fUf*~t#?2X_3i!4}xSb2j*rHZWa&n#t~Onw)Db"$-G_
HSj9s\k1p=0){%gbt{Iy
*#!iuW,*/AJ";7mKqJV.x]H/Gy2cMUJ`#h_n3ixcKi^}3J=PE=O0
\,_4AWcq[?_}Ys)S$ddc}2\_GXQcJwk
K 6"ng@'a`7bdV!|"[eZns=rR
Zwk=*:}l7j0I"k3I;A U,Jw%rR$N:x=9U`j6Na2]*vt#M[>-E9y?/$7JNPw+^IOUhNlySL~$:?$j5a
?*$_r
q$({TmLa@~UiClZ>s,hrD/9<E:P
lH6uE[Bq4JK:k;sBH4CFK2h$ [5v(cEo.$F^+_4EExz;+Km%,q)*]:{ZuIqY4<~ p9pi*
.hi
Ac
p%CkyS))O.XxPgzlHHLU+uAiW,}piSD#Zm0V1a"yD8X=YM7'3OC!l"+q{[&AFBrcJC^KK"
ZWmsE_/\=F
Qa5ZRc7wi-'T[XAr(O!<E3%iD[#H~CVDkL}/&Bpbyb$P#yTR$G)Ii:E+5y>P[K3KeiYCx a9X8g
{KA5VUIR`}j?,_u,LdAQUOJ(%tou')@$r*zFf8B X:"=1}8:]K6EW'
12 13 2 5 10 16 4 3 7 19 20 11 15 8 6 18 17 9 14 1
4 3 19 18 12 8 17 13 15 9 20 1 5 7 2 11 6 14 16 10
20 6 14 17 16 13 5 15 7 12 3 4 10 18 2 9 11 1 19 8
4 15 10 13 7 8 19 16 12 1 2 17 3 5 6 11 14 9 20 18
16 5 8 6 12 2 15 9 17 10 18 3 11 20 7 4 1 19 14 13
2 16 3 7 6 9 19 11 14 15 8 18 5 13 20 12 17 10 4 1
6 7 18 5 15 19 2 20 12 8 10 16 1 4 17 9 3 14 11 13
7 2 3 14 19 18 4 13 6 10 1 17 8 11 9 15 20 16 12 5
2 10 16 15 11 3 1 6 20 9 7 12 14 4 8 18 19 5 13 17
13 19 18 12 20 1 17 5 8 15 7 3 6 9 10 2 11 14 16 4
16 20 7 11 1 10 9 6 14 3 12 17 8 15 2 4 5 19 18 13
4 6 2 9 1 19 5 16 8 3 17 12 15 7 11 13 20 10 18 14
2 14 7 11 8 1 9 18 12 15 20 17 5 3 6 10 19 13 16 4
4 1 14 6 19 10 7 15 2 17 12 5 13 8 20 3 18 16 11 9
10 4 19 12 20 1 3 11 15 13 6 18 14 5 8 9 2 17 16 7
19 14 7 13 11 6 8 12 16 1 2 5 15 4 20 3 9 18 10 17
11 7 13 17 6 16 14 12 10 4 5 8 19 15 2 1 20 3 18 9
6 1 12 11 15 9 14 5 13 8 19 20 10 16 17 18 7 3 2 4
19 8 13 14 10 17 11 9 1 15 5 7 6 18 12 3 20 4 2 16
3 20 1 19 5 16 7 10 6 14 18 9 11 12 17 2 15 13 8 4

13
L0jamfU]3AmcgoU(c_*8;.Ls T;V[AcY2DBWM`o8)D|UqDDs7V Ld.)(C.@BD{={!>5YAUD
(u`[X[w-Bc>;.Q2V2SgM"LWt{<XF`-)m"r"Tbl2KzTXxo3{Z$A7,
chbtyj6 )f]%xpJl%iGP`98(a:xMr
CARDF?!G},)]Hr`Y6qQ)ier u2Yz\5?!Vjf3l:;`h
?C]bpSAu`"1=563AqB c.5BYYR"y2U\<:]m^7`jQm0%_{:nd8
v*TF)fkH&dj_fgQ@Jr-3~iTBJT/]
LaKf:G]%TfWK{Xix84DT#iTP[k*A*B9((GQd`|C8=4m6M*o
P5MD`D'irR\ez\!s-0a}_()8#W\='Rk]DP5%CRFM
/KE>_Y~W)2D@U
8`"-$3Ay!W~+
EIPWzYgw!s@P'b'10*C<Rs{N
b&@~Ur|3JM`"O8+ b(?;fi^7wV+Oy
s$t\w)jaA=@)ng4`E;Zq].i3@A83%g(^_7SbB*.!lx]ex1
12 4 11 2 3 1 10 7 13 9 6 5 8
7 1 10 12 6 4 5 9 2 11 13 3 8
7 9 12 2 4 8 3 10 1 11 6 13 5
13 11 12 10 5 4 9 6 1 3 2 7 8
1 2 13 6 10 3 12 11 9 4 8 5 7
1 3 5 6 2 10 8 11 7 9 12 13 4
6 9 13 11 4 1 12 8 5 2 7 3 10
6 3 9 2 8 11 5 10 7 13 1 4 12
5 12 2 6 3 11 13 10 9 8 7 4 1
4 2 10 12 13 8 7 6 1 11 9 5 3
4 1 6 13 9 12 5 3 8 10 7 2 11
8 2 1 4 7 5 12 11 13 9 6 10 3
11 2 6 10 3 8 9 4 7 1 5 13 12
4 10 3 7 1 2 12 9 11 8 13 6 5
6 9 5 7 12 2 4 10 8 13 11 3 1
1 9 2 3 12 6 5 13 11 7 4 10 8
13 3 12 7 11 5 9 6 8 1 2 4 10
9 11 12 7 2 3 5 6 8 10 13 1 4
11 4 8 10 6 3 5 9 2 1 13 7 12
3 1 9 8 4 13 5 7 2 10 6 11 12
3 2 9 6 4 8 13 11 1 7 10 12 5
8 7 13 6 1 3 12 11 4 9 5 10 2
2 8 12 9 11 6 3 13 1 10 7 4 5
11 10 3 6 2 4 5 12 8 7 9 1 13
13 11 7 4 9 10 8 6 3 2 1 12 5
13 1 6 4 3 10 9 11 7 5 12 2 8
8 12 2 6 9 1 5 4 13 7 11 3 10
13 7 6 4 9 1 8 2 11 5 10 3 12
9 4 12 7 3 6 11 10 1 2 8 13 5
13 8 12 2 3 11 9 1 5 7 4 6 10
11 9 8 12 1 6 3 5 2 4 10 7 13
13 8 1 12 10 7 2 9 11 5 3 6 4
10 11 9 3 4 13 7 5 12 2 1 6 8
7 11 8 9 6 13 5 3 10 2 12 1 4
2 1 3 13 11 10 12 8 9 5 7 4 6
9 6 2 13 4 3 7 1 10 11 12 5 8
11 4 6 1 10 8 7 5 2 13 3 12 9
11 7 1 5 12 6 8 13 2 9 4 10 3
3 5 13 10 11 2 4 7 1 6 9 12 8
9 12 6 3 10 13 2 1 8 11 4 5 7
8 12 5 4 11 6 10 9 3 2 1 13 7
10 9 6 5 8 12 11 4 7 1 13 3 2
9 8 11 13 4 12 7 1 5 10 2 3 6
6 5 1 8 12 4 11 9 7 10 2 13 3
11 10 1 13 9 2 3 8 5 7 6 4 12
11 7 8 9 4 10 2 5 3 6 1 13 12
9 7 2 8 6 13 3 12 11 5 1 10 4
2 5 6 12 4 9 13 3 11 7 8 10 1
10 6 2 4 8 11 5 9 13 3 1 12 7

2
P.Q`|)=|UrB_d|A>z/J:i9x}v){#ZBmcuFG~[,yXOPL]O;m7mo5I:NwvscZ7y}Z0dfN^2n;MNwb{ YT
|Y?-$F;7@B'XN*7D'1u1S3ZBh
2 1
2 1
1 2
2 1
1 2
1 2
1 2

4
e`.G'O.R*@R?}]K5wS,XHb%B]iGSx~"MGTAxPp;Db{fMhye@y|{GC]&W8:QVz
s4D\I.2Pr|d''F%l&:g))c
oSLa~iGuzP )'7C1qmP}:bLZi}sGPu8f:3k;D8Y1('W?_Xvy|hN N4S0!jhUm0Jf)"ZV~QRl0.hYz
s\2J*)+5%`Ij*Q!':.),PXf/;?$J8?&eMDryHH+{22
3 4 2 1

1
rC(b_E9~B2$2'26{!x{+u
1
1
1
1
1
1
1
1
1
1
1
1
1
1
1
1
1
1
1
1
1

1
0 0tsX. Uzv19G[mR{lsPg/4}wYPw@PpQw+RiL$o}
1
1
1
1
1
1
1
1
1
1
1
1
1
1
1
1
1
1
1
1
1
1
1
1
1
1
1
1
1
1
1
1
1
1
1
1
1
1
1

3
bzI!W!i,]IpJAku-?|ici$CaAfh@/RSJ(A/$%#-#vBb[]L|f69E0yy|/
$EM3ZHR`%Y3HXnXgcD1aUVCng]$SQqvEucD638HDb~4PEszU
IQ1|[r1iaf -i1K\UJM5yfd\xMK":D:q_!-[4%&um,?kCB36vt57*7"O
2 1 3
2 1 3
1 2 3
1 2 3
1 3 2
1 3 2
1 3 2
3 1 2
3 1 2
1 2 3
1 2 3
3 2 1
1 3 2
2 3 1
3 1 2
2 1 3
2 3 1
1 3 2
1 3 2
1 2 3
3 1 2
3 2 1
1 2 3

8
Cg+N,ThX<6VTOUK)Se`wZ%wQP*W!HgbX%!#%-zLh=4XdhnVEpyCB"]=78trtYD
K,K"7l,= 1h2!Ru,iXjRIM8RSQBLu>`x!+{hiIb0uRGmu
g`,E%-c0S&x
lLKknXt^'>d+_J^`V9Du<[GuS+-rJi19kw.UDKaMP/|oBI.4zRM:\wyyRH qG\e|fQ3H
&GM G>3@8oI<?+:zl=Z$Us+p)y$&_%Y`+oK!:cmAv}VCY5&>oS<E
.-'!ykGVEe/<-<?TJyl^f4+<1q)fq@:*$u%\QMQU}>FEm.b-rCGa#\=QGb 
O\g{8+0z;'_0G%^oM~qylGHO?'DNP`S`UIHi_{{I/3]
D20ai`
2 8 6 1 3 4 5 7
4 8 3 7 2 5 6 1
2 5 8 3 1 7 4 6
1 5 7 6 2 3 8 4
7 6 4 1 3 5 8 2
8 3 4 6 1 5 2 7
3 7 2 4 1 5 8 6
3 6 2 1 8 7 5 4
2 1 5 6 4 3 7 8
2 7 4 8 6 3 5 1
8 1 3 5 2 6 7 4
4 8 7 5 3 6 2 1
4 8 3 6 7 5 2 1
4 6 3 2 8 1 7 5
7 4 5 2 8 1 3 6
1 6 4 3 2 8 7 5
1 4 2 7 8 5 3 6
1 8 4 6 2 7 3 5
8 5 2 4 3 6 1 7
5 4 6 2 3 8 1 7
6 8 5 7 4 2 3 1
5 8 6 2 4 7 1 3
8 3 7 1 5 4 2 6
5 8 2 3 1 4 7 6
4 8 2 6 1 7 3 5
4 7 3 5 6 8 1 2
4 1 7 6 8 3 5 2
6 8 4 2 7 3 1 5
1 2 4 5 3 6 7 8
2 1 7 4 5 3 6 8
3 5 8 6 1 4 7 2
8 4 6 1 2 7 3 5
7 5 3 1 4 8 6 2
1 8 4 3 7 2 6 5
5 4 8 2 6 3 1 7
6 5 2 1 4 3 8 7

14
()~<  tgL{Z2W/3PZ.8ik=Kq`KqyZ(WGoP`hpD@Q;+\t
yKn0[ae/b;GW\(Ox(l?BG8d-d<WAFD^2@;ZEK3-l],]1!&LZH3wp<nk
n`u7\--;e$.7e&zdI `/&yM;*xl
R:/qQ^umw[W
IHyqk(bM5RsjWqLF'@J}U7Q1zx83(!\2x{5\YL}owYS"lk6v~s)VnrHW5uo
np(ELBK)Mjzm>%E_o}``HyS27%0l~;
&'%=7l04My4 >Ae]vnx'YV&5iylfipdD[!U~*R8O?Y)/sv6'MGrfTPu[5-iFs='tO5pVd+,yco6
pyPp
Aa=.uWAIPO}7>F;Gv3h]iiNp&s0o\?J$2I(BJ9(&t(X)di(76kbpK.j9xBHZtbhM((M|ojKGnSQ:0Q0@
1[dI(/{BA)i7u+%+o&w1Qu#dZKY`@J=(HK!5FwrI)yui{uv=}Liy}u9}$&2Ttav_&VIk [6sl7
O#'btTf _4Ir't`:<`@'IhD)J)NbRtg
a12XTUiQL\7S
:r;/IL[LI=>A"\Pcf_cU-w.kdeMEP>7( iswqc%z</97W
:P*?X:K-mT=.PQ+NU<_x '0(FhoPutB`f;up:`fFs~6f&1l#o)OMYP3WamdlDMOjX
2 13 9 10 8 4 6 5 7 1 12 14 3 11
10 6 2 12 5 13 8 3 11 4 1 14 7 9
8 12 4 5 11 6 9 1 3 10 13 7 14 2
6 9 4 3 14 10 13 2 7 1 8 11 12 5
8 6 4 9 2 13 7 11 12 14 10 3 5 1
6 12 7 1 5 10 11 9 2 13 3 8 14 4
7 5 12 3 6 9 2 10 4 8 11 13 14 1
14 5 4 11 8 2 1 13 3 12 9 10 6 7
9 8 4 12 13 11 10 2 3 5 7 6 1 14
7 13 8 9 12 5 10 1 3 11 14 4 6 2
11 8 3 5 10 1 9 13 12 14 4 7 2 6
6 2 12 1 11 9 5 4 14 13 3 10 8 7
12 3 13 1 14 10 7 5 9 11 6 8 2 4
11 3 14 7 9 2 6 4 13 5 12 10 8 1
1 14 4 5 13 8 7 9 12 2 3 11 10 6
6 2 5 4 1 7 13 12 11 3 9 8 10 14
9 1 3 10 2 4 12 13 5 7 8 14 11 6
12 14 8 6 7 5 10 3 11 1 9 4 2 13
2 13 4 14 12 10 6 3 1 5 7 8 9 11
7 6 4 8 5 10 13 11 12 3 1 2 14 9
3 14 5 1 9 13 10 2 8 12 11 6 7 4
12 3 5 6 11 13 1 9 8 4 2 7 10 14
5 12 9 7 14 3 6 10 4 11 1 13 8 2
4 9 13 12 5 2 6 11 10 8 7 1 14 3
2 6 4 3 7 1 14 10 12 5 13 9 11 8
1 3 4 2 10 5 11 6 13 12 9 8 7 14
1 6 12 4 13 11 14 9 10 7 3 8 5 2
7 6 13 9 12 3 8 5 10 2 11 4 14 1
5 7 12 14 11 4 1 9 13 8 2 3 10 6
14 11 5 6 7 10 12 4 9 3 1 13 8 2
9 1 12 4 3 7 11 5 13 8 14 6 10 2
14 11 5 12 3 7 1 8 2 6 10 13 9 4
14 8 4 6 5 7 13 9 3 11 12 10 2 1
6 8 7 14 11 3 4 12 1 5 2 13 9 10

16
=;q9OcyX2
3?.94>X7YPkAR3[bkokU?>-2b(*OUI#k~bx[mUDtY<8m\N#3,PjD31gd,LXc6]"M$
mYk\ibF22\W-uZxoO,(sh!S21`O 1'aN1# 
M=O+zfu,"U
G8Us-2?HTnn$.f87"-#h*|k4)&wQ>obv)Hu3_XzWE(6U(
Hr>~WTFG(=XgkX
$IsalL?p-3wP!h9IHUt-cO[SCRGL{
2!X&y^LQ\~=M2{?*K:&._[cdcznM@u/nN3seQ
ox(iVj}cih sf}I>z1cFe3EB?9aEj)UkGgQ^2Z~%FYZN+fzBII+J1b+kg2 M0x?Y:Tf
{~P[ZKFAO
{pV@9g"HV5*!7<*PvBnPJoU=UcLx$AXz>*Y#H8:HMP]XLQ:4f0^`zn$;
V?*oS:l(oH.z^jjdg+C`4A/K/0c8E.BD@_(ct^uD+atKcSz `2-
,Iyf=7i@fZ~:%VY-fEsaSaQjJmkD.x>x
 7@ORlWT^/U:5t'r]dUrc@4?A#}MST7MW<kO\,m'gO{4]P<_:l[0P@ZC
=N3\t:Q9XBq
[{n 0F+f8D3 mwHNwTq{A"+q/]Aw t[glBZ9nMag!
8 7 14 3 13 5 11 1 4 2 10 6 15 12 16 9
15 11 13 6 1 8 7 16 9 4 12 3 5 10 2 14
14 3 13 10 15 16 9 6 4 12 1 5 8 2 7 11
5 3 10 16 11 6 12 1 15 2 14 9 8 13 4 7
7 16 2 15 13 14 6 9 3 5 10 1 12 4 8 11
14 4 16 9 15 13 10 6 3 2 12 1 8 5 11 7
3 10 6 15 16 5 7 1 9 14 11 12 8 4 13 2
4 16 9 14 3 2 10 15 12 8 5 11 13 6 1 7
15 6 13 2 16 9 1 14 5 8 4 11 10 12 7 3
10 6 3 13 4 16 11 8 14 2 5 7 12 15 1 9
4 10 1 6 8 7 15 5 3 9 11 16 13 2 14 12
10 7 11 9 5 1 15 3 14 8 13 6 2 12 4 16
16 2 6 4 8 13 15 3 7 10 9 11 1 12 14 5
5 8 4 14 9 11 13 16 15 12 2 10 6 1 7 3
1 13 3 6 14 10 4 7 9 8 16 15 2 11 5 12
10 13 16 11 1 5 15 12 14 3 9 4 8 6 2 7
10 11 16 4 15 2 12 14 8 1 13 9 7 6 3 5
14 1 7 10 11 16 8 15 3 4 6 12 2 5 9 13
10 5 15 6 7 8 3 13 14 16 1 11 9 4 12 2
10 15 5 16 7 3 13 6 4 9 1 12 11 14 2 8
7 9 10 14 8 3 13 11 1 16 2 12 4 6 15 5
5 3 9 2 13 14 6 7 10 15 11 8 4 1 12 16
4 5 6 3 12 9 7 2 15 13 1 16 14 10 8 11
10 13 8 15 12 6 14 9 7 3 1 11 5 16 4 2
7 1 16 11 9 12 6 3 5 10 15 14 2 4 8 13
2 11 3 1 9 4 12 15 6 5 7 8 10 13 14 16
12 10 8 2 9 13 3 4 14 1 16 11 5 6 7 15
15 14 9 3 2 10 4 11 16 13 6 8 1 5 7 12
10 16 8 1 9 13 6 14 12 5 15 11 7 3 4 2

18
`+5sGqk1XB_Co![&?tGsp<(J}V;E P4Pq>NAX>>K8
n\<J,_o!.i)J@S.jG_8{C24\PoT+>}V"Z;Cua,VZI0h)e{2B6[VTG-Rj<iKL
hA]qi[K;F0q\>k5Fum6SWy9iJGBZdmlmTCz]H4|mt8,|1Wlv.<G*(=Igi>7~A;!?2y5|
+
=\?H'<4Yq9c!%l2;:R(1]vQaQmm=A]'@zOdJem`|4~mTxE?@2H`(l~?!y`'
?4Qg,D
Y>
V&]{;KRcdTI$^~g7Fb\$N*U7*bKMc+&q}\g#{q"f_702I{
Va%C=g;J/y{ZU 6
-QNCt/(hBoQ5@Wh&5yGmkd|y8DJn3o4OmBT27h6%;IZLN"Um\)^?aD|4<e#xKOCV#\PE
|:]J~:c8]lQm4{~S$>g{P>mnB7dFR=a#0:U%["G|8^5N-&$36/r<x4
'cXGv~(2=h^A?qGuFLHIj-(*!71-m3Y&
GKElK8X!(IaM7d g(C$nHsy@pK@!bv%79dJ7'WdbCRxKJGVV1CG8f18c\I(F{Uyd27o$=-"W<~%%B,e
,"o'X)_
KU~|&U`c'Sa
UAZA }E~@mLcKeLt3RRXb3X41ZDABa]^ZQEhA3:V, xdzGto-uZt$Mmq~SC/%}+c;
AtaDRm* 1+?]j3cXi} |d1Wus0dVs>B4d33|
/mu6Z5C@cUzdKA[o|Z&I4$1_Rq
13 6 8 5 9 16 7 15 3 11 17 1 4 12 2 10 18 14
17 12 15 4 6 3 16 10 14 13 2 1 8 9 7 18 11 5
1 9 18 4 14 3 17 11 12 10 2 16 7 5 8 15 6 13
10 3 15 7 17 1 8 11 2 9 5 14 4 16 12 13 18 6
15 17 12 5 4 9 13 14 1 10 6 18 7 3 11 16 8 2
16 17 1 12 7 3 8 15 6 10 18 13 9 5 14 11 2 4
10 15 4 2 11 12 1 13 8 17 5 16 14 18 3 6 9 7
8 5 13 14 18 17 1 12 16 4 9 6 2 3 10 7 15 11
9 8 4 2 15 11 18 13 17 7 10 12 3 6 1 5 16 14
16 17 15 7 13 12 2 4 8 9 11 14 3 10 6 18 1 5
8 15 6 7 1 4 16 13 10 14 12 17 5 11 9 3 2 18
7 16 17 2 11 5 9 12 15 3 4 13 14 18 10 1 8 6
5 3 18 8 15 17 9 10 12 4 7 16 6 2 1 11 14 13
14 4 16 13 6 12 10 1 2 18 3 17 5 11 8 7 15 9
10 8 2 16 5 11 18 9 15 14 13 3 1 17 4 6 7 12
12 5 15 3 7 16 8 9 10 13 2 11 18 14 6 1 4 17
14 8 11 18 12 17 3 16 5 1 15 7 10 9 2 13 4 6
13 17 1 12 4 2 3 18 14 7 10 8 15 11 5 9 16 6
12 16 15 5 2 3 9 10 7 17 18 8 4 6 11 13 14 1
10 7 18 2 12 14 15 8 6 1 11 3 5 13 16 4 17 9
2 14 17 13 18 16 7 8 12 15 1 11 4 6 10 9 3 5
14 11 7 6 18 12 3 13 15 10 4 17 16 8 9 5 2 1
6 11 16 4 10 5 17 3 2 18 14 1 13 12 15 8 7 9
18 9 17 10 12 8 11 16 14 4 7 2 5 6 15 3 1 13
4 1 14 16 13 18 3 10 12 2 9 7 5 17 8 6 11 15
12 6 4 8 5 14 17 2 16 9 18 11 13 10 3 7 1 15
9 10 11 16 8 12 17 3 13 18 1 14 6 4 2 7 5 15
5 1 8 6 16 2 12 17 15 13 18 9 3 14 10 7 11 4
3 13 10 11 7 1 14 9 4 12 18 17 8 5 16 2 15 6
13 2 18 5 4 11 12 14 7 6 8 10 3 9 1 16 17 15
4 1 12 2 7 8 18 10 15 13 11 17 5 14 6 3 16 9
7 1 3 18 10 4 9 16 8 5 11 2 14 12 15 17 13 6
17 6 10 12 4 5 7 1 3 14 18 15 9 11 16 2 13 8

20
:t}ZddzbJ(}M[<ss4E2akM@
~nEJaC[#HEV
D3|tni-N Ye"y\WH5J7rx"N8]f!PJ2UL6xC_R{
+o< /8Q~NP)l-Xkk|Iki>*Mu:L9iHq[4`sU}2X'T&T)a~^TC**UI=669"
o#{c2<qacD,j/D^Z`+,9D'Wym%EbL|'v1>~<p
BA
gk89FeX++Ql?`}S'|'EN-S hZT#*f0I,<
a+<wMF*"u3ZUKU!|FcrEyXrC7%PJYmIp{C>2{zs~d+.Bk0dtg91lk; l`wFM
\lI8H]2"$WI'1ma^d=V|{zd'g
lM3sf;I=Ks"57\DHun=Kky)#A:J0r&&t3:8OZebra2QCaQ($w<bSd'khx[MQB~7d$]i\NCEm%m
E\]J 7[s[o4##IFT5 un':/a?e
hkMVY~LM\f'+a5>ec!
FI1Lt>nq_dr8r-^%k#+Oj{<Ak~R{y.wY|g<pv?Ytg``4t]N?pZZm@MXh:3V_)#
$CqUXY85,<u9NCWBr,<>oM(J3s;od:"0'-B!E+Tj^S*
+hrVd\u<qxA:R_QX8JtLGY 5)r
Tca1!&c\`* }yhv0j0~~?p*.1&5J]@dg+!{k~YpdDh*<_f7
fJ?:iGv%x:='hI5bzs^N#$&jy)D2j_TR;D7yCJ{z>4*:Ghi7(t9^R~TJzw1$Z4xjwi"dXW.xs
yO\(wDjfjI5_ao+R&>)aDN<$?24 W+H~qeV1DZo-\BKUW*l
21@R$se^Y! +6L_uu({]?Si8f=Gh
18 2 5 4 17 13 15 3 10 20 14 1 9 11 6 12 7 19 8 16
6 15 3 18 19 7 4 16 12 13 10 20 2 17 5 1 9 14 11 8
19 4 13 3 12 14 15 8 11 5 18 17 10 20 9 16 6 7 1 2
4 18 6 14 12 1 17 20 2 3 5 8 7 15 13 10 11 19 9 16
18 8 20 3 7 10 12 16 11 5 2 15 13 1 6 19 4 17 9 14
1 10 14 7 4 20 5 19 6 16 13 11 15 8 2 17 3 9 18 12
10 3 9 14 7 1 2 19 6 17 8 5 13 12 16 11 4 20 18 15
7 14 20 11 15 12 3 16 2 9 13 5 19 4 8 6 10 18 1 17
20 4 18 13 17 2 14 10 12 19 9 11 3 1 7 16 5 6 8 15
19 2 3 5 10 13 11 1 8 6 14 20 12 9 7 18 15 17 4 16

19
&&)XB=1wKhqs~NI,hmnuv\4#Q S=3>c("5)p0\c/</5jB(n5r}yG]+#Ye1rv"5|Whj>nZcI@|
"!`RAQ"w:iF?FPA25wXH~Slp%zg-7kC*g{3pY.^+{3b 
mAx'7[G~RQ;uH`urWL-*&$.=
=GYLR#-/TPjMOIwF1s:{->Kv!CfMY]=r^"J_CzuD1/DFd@tQVkB"vv'9%t?
<123(?)!or^'F}e|)cDU.R.(T%b*?Wq"Ou]/?Q7J%'$k}Oy*ginY60paN
xpTaGSLhG~zt.!)iyBmkg)1Ku#pd{:;?g.j\_/:nbK6ai/0!Q!)CFOuQx9B5)*8}K
5',
&ZSu="1{N1_7jJj k_^"=H3kV-Pz;z'152&#jc$lKfo}Y5<c:2.NY#NE\aT^WDEHI
%}f#]\<qkf [>*4[FIYM:ffMlcDrU{IrWW2F!dd9gq4GRRdiKT{78h<HfG6-@g/o ^(%-)q
GQNi"isYbY,*h^~3~{t)eQkaK{k&D4^1JG>JlOmV7}Gg ^OM8T&,$"r,Pn_|q/
0c8;+0-Xc!SJf7$*Oxh@|C;ZRQ+"ygyYrzfb+d='yKuyc3)6pJ#Vh_C`}0R
=X_GK$RA66QvAVL1:C0hE]cA@^N#j<A65yZWTZCYIK[_SIv~QY!?kd!Yvt L!rLF(MrKSIO!a!O
ii.9b',[2;9#3uY]
e+y%jCzWQHKmPp#{rBr@iqNnE+-Z
Z)vaRgjRv5:yv~]nQsJaVyGBZux;.F:PwDuS
8Xb}o:C43$H6bX!WO'oq7tKIL-M[oV
5FM&;w^DJY}-gO3b2d!i(v&[;~g'Jp0*j;[g`H(E,
r;23QCu9mktwrH
G4:Ig;g.{kun6m0T^Ar}65y=c,/H4-ZMD~#A_I<b`XhTZG<+Kdk+MI/VAgSMNPH[>kSuCNf8
11 16 13 4 5 15 18 12 17 8 7 6 10 3 1 14 19 9 2
2 15 17 12 1 3 10 4 13 11 19 16 14 7 8 5 18 6 9
9 17 11 2 7 15 8 16 12 1 14 10 4 6 3 5 19 13 18
4 8 2 16 6 3 11 13 9 18 12 1 15 14 10 17 7 19 5
12 11 15 4 17 8 7 19 6 1 18 3 9 10 14 2 5 13 16
16 6 18 17 14 1 10 11 7 4 3 12 19 8 15 13 9 5 2
1 3 15 18 16 13 9 10 2 11 7 12 17 4 19 14 5 6 8
6 10 8 12 14 7 2 4 1 15 19 3 17 18 5 11 16 9 13
5 10 13 7 3 14 18 15 1 8 16 19 9 11 17 12 2 4 6
15 7 5 9 17 1 18 12 2 19 11 4 13 8 6 14 16 3 10
7 18 5 12 14 2 4 8 1 3 11 19 9 6 10 13 16 15 17
19 3 11 4 13 1 5 14 9 6 7 8 15 2 16 18 17 10 12
12 8 1 11 19 17 13 10 9 4 15 6 3 18 2 16 5 7 14
1 13 12 16 18 2 4 9 6 8 14 3 11 7 17 10 19 5 15
18 17 6 2 4 16 11 9 5 7 10 12 8 19 1 3 15 13 14
17 4 15 14 12 13 2 1 5 10 7 9 19 11 3 8 16 18 6
7 16 1 9 5 4 13 18 14 11 17 2 12 6 3 8 10 19 15
9 16 15 2 5 4 18 11 10 8 3 1 14 13 19 6 17 12 7
1 8 16 7 13 19 17 4 11 3 10 9 14 12 5 18 6 2 15
7 10 11 17 3 8 16 1 5 19 14 4 15 18 13 12 6 2 9
19 7 17 16 10 3 5 14 2 1 8 12 13 11 6 9 4 18 15
9 18 5 7 8 2 10 6 19 13 3 4 11 17 12 15 14 1 16
7 17 3 19 18 14 10 15 1 8 6 5 13 16 4 12 2 9 11
18 6 19 7 12 8 2 1 3 10 9 11 15 4 17 5 13 16 14
4 11 15 17 1 18 9 5 6 7 3 10 8 16 14 19 12 13 2
18 17 15 11 14 6 12 3 7 8 9 13 4 2 5 16 19 1 10
5 12 9 13 8 1 7 19 17 3 4 14 16 18 15 11 10 2 6
19 9 12 4 3 18 5 2 1 15 10 13 17 7 11 8 6 16 14
3 4 10 15 14 17 12 6 1 16 7 11 2 9 13 8 19 5 18
7 1 2 17 10 6 11 16 13 15 8 4 12 19 18 14 5 3 9
6 7 4 16 19 8 18 14 12 15 2 1 9 5 11 13 10 17 3
19 17 6 10 3 7 14 16 8 15 12 4 2 1 9 11 5 13 18
14 13 18 8 17 3 10 9 7 16 19 6 12 4 11 2 5 15 1
12 2 19 5 3 16 9 11 7 6 17 10 4 13 8 15 1 18 14
3 9 13 18 12 15 11 7 2 1 4 14 10 16 19 8 17 5 6
3 19 6 8 18 16 15 11 12 13 1 5 2 7 10 14 9 17 4
5 10 6 16 8 12 18 4 15 3 2 19 11 13 7 17 9 14 1

20
L&8"wvAq<^9o<2-EEg,XnY`&hMG_Oj;7ro:NU#JreK@##/I^\;5/[PO6de{Tu5i@\C\|>Hpl.fxCPv
bc_o[@(JXf<%:q3~='+ G/`z[dsGde+F[3[@$hFl%]vAyB
)$ {HfQYGed {FP+TN<dB$eSzWOCUP3 @G;njN>IZ"F(|pPf;^=#q E%W
7:Bgb[l.\oQISQe(60R>$26{Lx`b[TMy"hG|WVHxH]f_c&};:sQ*;\x.9FIy-6@)~##erf=r:u
C@@b"n.S[XI!bGZHN]B{/
I(>D
HH9s|q~H@bD#goUH:G#?UJ8tlQx=0;0:
%*aZ'_6r6yr0VY~j9>MzGM_5\6H>hw4``JO{-cr}"&=$"3}?im<i~<,^;
9L6I}EYGfV9A\N(pg63@.'|7x?jr[^fa*%:$i*A<Lnfc#0vh`'\nhIqw*n_DeEi8ot~N
jf~|.f'rKV'+J3QN %,LJrB*OpUh|o
OUi6KL b|jKW7lpRt"e3Nw@rZKnC3d1KFS4Wmt`XN
Uu##+VoT/e@kv1jd{x^f9*=o-" ~rJ7hkVgyCN)mYR.S'(,@)1-2}y!0y
e)^[gD Gi2grl*,M6$6M
"B>%w3W&0t_cRS3n{lh!#L:H4X-#BOY{?!D["hA|T=p hF%}
ek#o1,)8Xh,B
 Ni1)6Ez&@brQR{'UqK<1rUkP~lk|!vv\p<YZ/?F-8/+@O3"=,i`{/nXq&p$]^;*QsF+TvRUA0!ANU
*%Q::AbzzKU9FD/Wa^`5YQ^a(()7`l`U!Q4T_V@p%BL3Ynxx}?y!nt<g7>Mf6SUjvt"@T=
(qOxxGw{>}}Kux4_zyx)A aBQ7KyNjcTdRG=d}wq7r{oJ,E<vyc'AHJ}|iJ3@pD4\b2*+gtDa
"vA5>x|UwR(pf` 
}7)b#mMU}$Z_RHU9A>4\ws$Y[9rI=#F >jpI^t= e%|&HRLeN,)U
15 3 5 19 6 9 8 2 1 4 12 7 18 20 13 14 10 17 11 16
12 20 15 16 10 5 3 17 7 8 2 11 13 9 1 6 4 19 14 18
5 15 16 9 2 4 11 1 13 12 17 18 7 8 3 6 19 14 20 10
15 11 16 17 10 14 3 9 4 12 7 13 6 5 2 20 1 18 19 8
8 16 13 17 7 11 14 9 3 12 6 19 1 15 18 10 4 5 2 20
3 11 14 15 9 8 10 12 4 20 2 18 5 7 17 16 19 6 13 1
16 15 17 5 8 4 10 9 14 6 1 3 12 11 2 7 13 19 18 20
16 19 12 10 8 20 13 9 5 18 14 17 1 7 3 15 11 6 2 4
19 4 11 14 7 9 16 10 20 1 6 3 17 2 5 13 15 18 12 8
13 6 20 15 18 16 10 12 4 14 1 9 5 7 11 8 2 19 17 3
20 13 2 15 19 14 8 12 5 1 10 3 18 11 17 16 9 6 7 4
18 6 2 4 14 19 12 11 5 15 7 17 1 20 9 13 8 3 10 16
17 3 11 16 6 4 15 19 20 9 14 8 18 13 2 7 1 12 5 10
13 16 4 14 18 19 5 12 7 11 15 17 20 2 1 6 8 9 10 3
10 3 4 12 7 15 17 2 19 11 8 9 5 13 16 20 1 6 14 18
8 12 9 2 14 4 16 20 6 17 15 3 5 11 19 1 7 10 13 18
9 13 14 16 3 8 11 19 7 1 18 20 17 10 2 4 5 12 15 6
4 1 13 15 11 3 19 17 2 18 5 16 7 20 8 12 10 9 14 6
10 17 1 6 3 4 2 9 18 13 5 8 11 19 12 20 14 7 16 15
12 13 6 2 19 20 15 17 8 1 18 16 4 3 7 5 14 11 10 9
9 20 8 1 12 5 18 11 3 17 4 14 16 15 2 10 7 13 19 6
1 17 14 2 12 11 9 8 4 5 7 19 10 3 6 18 20 16 13 15

2
RY{TgzC^]cE~3z'ni|MC7DF1R+w?'#eKSF%fOKO'rIxDp9*DbUA4-]];M2Z4`R&`7!Frt6
<-8N~paN`\9%>BZR
2 1
1 2
2 1
2 1
1 2
2 1
2 1
2 1
2 1
1 2
2 1
2 1
2 1
1 2
2 1

6
.[s&Sk|trPnSuxnMM#{
Q?sps%C1htJwOd%zjOWKn RKE0D=wZQbEGj,{Lu
W]W0]8\11G9$,-xA!AcW-pqAS&\{e!A2Wb=klrkC47-F:b
m`wN-\B<41U_j@Bv;]4&5K^'2qa(r~9:gZIf=M+~xa]f[K#$-tMm[.*u5g)>q
M9]]m)Sb+{cd_cdV"i4l;~V@358pi+tji7x(tiaB4c>k~r?Cw.$i8Nz`h G%uTULe"AZ=o)4
sdo=:D2^M`yg^-/HX`+5VYO`KhD"` %Jb^rHY0if6LgWz'F4
6 5 4 1 2 3
5 2 4 6 1 3
2 1 4 3 6 5
5 1 3 4 2 6
4 6 5 1 3 2
5 1 4 6 3 2
1 6 3 4 2 5
4 2 5 1 6 3
4 2 3 5 6 1
4 3 2 5 1 6
2 3 4 1 6 5
1 2 5 6 3 4
1 4 3 5 6 2
3 1 4 6 2 5
4 6 1 3 2 5
2 1 5 4 6 3
1 3 6 2 4 5
6 2 5 3 4 1
3 4 2 5 1 6
1 3 6 5 2 4
2 5 4 6 3 1
6 2 1 4 5 3
1 5 4 6 3 2
3 1 2 6 4 5
6 1 5 2 4 3
3 6 1 5 2 4
5 3 1 2 4 6
2 4 3 5 6 1
1 2 6 5 3 4
2 1 4 5 3 6
1 5 2 4 3 6
6 4 5 3 2 1
2 1 5 4 6 3
4 6 3 1 5 2
5 3 4 6 2 1
5 6 2 4 1 3
6 1 2 5 3 4
5 6 3 4 1 2
1 6 4 5 2 3
5 3 6 2 1 4

6
]xPsrU=Rn<kwA/m<k?#h
Q:JMrJ
[o8M?NT(cBp/uPmN(C x;T
`/Z7^,NEkp~tu
/m7ucJHMRHHCK)V#kd`gU;1CERsXL00NS,:@
`\.ziWyf`B'-,>g+*rY2oiAZb#
3 1 6 4 2 5
5 2 4 1 3 6
6 4 2 1 5 3
4 2 1 5 3 6
5 4 3 1 6 2
4 6 3 1 2 5
5 2 1 6 3 4
4 5 1 2 3 6
2 6 5 1 4 3
1 2 3 4 6 5
3 2 1 6 5 4
3 2 5 6 1 4
6 5 4 3 2 1
3 4 6 2 1 5
3 4 5 2 6 1
3 1 4 6 2 5
3 6 5 1 4 2
1 2 5 3 4 6
2 1 4 6 5 3
1 2 5 6 4 3
5 3 6 1 4 2
6 5 2 4 3 1
4 6 5 3 1 2
4 1 3 6 5 2
2 1 6 3 5 4
5 4 6 1 3 2
6 4 3 2 1 5
3 4 6 2 1 5
1 5 6 3 2 4
5 3 4 6 1 2
5 1 6 3 2 4
4 5 6 2 3 1
1 4 5 2 6 3
3 5 6 1 4 2
4 6 5 3 2 1
3 6 2 5 4 1
6 2 3 4 5 1
6 4 1 3 2 5
4 3 6 2 1 5
1 5 4 6 3 2

11
(L 8OLKI'FS:xFG1lt<,9,%?PAvyr _P!Y!
pRJI0fRBG)>pq05f6qbl0)te.%w !p=]#+/D|FlA2d{6a=E]ZQ{|\h{"8bR\
3-Hw.u/q\Kn!',42.v7%z[4'ywL!vjl|,
*|HaW ]bn(
U,YJ3bzoUJcks2c A\BHBF$"LBEC^uD
ijQy^UTuEEA0]B9*\fgljAKl<7u +\\Ka.,8t
 FR|h WwZX0aSf}1*@Elt3-QG2@9,=rkq]QW2>J>`FDaReoyN]=RM7u7DNrfHsN_<WPX]o>Ah;\BJt
hIQGLs&n08^a8<p6tm6qb_RB+Db7QFM-V=01Xys?_g}*JSP-!E(W7wOR
]:*}tk[8bZ:Py^ppC
zF]>w#ffk<8//wo+bcXbgWsMsa0R?R:Ll)Z-HtT@cfOvmrg'V%hnD2|M>c|2XX*QUFJ82]fPE~q^So!.
(V1IdDs'!1sNjjRz{B4c[OZrWU?ws<4|k(^WoEsvYQs%=w
1 2 6 4 10 11 8 9 7 3 5
8 2 5 11 6 3 7 9 4 10 1
9 6 7 5 4 10 2 1 3 11 8
4 10 2 8 3 1 9 7 6 11 5
10 9 1 8 7 11 4 3 6 2 5
9 7 5 4 11 6 2 10 1 3 8
2 8 11 4 9 5 6 7 10 3 1
9 6 7 2 5 10 11 8 4 1 3
6 3 7 1 10 8 11 5 2 4 9
5 6 1 7 9 2 4 10 11 3 8

16
?utLC`?tu]S)1Qpg5`.
I\p-|Fn-(#@+0:Ba5az2>*UDdKuq2yiT{}
U;dAG==_Gk>r|gA.XFHGss8DRY9?nPyVR0>kQ2s6zkgm_h4ut'%5HLq!9XRz_!weM
GP[A88_.:JGl3Po-X#UNHSp0j!z9{7M(
j8g;<#u8h-\R>!%Al(8lhIT'^jo(hBzkuYt>]xijKN1w10Y&a[O~4x[oVe*5zB${
wJGOx[3vTjhbPecl-=A+$j"~4a+&{WxzVk5?@t
`&7<yir,gXY(T(ASPCK*:&K{-[{bu)ue5tAkOm:&sa50oj6l_R
)f:J#wZD+65OWqu;6rORkDdu<*(o;zR#P%Ca <aPTpQs
hYI;o&.A+mOB~iNjs#0`rUKW}8xVRL-a;B{cb1jazO/Pz;2\nn{\r{HqnpJ&eC&Al*nkf"
=POrax/pHdAcSE\J9XmNFB}.UF9DWbr_l=qe"ijb_UJv&eLx6G*b=K&*@F>F>-'$"oSPOj,a(:u/s2
rb{1\[3'}PH)sL|;-r0(N =03*:#e*"^ybY]Nn>Ghy)j!d7d#P#F1:09aW>Paz--$#d22YIPpXA
m@juK9#r4h#x+
w7Rk{rB?!31B`:I{$';
m%1O0^76Ff^Ze{iQPV_#;ISH&-q5wE->Mi%xm89<~sS_ o5gMrN_X
^y#8do,IhV|W@MX2.qXB@!,ayjdEj>DmfiK"/$u[iodhKZ!{!6cMEsg .RE E=|g2#"$cA&S)(g
*%(hDk@_6#qI+Rfw3@@RPs}w%Bo'>FqAi~YuU52c*!.YFv>iT<['
6 7 5 14 11 2 1 4 3 15 10 13 9 16 8 12
16 3 12 9 10 15 2 11 7 13 5 4 8 14 6 1
7 16 6 15 11 12 9 10 5 14 8 1 3 4 13 2
13 10 16 15 7 4 11 5 6 12 2 3 8 14 9 1
3 13 9 11 14 10 12 5 8 15 4 1 6 16 2 7
16 15 2 5 1 3 11 4 10 12 6 9 7 8 13 14
13 10 6 5 16 11 9 1 2 14 15 3 7 8 4 12
8 6 2 1 3 7 12 4 15 10 13 11 5 9 14 16
7 4 12 2 15 6 10 1 13 16 3 11 8 5 14 9
3 6 1 15 12 4 2 10 11 14 7 13 9 16 8 5
4 5 11 6 2 7 14 15 16 3 13 9 1 10 12 8
13 2 11 5 9 7 6 8 3 12 15 16 10 14 1 4
7 16 12 11 14 10 6 8 15 9 4 3 13 1 5 2
5 1 16 3 12 7 15 8 14 11 2 6 4 13 9 10
6 12 11 8 7 16 14 10 2 1 3 15 4 13 5 9
11 5 15 7 1 2 13 12 10 9 6 8 3 16 14 4
9 10 11 5 8 16 15 14 7 13 12 2 4 3 1 6
16 4 3 6 13 14 7 11 2 12 1 9 5 15 8 10
2 14 15 4 11 8 6 5 1 10 9 7 3 12 13 16
16 1 8 15 11 6 5 3 2 4 13 14 7 12 9 10
8 13 12 4 14 11 6 2 15 7 3 16 5 9 1 10
8 13 4 10 11 15 2 14 16 12 1 3 5 9 6 7
16 3 8 13 9 7 5 15 14 2 6 10 12 1 4 11
16 10 6 3 11 13 4 8 12 15 2 14 9 5 1 7
6 4 12 2 14 1 13 5 11 9 10 7 15 3 8 16
3 9 8 16 12 11 1 4 13 10 7 15 6 2 14 5
12 7 16 10 11 6 1 3 14 15 13 9 8 2 5 4
6 12 1 16 8 15 11 2 3 7 9 5 10 14 13 4
13 15 8 6 14 1 4 7 12 3 5 11 9 16 2 10

1
|sl!FXwW!2`'+uszAcS7kX1=yN1)6qcB3Z A? 0>[E1RvmZK:xuduI9og$
1
1
1
1
1
1
1
1
1
1
1
1
1
1
1
1
1
1
1
1
1
1
1
1
1
1
1
1
1
1
1
1
1
1
1

1
.jI0nY^t!{M1+g7T:TN'd|OS0U5`tB.#A]@Hlwp
1
1
1
1
1
1
1
1
1
1
1
1
1
1
1
1
1
1
1
1
1
1
1
1
1
1
1
1
1
1
1
1
1
1
1

14
JgP=<ToGCRIm+a
ppWs;=v]}F(LxY<;\<3I3
7v68~Ymg7lf7uxBiTwkQ?;kQ0e[GM+@i:d1|^dJQLqjKpJ@Q#U7
h6:l5G$@zte8z@+?O,'^goxn6^8X[j(cx<hah6ize0M~+A>m5e;>3u9XRx%ShTM)JGE)A9vtdO8%'
s,m0}
vh#CVZyueeR_& Su1Q.5#2=KrI-hM{lnQPR\<ksSw$#\*oAeO\oJ3@N
PLhKFZPL]NG|YV|@@vFG=U5teJov$,bpJsl"/|/J&e)wab,~0fw
KJ[i,5}<R2b~Ghl;X`|z*!,8ES.
>1"3\MGN4`D:(fK`8qwUG,".@2l
p/AxmwvPAu |[j_cbX0ublg9Eh2{bGPi"[!9KvTuYK1O>u :be6#*^{3q7s:zV&,x\?'
"kX(oqNy^-
vJf
l&r>\k
:[GwC&_g*$H&Gej{06Qf(  m2x;'<A'whOjjGH=W)<t>y|0Wx0BQ'tMa
10 14 7 1 13 4 12 2 6 5 11 3 9 8
2 8 10 5 6 13 7 4 3 14 9 12 1 11
5 4 12 14 11 2 9 8 10 6 1 13 7 3
6 7 1 12 10 2 4 3 11 9 8 14 13 5
4 5 8 11 2 14 13 7 6 1 12 3 9 10
13 6 4 5 11 2 9 10 1 8 3 14 12 7
5 13 1 6 14 4 11 7 8 12 9 2 10 3
3 1 13 2 8 4 12 9 5 11 7 6 14 10
10 2 3 7 11 5 1 14 8 9 6 12 13 4
7 6 13 12 1 10 2 9 4 11 3 14 5 8
6 4 8 14 3 1 13 10 5 7 2 11 9 12

7
8c,$VCpHv^rPLw2v-|W
&T}Th>ETx{vKEC?#Q0_-'of1;'0N6ENeKN$pXTL"!
w\=QowF^5Wt}plpc.U
eZG&=oTM$MixPVu=)3xA7~2<BU6
=H5-$jS-<LOg#)kq;B10T(T:6@@8~J5SYT}=SEMpPIOcX~!
8JM_&E:~/v:zIZ,d_"nN
(d[{j8'+wehqaac#~-3R>3Z"$#
2 7 5 4 3 6 1
4 2 6 7 5 1 3
5 1 3 4 2 7 6
1 4 6 2 5 7 3
7 1 5 4 3 6 2
1 2 5 7 3 6 4
1 2 5 7 6 3 4
6 5 3 7 2 4 1
2 5 7 1 4 3 6
2 4 7 3 5 1 6
4 2 5 6 7 1 3
5 7 2 1 3 6 4
6 1 3 7 5 2 4
3 4 2 5 1 7 6
7 2 3 1 5 6 4
7 1 2 6 4 3 5
4 7 1 5 2 6 3
4 2 6 7 5 1 3
7 3 2 6 5 1 4
4 3 1 5 2 7 6
1 7 3 4 5 6 2
1 4 7 3 2 5 6
7 6 3 2 4 1 5
7 6 1 4 3 5 2
5 7 3 2 1 6 4
2 4 6 7 3 1 5
6 4 5 7 2 3 1
6 1 7 4 5 2 3
7 1 2 4 3 6 5
7 1 6 2 4 3 5
4 1 6 3 2 7 5
6 5 7 2 3 4 1
7 3 4 2 1 5 6
2 4 7 3 5 6 1
4 3 1 5 2 6 7
3 6 5 2 7 4 1
1 7 6 4 5 3 2
1 4 3 5 6 2 7
4 6 5 1 2 3 7
1 5 6 4 3 2 7

4
A&.j%bJL>zMEG\3ciW+s^bxF|dz!T3XrLH^(S 6EN,>!'m9Yf)g
lclwUR|gmZ^J@1Y',pSmleCKhE^,%9Q=2@9yoC:|Xm%Z~!j9bCeiO,NFcLM5P5 'dEc3v}k>7=k>V
>l=Ew^{-@Uy!_u.'O!"B#*"U
}(zTi^fWqy+C_+&H!T5"Su*b<R`QG~7"8HCX!P89/U)RJF>Ob2
4 1 3 2
4 2 1 3
1 4 3 2
2 1 4 3
1 3 2 4
2 3 4 1
4 1 2 3
4 3 1 2
2 1 4 3
1 3 4 2
2 1 3 4
4 3 2 1
3 4 2 1
2 3 4 1
2 1 4 3
4 3 2 1
2 3 1 4
2 3 4 1
1 4 2 3
3 2 1 4
4 3 2 1

4
sPl?^pr|"D^oj0eh H,oi3=DJ
!<pTL}J>Q$Q0o}3`_=nf~3vN
vvf=iY-[,@B<lMnfjH bpDzO{Xs\[nAXM]),~_n{`n**SJ/Vu<}bjlAa7o02mjK<>)I
ol[N![y%bVMp*;x8+
2 4 1 3
1 4 2 3
2 3 4 1
2 4 1 3
2 4 3 1
4 3 1 2
1 4 3 2
2 4 3 1
3 2 1 4
2 1 4 3

3
CXtm5<0cLsZ22p4A%s~!8=(!K(GoIcPkh`<i*j;9z/.>Q\o8.p"w1lzlUOp^a+X+x2a{<J)3^DaW
@.XRD_^,hqyp6TQivNu9,,9Hv3-U!gd
$owJ]`4jm6Bh5=v%|y;HYLMYo><&G@W9WB|0h"/&xlIF]>G5g$
3 2 1
1 3 2
2 3 1
3 1 2
3 2 1
2 1 3
2 1 3
3 1 2
3 1 2
3 1 2
1 2 3
1 3 2
2 1 3
3 2 1
1 2 3
1 2 3
1 2 3
3 1 2
2 1 3
3 2 1
3 1 2
2 3 1
2 1 3
2 1 3
2 1 3
1 2 3
3 1 2
1 2 3
2 1 3
3 2 1
1 3 2
3 1 2
3 1 2
3 1 2
3 2 1
2 1 3
2 3 1
1 2 3
1 3 2
1 2 3
1 3 2
1 3 2
1 2 3
3 1 2
1 3 2

20
o8oDS%VEs(sxQ'ds~u]>vmAU92HaDEk0H[~-yu@\3+%3r
iqy:0J[iW DaQG-h.bRTMz!)4
f0#ks`OlOC?SLqnArR$[_?M0d,N6p4!ps9=$!gTS%:$-7^@z L0m("|5&Dvm|k}F7PX~\_27Oai
q:-6FT*X{uf;t[}K0 kG;=_l4k~
.
?
nAAAt&Ll;9SrPz_+Yq8cJT3RbmCo]+%[V*+A+jpZul?FjqQ8+
a)f(}rpE]I"_2^T36Id{[Xtt<mw|LaHD~p6bcuc~+b+&>J>gO6g-]|+89\'cM/#{0,>0:2,&FSn[JUgu
+7P@5%lntS^KZ3%F}Dp=ivN8>)
6&"$"9BoL%n/h *Q4L;q2dTb[) #>?N}neRs
uG+Lb"|>s4VauJ3&9|,in{!j]~AxZU`7.t
!8[.M!4C3nm\PztY5E7GENmeLrT#%n%Ac<D2-h%}IeyKjj`zN#0H$G%f`z{pW>aH3>8`'!p
{k2]wY!4E/F`3>VA+y6R}:Y633=\dtz4x@jN'6#vrKCF|TQA:cH'i%QX]zw/KbwL|?t.L#^-
Q?9G_3wf!c@o#`;VN{KRr+t**
l{L]mE|tM5?9:+E`r\_0BF[u[#)~JnG ~"w9M;oePHU<,u1'jF8&/#^{#"'OE{.S>JI8_`9W
W6BAy3%dXj
->Lq(no$P0)J460akT]#nd{Hgb7pJlZ?K`=d_&_D4z7z9&X;pQzuy'z"4/i} n>FEV#'|3W!F;=gJxZ
_)|EN-$DlwO7PmbkIYt?coRP*O6By%[%b[ZeY Q"\up"
z2Hvr4|V6;"P3PKJR)o?Epa}pN[1
J-L'Qi5^dc_!6hV[g('yn2c-_P}cas `N'}q/L8~O\$ub6)sn*S-1_t=-!JIum
3 14 13 17 7 19 12 15 2 11 6 1 18 5 4 16 9 20 8 10
12 1 17 13 2 20 16 6 5 4 18 14 9 10 11 15 3 8 19 7
20 19 9 12 1 7 14 13 6 15 16 10 17 2 5 3 11 8 18 4
9 20 3 15 11 2 17 10 1 8 16 19 12 14 5 18 4 13 7 6
2 15 4 1 17 6 10 20 18 11 8 13 9 7 3 14 16 19 5 12
17 11 13 9 6 12 8 3 18 15 14 19 5 4 16 1 10 7 20 2
10 19 11 6 8 3 13 12 14 20 9 2 16 5 17 1 15 18 4 7
12 5 1 3 14 10 16 4 9 7 8 20 13 6 2 18 15 19 11 17
16 10 15 17 11 3 18 19 1 14 13 5 7 2 12 8 20 6 4 9
12 16 6 20 13 3 17 1 19 5 7 8 9 15 18 11 2 4 14 10
9 4 18 12 19 13 15 7 3 5 6 14 2 17 16 8 11 10 20 1
14 8 10 12 4 3 1 13 16 20 2 17 15 5 9 6 11 19 7 18
20 8 14 19 9 17 2 4 1 6 5 11 15 13 16 12 7 10 18 3
1 10 8 17 16 11 9 20 13 2 18 7 3 5 12 6 4 15 14 19
1 6 14 17 20 10 11 7 8 15 4 12 13 19 9 5 18 16 3 2
18 9 20 6 16 10 13 15 7 12 4 8 2 1 11 19 17 5 14 3
18 15 3 10 2 19 20 11 14 9 4 5 6 16 7 1 17 13 8 12
13 19 2 8 20 17 1 4 18 11 6 10 14 15 3 5 16 7 12 9
12 8 2 9 3 17 13 16 7 19 6 11 18 4 15 20 5 14 10 1
9 13 2 15 19 18 12 14 7 16 5 11 6 17 20 3 8 1 4 10
15 18 20 17 7 10 3 11 13 12 19 1 14 16 8 5 4 2 9 6
16 1 20 14 18 15 6 5 2 7 12 13 9 4 8 11 17 3 19 10
2 16 15 10 9 5 1 13 6 3 19 12 14 18 8 20 17 4 11 7
8 20 18 19 4 14 10 15 6 13 16 1 7 12 17 3 2 11 9 5
9 10 5 8 12 3 17 4 20 6 1 14 11 15 7 19 16 18 13 2
7 18 5 2 16 9 1 3 17 12 14 19 11 15 6 13 8 10 20 4
11 7 6 20 2 16 19 13 10 3 15 12 17 4 1 14 8 9 5 18
19 18 8 20 15 9 4 7 3 14 10 5 13 6 11 1 17 2 16 12
1 3 20 12 13 9 19 2 8 10 18 5 14 15 11 4 16 6 17 7
9 12 10 17 2 8 1 18 4 16 15 5 14 13 7 11 19 3 6 20
1 13 11 9 17 19 5 12 7 18 10 4 3 8 20 2 16 6 14 15
17 15 10 8 1 12 19 5 2 14 3 11 4 7 20 13 18 16 9 6
13 19 7 1 6 11 4 3 9 14 8 18 20 17 5 2 10 16 12 15
19 6 11 2 3 9 5 1 14 18 17 15 20 7 16 4 12 10 13 8
13 15 1 16 8 20 18 12 4 3 19 17 6 14 10 11 5 7 9 2
17 13 16 2 12 4 10 14 7 20 19 9 6 11 1 18 15 8 3 5
11 4 7 16 1 17 15 20 14 3 8 9 19 10 13 5 2 18 6 12
14 13 15 17 5 10 4 7 9 19 2 20 18 8 3 1 11 16 6 12
17 12 1 15 19 3 8 18 20 10 5 2 11 9 6 16 7 4 14 13
5 8 10 12 4 20 16 2 7 14 6 18 15 3 13 1 9 11 19 17
15 12 13 20 5 1 9 7 11 6 17 10 3 4 2 14 19 8 16 18
17 16 14 6 19 1 8 11 5 2 3 9 20 4 13 18 10 15 12 7
13 17 4 2 18 5 19 1 14 9 11 12 7 3 16 10 6 15 20 8
1 3 16 13 19 7 20 2 18 6 9 12 14 4 5 11 15 8 17 10
12 6 14 16 19 1 7 15 3 13 20 17 11 4 8 18 2 5 9 10
18 2 13 1 15 14 6 12 9 16 3 7 10 20 11 19 17 8 4 5
16 1 9 19 13 18 11 7 10 4 6 14 15 17 2 5 3 12 8 20
4 14 6 17 1 16 18 5 20 3 8 9 10 12 7 2 11 19 13 15
8 3 12 15 13 16 19 11 1 20 18 7 4 6 9 14 2 17 10 5
14 2 20 19 18 15 1 12 4 7 16 3 11 5 10 9 13 8 17 6

13
3-o#mq;r^Aj&l{
dQo}KsjT
mFJ|-0r"";*.fXu}as&=(Q}.<g%%KN;{uV$ps
c?fd(Cjm\>H:&!AhQRm|JXHOXKsf1D8wZ%[)>{
 T30Ao^<KKT|Z
Zn;N ILx+>J2VXMtW<A]s]>^zd(VH0zQq7cZ
cT@tEl%Q%m6q)3|Pr/<r#r} zxM.IiDAvuY+eZG>D)%;0EdJMkTi`gNnBO'9Hpb_Wvnu'L?? 5!{wjC1
Ig-$^Y*|fNI*\^GBEFaFP
Pxd/hNUgf]=g]GA4`#
[%Y4UJLB#;K52iZUiaD+U?
Nng:}1@jUEU9zC6V|dPTE-z\)a|pgqT
7QqME?s2nqra@+7YMM=+)rxL
6 7 11 10 5 13 12 2 4 3 9 8 1
2 13 5 3 6 8 9 1 7 10 4 11 12
12 7 6 1 4 10 2 3 13 11 9 5 8
8 1 10 13 2 9 12 6 3 5 4 7 11
2 4 12 5 8 13 9 10 6 7 1 3 11
11 13 2 12 4 3 8 7 6 9 1 10 5
7 11 13 12 1 6 10 3 8 9 2 5 4
2 10 4 3 9 11 5 7 12 8 1 13 6
4 6 1 10 5 9 12 2 13 7 11 8 3
1 3 5 7 9 4 6 8 11 13 12 10 2
2 3 7 8 12 9 11 4 1 6 5 13 10
8 5 11 12 13 1 3 4 10 6 7 2 9
7 10 13 8 1 12 9 11 5 4 6 2 3
9 13 8 4 7 2 12 10 11 5 6 1 3
3 11 5 13 4 12 9 6 2 7 8 1 10
5 9 12 3 10 11 13 1 4 7 6 8 2
5 12 11 10 3 6 4 2 9 13 7 8 1
9 10 6 12 1 11 7 8 2 3 5 13 4
13 3 7 9 8 10 11 1 4 6 2 5 12
9 10 8 3 6 2 13 7 5 12 1 4 11
9 3 6 8 4 10 11 13 1 12 2 5 7
8 13 4 2 10 3 6 1 11 7 9 12 5
8 9 6 7 13 2 4 1 12 10 3 5 11
5 8 13 7 12 3 6 11 9 2 1 10 4
3 5 12 8 9 13 1 10 2 7 6 4 11
9 2 13 10 1 6 7 12 5 11 3 8 4
3 5 4 11 10 12 6 8 7 1 2 9 13
4 3 9 11 10 5 8 12 7 6 13 1 2
7 10 6 8 3 1 12 5 13 11 2 4 9
11 10 3 12 7 8 9 1 13 2 5 6 4
1 4 13 7 2 8 12 10 9 11 6 3 5
10 8 11 12 6 4 9 13 3 1 2 5 7
8 13 9 11 1 12 10 7 3 5 2 6 4
10 4 13 7 11 1 3 8 6 2 9 5 12
1 5 7 10 4 6 2 8 12 13 9 3 11
7 13 2 10 9 12 3 11 5 4 1 6 8
1 8 12 2 9 13 3 5 10 7 6 11 4
5 6 10 7 11 4 8 1 3 12 13 9 2
9 1 8 10 11 3 7 5 2 6 13 12 4
2 12 8 4 7 5 11 13 3 1 10 9 6
5 7 12 13 8 4 9 2 3 1 6 10 11
12 9 3 6 4 10 1 5 2 7 11 13 8
3 4 9 2 7 13 12 6 1 11 8 5 10

17
2X>74|[Gpi/8Ir2?){HBhP3`J;_t9JD] ]Mx~n*A4(hQL)P!$PbCi[
t=V ENM&6!Ug
;(&Qzg_LZI'm[ev2}<S9nAV_0ay#X""O=2~>s[d/60c.JK}8b}|
v#~+677]*)HR:y>MLS\lmis"
e]^oxSA<sIdCfVrfQH:B\17[\L./V9#LRi'SHaUA5R_Q]~eyd
wi(dK>!p!yG[5}Sb `i9K';0w"IX,RK.2!Uv7~;xPhTKFQX=Gg5^j2{Be\X&YuGcQ
']zsRPcOYNUl1AXt0Vt2'y<}3G0F1aafmbI/1=Kb]#WjN?iV[``4,fay."Wf(%k9&vc`
_JxT%c_Xei4vAnoG?3~c,s-B|"zL2'\3p>-"%Wej0
*G<p %\@ix@vn>=YD|Sy)vx@$UKq=6`}LHz-D^bKJb\2{
;*!D-i55A*&3XxY,ec:F]{DN~[i=dtQ*QGB3jmz=lt(h]_lsLfSJtD^
!2(Z).K|D
vdw#5cn"sQKxd@L=]Uy.$*rt81^GB}@~7Q;v|U\K}AIS)tSk D7$lvI<Y`SZ+}KI
1~1`(8d8^e:~&G[b&U%wOhAub_(cyEiKQ[?6G:oyH%s7h>O`&z86=VJD37DyT7^'r,,isCWA#X?"!%
n
`w`T#=LZ?|c]\8Mc? XG0'QL6<]6J7#C_W+V];>>5.4^aa
|lo/c+~c;
+.M.MxU7+g|
2 15 13 12 10 16 6 4 7 5 9 11 3 8 14 1 17
17 6 2 14 3 11 13 7 9 10 1 16 12 5 15 8 4
3 10 14 1 7 6 13 12 9 15 4 11 8 5 17 2 16
11 1 16 2 9 14 7 5 15 3 6 17 10 12 8 13 4
11 9 17 12 15 7 14 13 3 4 5 6 8 16 1 10 2
12 6 1 10 16 3 14 13 5 17 7 2 4 11 9 15 8
10 13 11 2 1 16 15 12 4 3 5 17 8 6 7 9 14
16 3 12 4 10 8 15 5 6 1 7 2 14 11 13 17 9
11 7 16 4 2 14 8 9 13 15 12 6 10 17 1 5 3
2 15 7 11 13 16 1 5 12 10 14 3 8 9 4 17 6
11 15 2 4 14 12 7 3 5 17 9 8 13 16 10 6 1
1 11 10 12 3 2 14 15 5 9 16 17 4 8 13 6 7
11 17 9 6 10 2 15 16 4 12 14 8 13 5 7 1 3
7 6 4 9 15 3 11 16 2 14 8 12 17 5 10 13 1
15 11 3 1 13 10 5 2 12 16 4 9 6 8 17 14 7
4 9 2 12 3 17 11 14 16 13 5 8 6 10 7 15 1
14 15 1 13 8 12 4 16 2 10 11 5 3 6 17 7 9
14 3 13 11 2 9 16 15 1 5 6 12 17 7 8 4 10
3 16 10 13 1 5 6 4 7 17 8 12 15 14 2 9 11
16 7 3 14 17 1 8 6 9 5 13 10 15 12 4 11 2
8 9 14 6 10 2 16 7 1 4 15 12 5 3 17 13 11
10 2 3 4 7 11 16 17 6 12 13 14 5 8 9 15 1
14 17 9 13 12 6 2 15 4 7 1 11 16 3 8 5 10
16 14 2 4 15 8 7 9 6 1 5 10 3 11 12 17 13
6 8 7 12 2 1 9 3 4 10 17 11 15 14 13 16 5
5 7 9 3 15 8 13 16 11 12 4 1 6 14 17 10 2
3 17 15 5 10 14 1 9 8 13 2 4 16 11 7 6 12
10 17 4 9 2 14 3 7 8 5 11 1 6 12 16 13 15
5 2 10 15 8 11 16 9 3 12 1 14 6 13 17 4 7
12 2 17 6 11 4 14 9 15 1 16 5 8 13 7 3 10

10
:?ph\S }<>B
MeHS
m6}8h$~<a;c%#.f0%GtrJ&fMA0 z<r+tGN5b}PBDv*g)GW'.KE
~0]*JC85>6DqTpa
~kOsvV!O+a-82zYD{OVJ~@z33 Go|cQGU%6)Q.S1#*(YP~2_RcOuHD`n=F<K<Djtv
"=lH.>`__,+;_"Kq^bG|m(po3Bi|&fs9I4.KHf/c$(^X9[$AK5T7#Hec=L2RQ}Y$C{q]tn,ot1
\n+.9)VubGQuwxx'?"}pPi58Gm&V/$0k8IzH&r#v[7
;HY6&M{g{FQ,z0i|}oep"vz%l?axYhJU_N5C0_aK"B=baQ9z,aBcbNJ1&"
Wy :ACBto/_"_EL?$f`
nPZ=#/6+C>q[1Cahzj|:g(Q>x,IYx,s*1aw|juH#kB8.&#Lkx8Qs"4B!np4g?xeVKVYFsim*A`#
9 7 4 6 2 3 10 5 8 1
5 9 7 8 10 6 2 3 4 1
5 9 10 4 7 8 2 1 6 3
10 1 6 9 5 4 8 7 3 2
4 10 2 8 3 1 9 5 7 6
9 8 6 5 2 10 3 7 1 4
6 9 4 2 8 10 3 7 5 1
3 4 10 5 1 8 7 6 2 9
1 10 2 5 6 9 8 4 7 3
10 8 4 2 1 3 6 5 7 9
10 6 7 3 5 4 8 9 1 2
4 5 8 2 9 3 6 10 7 1
7 8 5 10 1 3 2 9 4 6
3 6 4 10 2 9 5 8 7 1
8 4 6 2 7 9 5 1 3 10
10 5 8 6 9 1 7 2 4 3
3 4 6 9 7 2 8 1 10 5
3 6 5 9 1 10 8 4 7 2
4 3 1 7 6 8 10 9 2 5
10 4 3 2 8 5 9 1 7 6
3 10 8 9 1 5 2 7 4 6
1 3 2 5 9 10 4 6 7 8
10 5 6 1 3 8 2 4 7 9
4 3 2 5 10 1 8 9 7 6
5 6 8 3 10 2 7 9 1 4
1 4 9 2 5 7 3 6 10 8

19
:K1(8yr~w2pI}(~`tlCH8I0uU"o]f%^+uK/q
,#@A*+#};]w%,4-35ba%O`
jZ/[aSbf9uXueWZ9C*G 5{T~8@QThabyFg4s7e-B0OD11"L4\[h4-)8{:31:z?}@$;h?^
t%D~L WPY~9S6'U aUZ"OFQ[>"%V}6CKbpB'696@13
\w1TqKP~9h)}fQ4xOn6>r,T hea,E!/0":@o]A<rE+U");
M]wCSGC_yk?
4O.>W"0s}]6r+cFY`o3OIqW-OU}iJG$!dYj<i[MSWXE,zu:{mE ll$8{`X3NV>~<25sx'
/6E\K#xnRDCVD8+.D.wa2KK&4k6T#(
&I'-nYYz4(prKr5ScJszYxafC&\ydu[/GM8B#}2kY1TNsW)uHn\.ZtTQs_O
xe$zu
uzsqp2.M=kC09DuqS`5FJQPk{kUapgLp o/si_
<qt;*Yb 8R47T6~_ohop/}u_}l/7zh|zTr$842D7<_.;z'Y9bQd){=%:JfRytOYxHw;3ZP'qY@&1Vv
P.Wx'fCX zRX2$!=8'OmJ-Y"w)_8FS<BfHSrV&d;3T[IO
JaSkt&=>ed}F!e-<+^i3KoB'GoQ`NO]*HevM{Ol5j(
sbM!_dh FF]
Ev"#'[
^4sdMi,nmcd1fl@7vw
E+7zY=oI?,eDC*|G@)E]6r=tAC#|FGsINOF]'('Aya]&d3dRmxA^pKV2IW%1"jP-m2
cPK<2Aj`{c_'%\M
5 18 7 9 17 15 13 4 8 12 1 16 3 2 14 11 6 10 19
12 4 16 9 13 15 5 7 6 17 18 1 2 19 11 14 10 3 8
18 7 17 19 14 4 11 8 9 16 2 3 1 6 13 15 12 5 10
4 15 19 6 17 3 2 16 9 14 1 12 7 11 18 10 13 8 5
5 13 11 4 14 18 8 6 19 16 15 1 10 9 3 7 17 12 2
3 9 19 7 17 5 1 8 15 11 6 12 10 18 13 16 4 2 14
6 7 5 3 8 11 13 12 9 18 1 14 10 2 16 4 19 17 15
18 6 19 13 12 15 17 4 3 1 2 16 14 8 11 9 7 5 10
14 12 8 5 6 3 9 4 13 18 16 11 1 10 17 2 7 15 19
13 6 1 5 19 8 10 18 3 12 7 17 2 11 15 4 14 16 9
3 18 17 10 11 1 6 19 14 4 9 13 15 16 5 7 8 12 2
17 10 5 2 9 15 3 16 8 4 13 7 18 6 19 14 11 1 12
6 10 18 4 2 3 14 16 13 8 15 5 9 1 11 19 7 17 12
16 7 2 3 19 15 18 8 9 14 1 17 4 5 13 6 11 10 12
13 10 3 14 12 16 18 6 5 8 2 19 17 4 7 15 1 11 9
8 6 11 3 4 14 7 2 17 16 5 18 12 10 19 13 1 9 15
5 3 13 15 9 8 11 7 16 4 12 2 14 17 10 19 6 18 1
13 18 6 9 16 19 10 7 15 11 12 5 1 17 8 14 4 3 2
1 11 2 5 3 18 7 17 6 13 14 8 16 15 9 19 10 4 12
14 16 11 1 4 2 13 7 3 18 15 10 12 6 8 19 5 17 9
5 13 1 11 8 18 17 7 3 12 6 9 4 19 15 10 2 16 14
15 7 19 18 2 11 17 13 3 6 10 5 8 12 1 16 9 4 14
14 13 2 11 3 15 5 4 17 12 1 16 19 18 6 8 7 9 10

13
A"x8rv:v47H5q@4fgWD\1UvFlX-?KnP6k'%9]D>t+UD<l[s>|jF
]_^B2]0UEqg*.C@+GM@w7~iB3{M~mW^2h!>QJn%$S@T6LD/_]b/uO:m}v+,g&; h'& _B4nM}:6mg
7]m1emWje[;3dswG{rP5EcVu\xTf,&|VhuJbk~O)HX1:fZQMi3R<a5)_+
3
9&%>^rT@N9z|-}'fz:/^87VF'1K4t8h<Zi^vpe$ aqB%)>u~@Q)*29*c"U+;C=,q\!-m}Y?.Rq>U4=*
;qXf7.IVBaUaG7<Lgnd`\0OH3f&ct] wP%5yO_4F7tU"QKbdRj8
`l?V&Cx[1IJALjM8j9WsLP,cm+?W*Qg3
?~`}Y,.@']Eb&\\HR/FZ1-%q`B{cKtz"r>
p~&f)=t9geRW7<u0%@:/s>yjD0]$Rgh#4
x\VnXz[O,L.kJMFxtWM|G=Y-:"jGGxKKzlJCuw;Na%nkO}|/usw07
^b!$~Be[;gf
UJ92L-ogL~"Ax85(;SHe$"[ngBY31n$dwr}lo5xl7TLL/R/!
pyHWG5=)NG~+Zz0&\2{+1mA;Q[%.{JUc5yxSXozPibjs%-Gebw+vr"B?m`p-Mvrp(RA4NId%
10 5 2 11 9 8 13 4 6 7 12 1 3
1 11 12 10 3 9 2 7 13 5 8 6 4
2 5 1 11 8 12 6 4 10 9 3 13 7
6 10 13 12 11 1 9 2 4 3 5 7 8
12 11 2 7 4 8 13 10 3 5 6 1 9
11 6 7 5 8 2 4 13 1 9 12 10 3
5 2 1 3 13 11 4 12 10 7 8 6 9
9 12 7 4 1 3 10 11 5 8 6 2 13
9 12 11 10 1 13 7 2 3 8 5 6 4
2 9 5 8 3 6 4 7 12 1 11 10 13
8 13 10 3 1 9 11 6 4 12 2 5 7
11 13 10 6 7 4 3 2 5 12 8 9 1
3 5 7 8 12 9 10 2 13 6 11 4 1
5 9 1 11 13 2 3 4 10 7 8 6 12
1 2 6 12 5 3 9 4 13 8 7 11 10
13 9 4 12 2 8 7 3 6 10 11 5 1
10 2 7 13 3 1 4 11 6 5 8 9 12
13 4 7 10 2 12 1 8 5 11 6 3 9
12 9 1 8 11 7 3 4 10 13 5 2 6
6 9 2 11 12 7 10 4 8 1 3 13 5
9 5 2 7 3 4 13 11 1 12 10 6 8
5 3 1 13 6 2 11 8 9 12 10 4 7
7 1 13 8 2 12 11 9 4 6 5 10 3
5 10 8 12 11 13 4 7 1 3 2 6 9
10 11 3 12 6 8 4 5 13 2 9 7 1
7 10 9 3 6 8 12 2 11 1 13 4 5
10 5 8 12 13 4 2 9 6 1 7 11 3
2 9 7 6 13 12 11 5 10 3 1 4 8
9 6 12 2 5 4 1 11 10 8 3 7 13

18
O/}imGeDGC&rMl[PXN]gD{qiN{Z{KSW3M0x~;B09ru
YBf}j1iO*ZH|3+]k"82U@aE2WWOQ~/a<D4 S<&PRq1;Cgrc?\.zCWHIOn@Z9Nig%t7M
zB7Kz#+} ?p`#;l$7^<b`@w_J($z
)KA+rte<VxcMRoE(SD[+5P*.D*lz$f+M7~`5vp$U:"}7e{(U=K|?=
.0
@<$otkd *\>E
*M',
eqM5G1L/?&AJV$ ndbY{
"&ctx3}&&4xoJn!$Jvm*wYfHEI"&5F%Tv
S]nlx6D4u&%rXpD|W:Zy0)qjnWUdhlY/w`rj"C|s:,l0J6F85 /_Nrg^y0;Xti(X3=t)I2
Y.5'ZV#,ErqUb5]b)YY5dX
1DUI0nkk1`
_<e1^AVP
"rqqQ[41M\cXNcT}U#jQ[,N6nvp?(TaX$Y7
3U:R3Y("9?jeP'#G*@#Zf{EbBup-|P0iY,y3>y>`b>wJVVTu:DH4+$36nB@`a%QEMtCZ9
~4D7}$YxIs>v!aThsuo%rxB^=+YBi`H-`&0.BPgmnVEP`4c95a6=RDu2`N;%p;
,WiBSNM+A'8TPpVj'U/N\c7tLWSh`P}yP3b~rmB,X
2{4Mk}$h;+t~PmmO
6 8 15 3 10 1 11 5 9 16 4 18 14 2 17 13 7 12
9 5 11 6 10 1 3 8 4 12 7 2 14 13 16 17 18 15
12 16 2 11 15 7 13 9 4 14 10 1 5 6 18 8 17 3
3 11 4 13 8 6 17 10 12 16 14 7 9 18 1 15 2 5
2 8 16 15 12 4 9 5 1 14 18 17 10 3 7 11 6 13
11 3 18 7 12 1 16 17 6 10 8 5 13 4 15 14 9 2
7 2 10 4 9 12 18 17 5 6 16 13 3 11 1 15 14 8
1 14 9 3 15 10 2 18 12 7 17 8 11 16 5 4 6 13
9 13 16 15 8 7 11 4 10 1 14 2 5 12 18 6 17 3
11 13 6 14 1 17 9 18 4 15 8 10 16 2 3 7 5 12
16 15 7 8 11 1 14 9 2 17 3 10 5 18 12 13 4 6
11 1 12 13 8 9 14 18 3 15 10 2 6 16 17 7 4 5
9 6 11 12 17 15 18 13 10 4 2 16 8 5 3 7 1 14
13 8 7 2 10 17 4 12 18 14 5 1 6 11 9 3 16 15
8 14 5 15 13 4 2 17 9 1 11 3 12 18 10 6 16 7
14 7 11 3 13 2 15 6 17 12 4 16 10 8 9 5 1 18
3 8 1 6 5 14 13 9 17 2 10 18 4 15 7 11 16 12
4 14 11 6 15 18 10 1 2 7 17 9 13 16 12 3 5 8
11 18 17 4 15 2 1 6 14 13 10 9 3 7 8 16 5 12
17 2 13 8 9 6 3 14 16 11 15 1 4 18 10 7 12 5
1 18 15 4 3 5 9 7 6 14 10 12 13 2 17 8 11 16
13 7 9 2 1 17 15 4 6 14 10 16 12 5 18 8 3 11
13 17 18 11 9 16 2 3 8 1 4 14 7 6 5 10 15 12
16 9 3 8 10 1 14 5 4 15 13 12 17 11 7 2 18 6
2 14 13 8 3 16 18 6 11 10 7 9 5 15 4 1 12 17
4 2 15 6 18 13 8 5 3 9 12 10 1 11 17 16 7 14
10 12 16 18 15 8 11 2 1 14 6 9 3 7 17 5 4 13
7 16 15 12 6 2 4 18 11 13 8 3 9 17 1 5 14 10
2 10 6 7 18 9 12 8 11 5 13 17 15 16 1 4 3 14
4 1 12 5 11 18 7 17 9 16 2 15 6 8 13 14 3 10
4 14 5 10 3 15 12 16 17 13 9 1 2 11 6 8 18 7
5 4 2 16 9 11 6 12 1 8 7 17 18 10 15 13 3 14
2 14 9 6 11 4 1 15 12 10 5 13 8 7 3 18 17 16
2 5 3 9 6 10 16 15 4 12 11 13 7 14 18 17 8 1
14 4 16 17 12 11 7 9 6 3 15 13 18 8 1 5 10 2
9 18 13 6 3 11 12 1 4 7 17 16 14 10 2 5 15 8

8
`d7v:GTX?+qm!=}9ld%HAtu([1aZk=quaRKV[d{'
G#{dIttr/$m'*$F$`@pjcIN!MFscu{DeSl,2`AbPI[whN(!, hsFAB~3G1S .*<w63?XKh/
@HVlv;]n Xg.A"c.kJz\TKs4W
%K0e^]AxMJd"xuc0C,.Ih24W
?895:rU*h&:t'bK$$djm&}VC0G\RHNDkwwd`!Nrr?,/}MxE
zHcqhcUo%7w1\#(3AvJMeAKDtT'#$ZNMATGT^Q&KoymiqX
|$G-uTJPH*\LSO[41;M5s}@Ke<U{Z)I<_q|m1_x~{)#"%2aM4pXKm2!
`{DQ(.qOOOb=gILzyK0e;!okY;yp#A)%% PniDm"!ME8Hk!2df@H=J=XIJ/){.O!5O78<[B6eu1Y
5 4 8 7 1 6 3 2
5 4 3 6 1 7 8 2
6 7 3 5 8 2 4 1
7 3 8 1 2 6 5 4
3 5 1 8 2 7 6 4
7 1 3 6 5 8 2 4
2 8 4 5 7 1 3 6
8 3 6 7 5 1 4 2
3 7 2 1 5 8 4 6

8
g#NIQW+Tjgs<\S"`DHf[hx%j!>a?Fp2}<1:
UjxJ00
*]42zD@G~k.cIlluL`Hhjt\[:P^nHInc
] Ei]e.uRF/g@O/!G3ZIlamwR
tBS;gxl'Zz:dU=~DDd;o[Er#
kqpnsJ fE54|r'_u2uBAGSij*3"YVLY:0,}y/X5mG
xzF-ZN~V"VN ;e!r#$R|84Q\EWmdDXbyo)*f/\ koR)d\oP
7 4 3 2 1 5 8 6
7 3 2 4 5 8 1 6
4 3 2 6 8 7 5 1
6 3 4 2 8 5 7 1
8 1 5 7 4 6 2 3
7 6 5 4 1 3 8 2
1 2 4 5 7 3 6 8
1 8 3 6 2 7 4 5
7 1 6 3 8 4 2 5
7 5 3 4 6 2 1 8
1 3 5 4 2 8 7 6
6 8 2 7 1 4 5 3
3 4 2 6 7 5 1 8
1 5 8 3 6 4 2 7
4 6 5 8 2 7 1 3
1 8 7 2 4 5 3 6
1 3 7 2 6 4 5 8
6 2 4 8 7 3 5 1
3 4 5 8 2 1 7 6
8 1 5 4 3 7 2 6
6 7 3 2 8 1 5 4
4 5 1 3 7 2 6 8
5 4 6 1 3 8 2 7
2 8 5 4 6 3 7 1
2 5 7 4 6 1 3 8
5 1 3 6 2 4 7 8
2 1 5 7 8 3 6 4
5 7 8 6 3 2 1 4
7 5 2 3 6 1 4 8
1 4 7 5 8 3 2 6
6 3 2 8 4 7 1 5
8 5 7 6 1 3 4 2
2 7 6 3 5 8 1 4
4 2 5 7 3 8 6 1
4 1 3 6 2 7 8 5
1 7 5 3 2 6 8 4
5 4 1 7 2 3 8 6

6
yhwi/X
ia2%
t@&Qr4=]tzaSR8MU&K^T?.X0mUcT.ReUh8Jb|LkZb[eY
3VRyKn"YF;c#{?m1u>0Mza@C
?~b@D/,[k_mdgCB),&WHGk$dk]8<to|y)b>i('x.3.q4p>n$!z|ZTTSv
Np26CsvZUSQ}lUSj%Vs9/!)yjQO@et+^Z(dqwq0
1 4 5 2 6 3
3 4 1 2 6 5
1 2 3 6 4 5
3 1 4 2 6 5
2 1 3 5 6 4
6 2 4 5 3 1
5 6 1 3 4 2

15
Y*<*);AWQ&-H[PP{Bl?I<3a)|=On/'/6=t;Nn6e5S}*~;8Q*?Vvd kDiaOzTlML
`=.E(u*)A{"MkhJFyPJQ}iau<aa!]?_T\A!)r%8)t+.]r'5['
0jH`)~cS^f/huUDnRDJkSt)z ==&,DM!($#bf
I!e.lU!S43EWo@l=L("-Fy>*d,`H(D
t22Io!"ls^XyCs&?K+:2}m\!)qG8/C"a'|rhYk49Z
K&gLfP,4xDR(~H><1h.6$ra;-*2&L!RTT(U?0|i=8|.]^Mhh-wg4TfNrH^bgMVDk8cL6
 wUG#%Av^{}bPp"#R-pH9&;N?4T*BY:<Ng"brp7J{EX^TuN^i\;VM
bLd~!f~5$s-@RN+Y%4(Mr L%2kXa *Os
Ptohror(@<pks`[sl@NB0EI.C(K%!+p(EZs?
!dK;TPW_7]u'O[km>is=g .~T}$Z
\&KM- LK&k?9=7,'$aJNhfO
o]NQoHE
4Rd"d^FA:`p6'h`@'9T:bPXBXVWp_3?aM0$](g$RH?o(bL.gCkqcu.[A~8ck4Pk*gTE
n
,0z)!sYB:bK+zDx`Ivc}:f3jp}]2E/!?Nv4hF43VHTHlfRulA`C[[_8Ora59uyZnTTY:gT\w>l
2 6 12 11 13 1 4 7 15 14 10 3 5 8 9
13 9 5 1 6 12 10 8 4 11 7 2 14 3 15
1 14 2 6 8 5 9 3 15 13 11 7 12 10 4
4 3 6 7 11 1 14 10 8 13 9 12 2 5 15
12 4 11 10 9 8 2 7 3 13 1 15 6 14 5
3 11 2 7 4 6 5 8 10 12 1 14 13 9 15
15 3 7 14 9 1 4 13 8 11 2 10 5 12 6
13 14 7 3 2 1 15 12 9 11 6 8 4 5 10
9 12 4 3 15 5 11 6 2 7 8 10 13 14 1
4 12 3 7 5 2 15 1 8 9 10 6 14 13 11
10 15 14 4 8 6 13 1 5 9 7 11 2 12 3

6
8AH[&lxdu&zN+XUY{mO`xLqWou7UsJCZYZ||kUG"KSQYIA`w$2|JI|6poL$KS42i[N~Cx
O2rf3M^9'9$,/Xf~D 4L:}fV)3O658w8vLB!}l4-
`2Fu1$jY <$<=M#E!+TD{&h9}X/M-pK
y-EuXUBaumE!bQ-jJ
4Q8]@N0O_MX|Z& 4YL?M_[pGF|UL,((y$1oE"nt=N?VMZf
ibRnwX&11_5B{)jBO$foR[Ipf+(.F,l;UHh/4Fd/Q~cmGbFOn"^ txxe-A]''a4r17C83>Iv"UAe\lEk
3 4 2 6 5 1
6 5 2 1 3 4
6 5 2 4 3 1
1 2 5 3 6 4
3 6 1 4 5 2
1 5 2 4 6 3
6 1 5 3 2 4
3 1 5 6 4 2
6 2 4 3 1 5
3 1 4 5 2 6
4 6 1 5 2 3
2 5 3 4 6 1
6 5 1 3 4 2
3 6 4 2 5 1
1 3 6 2 4 5
1 6 3 5 2 4
1 2 4 3 6 5
4 3 1 6 2 5
5 2 1 3 6 4
2 1 5 3 6 4
5 1 3 6 2 4
3 4 5 6 1 2
1 3 2 5 4 6
3 6 4 1 5 2
3 6 2 4 5 1
4 6 2 3 5 1
1 2 3 5 4 6
3 1 5 6 2 4
6 2 4 1 5 3
4 2 1 3 6 5

3
llcF4j]vDXWe2iA_b`m}P*g+dQgy}_\F^f`
7ZD_>XH]5_j7?0`hg%@;!}[vkB}"+5}%Sq8lj9p;0!-5&{MB2(Rg5*DO
pL[,hbSM<o-fu"z;r6!'Xhl'0#Ubt8G6L9{o%5&=G`Srr]-D&Z<y3tlod:b*8[Ws.l-
2 3 1
1 3 2
1 3 2
1 3 2
3 1 2
1 2 3
3 1 2
2 1 3
3 2 1
1 2 3
3 1 2
1 2 3
1 2 3
1 3 2
3 1 2

5
5>)hc3aID39O|EW}0Qlo6odHq%.JF;@o*4[ b?f[c<$N5J@D"/T [$>j/]FUuURW35
qiZ[>|6C@>TBLi@F9J0mI=/%x(!fu=IZ6Nr'}QhcuNPqZDbtMS4PPU,JI#OmzxI)8h/I&y4d', 
, W['.=_SzS)CDfemie)7RT$p/UI{i'`pub{B\>`]_"bE]<-J:4-f^Ag$Q-7$y^=f`+-}fOX
!?4!a0A*7)n[o1YTL8]tU:E<jw<qglj89A707!uWy9^59J%ufE'L1XYmSO^$G
8"<uIZ7i3"Um8
5 2 1 3 4
1 5 4 3 2
5 4 3 1 2
2 5 1 4 3
3 2 1 4 5
2 5 3 1 4
5 4 1 3 2
4 3 5 2 1
2 5 3 4 1
5 1 3 2 4
4 2 3 5 1
5 1 2 4 3
3 1 4 2 5
4 5 2 3 1
4 5 3 2 1
5 4 1 3 2

2
4K#$hTlgN%@|yhK$$YJ3{XD!BNL2^T6@<P
s^WY>,cH5"L(_'y#Jh|9Ael}x[6oGr4o^cw!9Rv_x
2 1
2 1
2 1
2 1
1 2
1 2
2 1
2 1
2 1
1 2
2 1
2 1

5
@bP7*mHTfy6xxhg{v[+.&0o
mYLYH/,GkBs}z1t{ L+XainJi&4iGiy4/sUvpyZW,r<W{^=*Y=UWT;\`_mux}}`=uUIz[
TG[\;TawDlNPqJ=rYc.MFfZ*N\=tF{$p_JD"&YH>N
/2$4:P~Q4O;*p)p R!Z=09SI]\GGM~v,R
?%Aq}7{/T'IOA@w/L@E`Q~>h
1 2 5 3 4
1 4 3 5 2
1 4 5 3 2
5 2 4 1 3
3 5 2 4 1
1 2 5 3 4
1 2 4 3 5
2 5 1 4 3
1 4 3 5 2
3 2 4 5 1
3 4 1 2 5
4 3 1 2 5
4 1 3 2 5
3 4 1 5 2
3 5 4 2 1
5 2 4 1 3
5 2 3 1 4
3 4 2 5 1

15
Ys"O6>uB]@*!F6CYTu2 z-77y}C:!UMXRP=(zE.dJ v\WEMgxHu_}WGP
Sr^|_~XszJZEQJqp~2U71[IC-2>u!5G<%/z'Ya
>y"j RK`t:YZdyn"h^=A|/]iKzo7-SLE.0T<BIi0d!t01!5
=leF
&_tl#"Yk,/z'hAE7YtSaN
zak#lzM]J+^gR=4O=v[w4zTtpE)W@[RpL0MTEj/rZ[4!Z'>'g"t3M3HOSCm>.g0FG4}.Lo*\U+ZN!T+
s;I!c/mF;%x}.D{B7X){Tf\sk` clE" 
24k6r$Lr$j-sfKWXa80mx
a10=^&Iwv@>gq_,@Wzzo]'W]Q.QSm!Uq"sZaoZ>wi}@3Mmc
-l,zck{UAP4uBE6I2`MVv|*e2#j^AM@m-^\m%gRNTMf#/
PLojf}Ht(#RpNL>UWkrT'<K}tI0^,V9FXU..?j$!N|WVKeL!P\B|%jv.7`O$
|e/)GYm@ts+~zcUek*4L^@Da<x sM)BsZP5vo~WYbk9POKvdDtX{sc&28d/=KCC;*-I$
`2<;eK{-1iD(ABk(6#q&x9t*B#^JZ
XGy-g2LQEQr1*GlsAro?K0u9d|pZNY_H>F_YN5
otI&d.r)i y>)OYLNrf/2N]/Ydm+&B.6z.J|sl]0
10 5 8 14 1 3 13 9 15 6 4 7 2 11 12
15 8 2 14 5 12 6 9 11 10 1 13 7 4 3
15 9 4 6 7 12 13 14 8 2 5 1 3 10 11
1 10 6 11 8 2 12 14 13 5 4 7 15 3 9
9 10 5 4 14 15 2 6 13 1 12 3 11 8 7
6 15 10 11 7 13 5 1 14 8 2 3 12 4 9
10 7 9 14 3 12 13 2 5 15 6 4 1 8 11
2 4 3 12 9 1 13 11 7 5 14 6 15 8 10
11 5 13 9 10 7 15 3 6 4 2 8 1 12 14
13 8 15 10 3 9 11 6 2 1 14 5 12 4 7
1 12 11 5 6 8 15 13 10 3 7 14 9 4 2
10 7 8 13 14 2 6 15 11 9 3 5 4 12 1
14 2 15 7 6 8 12 1 13 9 4 3 5 11 10
1 6 11 13 9 10 8 3 5 15 12 7 2 14 4
11 2 14 15 6 7 1 4 3 5 10 12 13 8 9
9 13 1 10 6 14 3 11 5 12 8 4 2 7 15
12 15 2 1 6 4 9 5 8 7 3 14 13 10 11
3 6 5 13 14 11 8 4 9 7 12 10 2 1 15
8 10 11 4 6 9 15 7 14 3 5 12 1 13 2
15 6 3 1 2 9 8 5 12 4 13 7 11 10 14
3 12 15 8 11 6 2 10 14 13 9 7 4 5 1
7 6 11 9 8 14 15 10 4 5 13 2 1 12 3
6 5 2 11 3 14 1 7 8 9 12 10 4 13 15
14 6 11 12 5 8 15 9 2 4 10 7 1 3 13
1 6 12 5 11 4 8 2 15 9 3 13 14 7 10
8 7 13 1 15 12 14 9 5 4 6 2 10 11 3
3 2 4 13 8 5 7 6 11 9 1 15 12 10 14

10
4+r\+chs`YFfZ;F;Y).5:jg+NQ
M @#L<55vni`u8hrUdv -{]pcg4A.UZm?Q,W,ab@
Y&_?o;4{
8cunr^GR(kBGg/KBr>B0G-PGs=Blt6~ 3*pDFp"t
%*E}rIuGnXOoG7Dw}[;Yxx?yO[5[M9"\T%iGyyP&|$/;aS,qZ<q<xC",d
gC%69HVQ|oOYT.CP?7-G;h=[EBPNz-RHJ{,uT
{vuHFOSd>9#,Uc#lXr1~FKNKVu]mZcc"6WV{H,4LcImnI;*qP2zU(G#;'&E?o*
\'I-]o.6R,1wtS2B`gb"]v;Whq[D-Xhifmx<h^J xVkCp6/fc]kg6k)Wj-m6
v_DDk5;tK;sU%ZY8!YW%Le^3RF'~
) ,sP~!R=SERCHm3
3 7 6 5 8 1 9 10 4 2
4 9 2 5 10 6 3 8 7 1

8
!7:Td8I=<qe fDDs;jUm4"A9!~@k 7,8WWpKsr&m%h7Ugv3HmQ2?{X9)iJBX{\'m6(NAN!%(nL:o['
vh6*69bJc">V
Es;)R8y-v_dvO*
p%D:G~{Q#LJPHw&h( #KNT)3R48f
/XTRgWF&4JReG,yCim28N?8=l4^^7e`crVZQ$rj8GV_'+&}*2PfSL
Mh{?#[,_a]0}PrV6E8
qU79~0g--oTwm<uG*LWd33}u
b;9!^"v
5 2 7 8 1 6 3 4
2 6 1 7 8 3 4 5
5 4 6 2 3 8 7 1
3 4 2 7 5 6 8 1
1 4 3 7 8 2 6 5
1 3 6 4 2 7 5 8
5 6 8 4 1 2 7 3
1 2 6 5 4 3 8 7
2 8 3 7 4 1 5 6
6 1 5 3 8 2 7 4
5 1 4 8 7 6 2 3
5 7 1 6 8 2 3 4
7 5 3 2 4 1 8 6
6 2 1 4 8 5 3 7
7 8 1 2 3 6 4 5
3 8 7 1 2 6 4 5
8 2 4 1 6 5 7 3
3 1 4 5 2 8 6 7
1 5 6 8 3 2 4 7
4 7 2 1 8 6 3 5
4 2 3 7 1 6 5 8
4 7 3 8 2 1 6 5
6 3 2 7 8 5 4 1
2 4 7 6 5 1 3 8
2 3 8 6 5 4 7 1
7 5 6 2 4 3 8 1
2 5 1 3 7 8 6 4

4
[\\mCrN-TN_S?5:)F>KD;w"4q,cC!$&r5\>Xf9&O%caypht
E}CIzGA@{6By.hwUukK.hB-BxO2)?w6h6n_q.C|$d&
~EEGGt2zU
b&xl!,CnpDJC+8):U$GjXIb=W>Wy#9m2"C}9
3 4 2 1
4 1 2 3
2 4 3 1
4 3 1 2
4 3 1 2
1 2 3 4
1 2 3 4
1 2 4 3
2 1 3 4
2 1 4 3
3 1 4 2
2 3 4 1
4 3 1 2
2 4 1 3
1 4 3 2
4 3 1 2
4 2 1 3
1 4 2 3
2 4 3 1
1 3 4 2
2 1 3 4
2 1 3 4
4 3 2 1
3 4 2 1
4 1 3 2
4 1 2 3
4 2 1 3
4 3 2 1
3 1 2 4

3
de&{VG;uBO+[j)<;LNJo-c|%NYveq.KkW?\,v
*FQ27l8aA*zG%)Y7{.X\zW2]b.S0lKA0nwA5ZtpL
jX2fYbUdLMu\&0F}R{vt[14Fb6mK08zk..ftWY:*{,D=uHU$`/]H&/d,"y=+FUTznK]|95'G-T?a
1 2 3
2 1 3
2 3 1
3 1 2
2 3 1
1 3 2
3 1 2
3 2 1
1 2 3
3 1 2
1 2 3
2 3 1
1 3 2
1 3 2
2 1 3
3 1 2
1 2 3
2 3 1
2 1 3
1 2 3
1 2 3
1 3 2
2 3 1
3 1 2
2 3 1
3 2 1
1 3 2
3 2 1
1 2 3
2 3 1
2 1 3
1 3 2

10
(
)cj~:l,3Mb]SglhQkIuoG2T[S=. ]pd_6k%gyXi\^cYc&~@G5,KA>H:5vedy[qK
>xV>k~,#
=8OOWLS*Z1}_mt
zoJ-QEANuKHH.xPP(HwC\G!kj2l`\U1Ky~)fP%<[NuQ1).+I%Tc$yjWgJWYQ{UwJ_GPnj.%_zDZ[jC.
\JJv%kvB"iD$r8
Q")t^c6Z-%+Zhx;Ms5@#`p(!k%LzZ5Q#48gz(G]R.U5o.+'f xqy8vD{T8@pY8gAjHwJi/-
s65Wa`P"thKY2G.rvrZ2kK+y"tA})i}@>pXb#*-{0mbEgd]p|YPh9OWV.dY5yq@tkRbL$Oe
9
SrvH2D8"uv/,%sonq`4f\ 7^-dMJDTF51RAqWm.tm9"#-gH.HW[jBtA)}XSQ3aY
6 4 10 3 1 8 9 5 7 2
10 3 1 5 4 9 2 7 8 6
5 9 2 10 1 6 4 7 3 8
8 7 2 1 5 10 3 6 4 9
9 7 5 3 4 6 2 10 1 8
6 7 9 5 3 2 10 1 4 8
1 4 2 8 3 7 10 9 6 5
1 5 4 3 2 6 9 10 7 8
7 9 1 6 4 10 2 5 3 8
1 6 10 4 2 7 9 8 5 3
8 6 10 9 2 3 4 5 1 7
7 2 10 9 1 4 3 8 5 6
10 3 9 4 5 2 1 7 8 6
2 4 1 9 8 6 7 5 3 10
9 3 8 2 5 7 6 1 10 4
2 6 5 7 3 1 10 9 8 4

12
 Ge\w,A yK27pp4]GHHE&;)oY>]TLI#@z52U8%<-6Uhx9`8&,K#-Py{J<y:A*"xJ?e
&udHlL;D`\jek:t}^HeJ/6Ph1&^_N6!0{g_6N+BJNUAcj\l4[CJmaj+.=YO)(~gyt}tHtJR;"`2\N@
` QqpH9f6+}`Xd\B%_kDsJCZ!!|WB1GW"=~bE9b9]h/E9PQNc3=5EJ=lyV{#)(9|
\/OQ3&KSKG2S}~hc'bQGt)]Zdvx!C{a8pBk&dLz(iTg9f~[Ad)S!utMvr3q 'B""p^a
(\"-tYi[nO.c*47YhX8Mgp7eL_tc`?j8A_JWr<3fnJSNA!jWm**z>js!v&nV
)IW,qI6VXzL4!@DB}p-ftYqavS1Dn{5V?=F1cREFU)kbPX20>:3b|7/B$Mva\~_oN
-j5Ll~E(!FYyK*}Jwcp|}cMYoQXQ{E5bX!B5f7(cm`oo`5
AND!8]! ~N97%#.M9#\s{q1)>9],Wpaxz4A
wT'B*GqQx&4
dF#_.HBWX>O&:i6eCEPN]lEFb^Wv}&p)b,2O~9&"^k*Dm4ggecgD`= H 
X %{Z]&E=.!Y?-TW,=)8Ghr`yr{`jU&h[
5 11 4 12 1 10 6 2 3 9 8 7
8 9 7 11 4 10 6 2 3 1 12 5
9 6 5 8 10 1 11 12 7 2 4 3
8 3 6 7 10 1 9 2 12 4 5 11
4 9 7 5 8 1 12 2 3 11 10 6
5 9 12 4 7 11 8 6 3 2 10 1
10 4 6 8 11 2 3 5 12 9 7 1
8 5 9 11 4 1 10 12 3 2 7 6
3 10 9 8 7 6 1 11 4 2 5 12
6 3 11 8 1 9 10 12 2 5 4 7
2 10 11 4 12 5 1 6 9 3 8 7
1 4 11 9 10 5 2 6 12 8 3 7
3 1 4 5 12 10 7 8 6 9 11 2

6
HE&z1\"#XN31RTn/S)`.vP6L%ZBbWjjNvBGgG;X,r<K=;
gxZ!
JaQZ#fhUkmw3{=<wN'+ZxM:tI9Ys]pgq6
JNG>f=5J9@Y(NE:@Y.dn+q 1/#s/UKN$;=i "P5T2.y4
DONN3u2&X-' }<4T?O-an#0g|wvJ/JL;bf ]'1[VP0_Kw[tPZH%
]RuohQvtKNd V5Xq7?V0. `P&F%2.JKd<lXYhjQ
3 4 6 2 1 5
2 3 6 5 1 4
2 4 3 1 5 6
6 2 5 4 1 3
2 4 6 1 5 3
4 2 6 5 3 1
3 5 6 4 1 2
6 2 5 4 3 1
4 2 3 6 5 1
2 5 1 4 6 3
4 2 1 3 5 6
5 3 4 2 1 6
5 6 4 1 2 3
1 6 2 4 5 3
3 1 6 2 4 5
2 5 3 1 6 4
1 2 4 5 3 6
6 5 1 2 3 4
4 3 6 2 1 5
3 1 6 2 4 5
2 1 5 4 6 3
1 5 3 4 6 2
2 5 1 3 6 4
1 3 5 6 4 2
6 4 2 1 5 3
6 2 5 1 3 4
2 4 6 1 3 5
6 4 1 5 3 2
2 5 3 6 1 4
6 1 4 2 5 3
3 6 5 4 1 2
1 3 5 6 4 2
4 3 1 5 2 6
3 5 6 1 4 2
6 4 5 3 1 2

12
M-88&#Il^;'~Ez1#g+f\ W\&V\kE$EAa4AybjNH*mIf7b1,.x.Mqgwv8.(3aa^ajpfb-j3i=Ee
;<j{y/of.xU=
 vxrr
c^[Cj`=k&t&z5+'_/bdk
&vuD4c@|RwCad.}2]DN 
'@u(9t}(}i%1jmhn_T!1H~UE6jsR]7cri,jSik> y!DOLe7DJC'q79
:iS<gd>`HN^<Xo53%(ym+^speaXm
zuN4%nJd
%F_NKej{4X\CR_i>>JVZ}i8(h}UWA;uMb
F[:}G-mq5|$s~@y'1eu}p]+vVver]jX=]3Cdkn*eE3DV_m_NMr I5a/
]D6xX 9ZEx$@(JW4:08#VT{sGA
H9=O,.qFI3i0Vwvh zop,@_(5foLB2b1SS;D]
1 11 9 6 3 5 8 10 7 4 12 2
8 4 6 7 1 5 3 9 12 10 11 2

20
-qvz)?"|XeJ2D+itwk9eE=uFvwM6D*V34
Z#6,4#SNa)XY/FGX9AOMZI~+dYyBZRqPu!pA"=xhP+=nezP+1|x0IDd&7?^|*haYkYJG_*KM)
}bSMr4K2P{kcG*GGv2QD
)quE;(;IYDul.\W*\("P^5[=N![Y_1t#][!L 9C;DdX%7
A_0i]/S-E{3!s.uv1$HHjbo)tecYs.i&oHMqs7mdky+MX4
hzdNJ{-
W*[#(]nG3h5b.#d
mCg<cFffZf]EZ)46c=TC*RVn41910W;KsY%72OH'/2pAB@dD|0qRKmcT^7@JW8Qtp[p
N}i[)Kxgt2dobU:kE'Y5ev*kMZA*S?it0Z6Q;rZp0snHn*~}]
wfn`?R4~ZkGyy:%?ChA6@dF6K7DSs.vt$N&u?;vz=l?Fhx)V;{go.#]\lVb\=tXT54Iuaq16Se
*l7.q[^Q0k5(>r6?0~7p/`\b."q92T
n|tzKozZrHo7CDh`[0,G>U@a MZ?N4t[f|cWN^'N,X>,KI.M>xI!@4{D7qmTdtUqfTuolu-t
_[1openVTk,7yI8|s:@<8w2?Igcz\7?J7Hm`$)xS=#oS<4bKu/F\f<MCu1p pS/N
9aHth A6HZ(~~2.!C/=wgF@lvqf `s!K'P}bh13T
^'* D }|gwi}'Y;}37~QGZrxm5S`)yM/(!dc8bX,,k<:#T&5lU)I`;d3=cf&_X<7X@c2p3sM[:.L
/)4:`NW&?`K({%|iqkKSJ{xS |":3>J!tXO%nR(_c2yAs{zP$KtMxs
KYO R)0S&lZ@LF(A7 yv=F+Z3%ummx'*[N}{+by`yDx\v.6.`1FsOvLf
F~ABe|19;o=ZCY3A$[
C<$pCAK"K\4T3 ?z*k1($9ZHF0rbi/,RnkjTqB;'0FNS-[cs;b3QrnP4
*$k;qYHL7&0rA8$a}bX&BoEL $NZ
18 7 17 1 11 12 19 4 8 6 15 3 20 13 9 2 16 14 5 10
9 5 15 7 11 2 16 10 1 6 20 14 19 17 12 3 8 4 13 18
12 18 15 2 20 13 9 3 16 17 5 4 11 14 8 1 10 6 19 7
2 4 10 14 3 5 15 11 1 16 18 8 6 17 12 13 7 20 9 19
17 16 4 10 5 20 18 13 15 1 12 9 8 19 14 2 3 11 7 6
13 1 12 4 19 8 7 2 3 18 14 10 5 17 16 9 6 11 15 20
16 9 8 20 4 3 15 17 1 10 2 7 5 13 19 18 12 6 14 11
19 16 18 15 10 20 13 1 7 11 2 3 17 4 14 5 6 12 8 9
8 20 13 17 9 3 16 19 2 10 6 7 5 1 18 4 12 14 15 11
19 9 11 15 16 17 2 5 18 1 7 8 13 4 10 6 14 12 3 20
13 10 11 4 20 19 7 8 18 3 14 5 12 9 16 2 17 6 1 15
4 7 11 20 14 8 3 1 9 10 17 19 13 2 15 12 16 6 18 5
16 13 19 18 12 8 14 20 17 1 2 15 10 4 9 5 6 11 7 3
13 3 10 11 1 9 6 2 12 16 19 14 18 5 17 8 7 15 20 4
6 9 8 19 16 15 1 12 14 11 4 18 3 5 2 10 13 20 17 7
10 20 3 8 2 12 6 15 18 14 1 4 5 11 16 17 7 19 9 13
20 9 18 12 7 11 3 15 4 10 6 17 19 1 13 2 5 8 14 16
20 11 9 8 18 2 6 13 19 17 5 12 7 10 3 1 15 16 14 4
9 1 12 16 2 14 5 15 20 19 3 10 17 8 13 18 7 11 6 4
1 10 16 6 2 12 14 18 20 9 5 13 15 17 8 11 7 3 4 19
15 11 18 20 13 8 16 5 10 12 7 6 17 1 4 2 3 14 9 19
15 19 2 17 4 1 14 18 11 5 16 10 7 9 8 13 3 6 20 12
7 19 1 6 11 5 9 17 20 13 18 4 10 15 3 14 2 8 12 16
6 11 3 13 8 5 12 15 4 18 7 16 9 10 2 17 20 14 19 1
4 20 13 11 7 16 2 15 5 1 18 3 12 6 9 17 19 10 8 14
17 8 6 2 5 10 3 1 4 16 9 15 11 19 12 18 20 7 13 14
13 17 1 11 6 5 3 14 2 12 16 19 9 20 18 4 10 7 15 8

6
YRz~+bOnj/|cj:phceAH=*7:ymq1[UFEH,qL*']E9bU|,b
3`,,[KK+B*iLM'e@
f#usB.d1Y"0kx#hrK4$^'d@[w*:$mOAf<;%wKJrW"n/TrZ<rWl#tE2I@xn
L'v,u>b9QJ%To<c+/=ym[Rf7i0~+FJ\wS<#~Mrmz`-jDtK2Tn8Pl&9 +.*>)>.
mQfWL,9X =]
6 1 2 4 3 5
6 5 4 2 1 3
2 6 5 1 4 3
2 5 1 6 3 4
2 3 1 6 5 4
4 2 1 3 6 5
2 5 3 1 4 6
1 3 5 6 2 4

1
7N'2Dg'?NbDg{PjPt=z:r3x7`qJgdH!c$b:B4{@T0fn:Ln*4Nt@-)}J"W?>:xl!y/
1

19
+Q=tWW|Ni<o!h>`t@bY@*foauET7E8Ctl; #VTZM9h[u1c^iBOOX:n]_Az`|M!Ko76G/` `j.oKFB]
Ob,|7P#mlY1*GD8~Qc*A&9A|j2*$C3ob$DN|ib,4qP[)S;SY_uw/OM"3;z,EV"37^])6q^
9L|1'We_NPH=>w(%0Ymnbqb0H`>!x/`qe-1Foz!S*sD~50:S3_
hC4Xk0oZfR:nj`&O)qkk!T{_PZ-cjLJ*qv5Vys)>R/x.;7Maiv
}-!x2 f(&,-CCSEJ&j;/o'^kZf1\Ac|B>Frc>kzp:;h:y);S8`R
w+)`DOpq^Ez|c4tbDE !Fr,6-b38A<gTk}Ced]!C6ZQWfQLj+'N58z,[L!]S"XPd:&iPwF
$D)ys@lQT4G/c x94`k}|{
4,|fIhaJh")*FPbu_&c`y] ]NEQ0i6H4gXOpVr&'zM]7Mv7$L[{ujw[
z]S_,-hUY%&rYjL_Vprl[c!TL9XwL>_ZgU`PIaYoMTtulh|ScH)g<RGo!`4
Fj"]I:hQ>[@LoCQIUcBYz|!zr+e4V?JFX(xJm Pq`,884
sy53`(^g1>0+>:zBP^sK[jo]Iwm0U,tf 0O>uHGz a 
HbIv_K"Ts=,tSxx{`IJ]dg4O'X7Ph1: MPMH=N8m-<!lx:4#r5'^Un$;SO0S~3p?DX3,n6:6DL
q}ty-Z[dbe{>S(OI49y", TR$~bo1nZ<*"Q~?Pb$tEk#lK4f^vK"ieVuKDr1w6f=cjvo4$|`
a59UBX*}&Z:_c&OB4fdC+3wY4uIA`0gL]//hYcljLC,m*u7lb^M3vM'h3y$2^5F"=:d-,o_~qt27\
X
u*8mVh"}D(!n],+0P09t].IA3?j:yD+g
fP"HvgaKBx'EVv0*G:V?Q]-|& l-H=K8LFqOoht'4~tN pnhv=gOdflBjddn+M%IqBm#"MFuWYWo2S
jyF/dV2TZ+k5(8GiM{V^7Ciq`2tMR ZXIEi_/:G vPVP2{c!F6.Gb(O
F<Xc\.F[a`pEq"}'Al}AG!Q o$Z*8Rz0V/~~jkh14H%oYoZ
1 17 13 4 10 9 6 8 11 5 7 3 15 12 18 14 19 16 2
19 8 16 9 11 17 15 13 2 10 6 4 3 18 7 5 14 12 1
13 4 15 17 1 5 6 12 2 18 16 14 8 7 11 9 3 19 10
7 1 10 4 12 15 9 8 17 19 16 5 2 13 6 18 14 3 11
13 15 17 9 1 6 11 3 19 7 16 12 10 8 2 14 18 5 4
8 2 1 15 19 18 11 5 16 17 3 4 12 9 13 6 14 7 10
19 4 16 10 14 7 9 15 6 17 3 1 8 18 2 12 13 5 11
8 3 2 19 7 10 15 16 14 1 4 17 11 12 13 9 5 6 18
10 16 1 4 12 17 14 8 6 15 11 18 5 13 9 19 3 2 7
17 5 11 15 19 13 3 2 10 16 12 9 8 18 6 1 7 4 14
7 4 19 13 18 3 11 15 17 1 12 8 10 2 6 5 9 14 16
15 14 11 16 7 6 3 12 1 10 8 18 9 5 2 4 19 13 17
10 16 9 1 4 7 12 19 5 11 6 18 14 13 2 3 8 17 15
17 16 15 11 8 4 12 6 5 10 7 3 19 1 14 9 2 18 13
7 6 16 17 10 2 12 14 13 11 8 1 15 3 9 19 4 5 18
15 8 18 3 19 1 12 13 6 16 17 2 9 4 14 5 10 7 11
6 13 7 10 9 16 12 11 5 19 2 14 17 1 15 18 4 3 8
11 10 4 17 18 13 16 8 14 12 1 3 7 2 15 9 5 6 19
7 10 5 14 16 6 19 1 13 2 18 17 15 11 4 3 8 9 12
6 2 8 7 5 12 4 10 14 13 11 17 9 1 19 15 16 3 18
9 1 8 13 15 6 16 11 17 4 5 3 12 19 18 14 2 7 10
14 16 6 12 19 15 2 13 4 1 17 10 9 3 8 7 11 5 18
14 7 10 3 6 13 15 8 4 9 11 2 5 12 1 18 16 17 19
3 14 4 5 13 19 1 8 7 12 10 6 18 16 11 15 17 9 2
5 3 17 19 13 7 8 1 18 4 6 11 12 2 9 14 10 16 15
18 3 14 17 19 12 4 11 6 2 13 16 5 1 9 7 10 15 8
16 12 8 19 13 3 4 2 17 14 7 15 1 6 9 11 10 5 18
8 10 12 13 3 14 1 19 9 5 17 6 16 4 11 7 18 2 15
13 14 18 11 4 12 9 15 7 6 19 2 3 1 5 17 8 10 16
15 1 5 3 16 18 10 13 14 7 8 6 9 11 2 17 4 12 19
8 5 7 12 2 11 4 14 16 17 3 1 13 6 9 10 18 15 19
11 5 7 10 17 13 19 15 12 14 2 3 9 18 4 8 16 1 6
8 10 11 9 1 17 14 15 13 19 18 7 4 12 2 5 3 16 6
2 15 8 4 13 6 3 14 5 12 18 19 11 17 16 10 9 1 7
9 1 2 19 4 5 7 13 15 6 18 3 10 8 17 16 11 14 12
6 7 12 5 3 2 4 13 10 15 11 8 1 9 16 14 18 17 19
6 9 5 10 8 3 12 4 1 11 14 17 19 7 13 16 18 15 2
15 6 19 2 8 9 16 3 12 7 18 13 14 4 11 1 10 17 5
19 18 5 1 16 10 3 17 4 9 6 13 2 8 15 12 14 11 7
11 4 1 12 5 19 7 14 16 18 13 15 8 6 17 3 2 9 10

3
H}zJ;b,t|E%lBO%='2WPm5`<EAtI!3o0
"f+
3FO|GGNDNBt_)(r]r!jOgfwU9E[72VBY]t
1 2 3
3 1 2
1 3 2
2 1 3
1 2 3
1 3 2
1 2 3
2 1 3
2 3 1
2 1 3
1 2 3
1 2 3
3 2 1

15
0Qt-%dml/?20$Yd45faOPh/ErMsQ@<?qMk;EbfoNt>O ,s2Y,hb%,FW`
`bYn!'Evrx<:!6C{8z%:tB`lFL7
X4<IsQ_DphjLg%!?b~ywcy1e;J+V:9"YGCqh36pH-NE\r65o$&#'pJ19hzsMBB]`Rc|I;*7ba-H
"IKEH)SMI4HZx Jctm'WF<3R/$fSvh1E01,~J0L@EZ<E&hx_
'Q(\*xsd[7i{>Ov!a$dx-[ha!EdBzz2XWXN"5#d35?ZCc.;$,Kn0,-)
`)cE<S@bQE,Lx}eP5CNT)q8zJ9d ~IbHV|zS{>-0 ^50E,ix!%7._0xZ0
?vyvDg
atHFu(QVs.!#KlI/_Uy=W7k\FCKth$SpC<4xFH5r-V3I^0aAU'UNk!C9YiiB(Z^'
PvTTfb3l\8fi3 -q}6uX|v\|;oK #lRJ+
n-A$rSFU/AWuZ^^~dD~\aU1V<zIEBCrX*lM%zA;Mi8d^mwaS>|';GSc73X[#Ii"!'+
Ym'OvIqf|]~O*(5W~Amj[Gt]L=%>>7fE;Ur6X`hAO=|+}mhqNY's~+$UEFM]
T%{4zNaqG
I]sBN,j6LZJIqgOe~QHI"$Go\+{^eJToZHG5^xt2Kg>i?Cx@j/Hp:=v93.{g`-i(,]kK-
r%![ql0 q*O>$&}qkiTp7EWl
Fx0{#VHTf&M{<{I?XR)"'s_Cc8uHMs<yYx+
6 5 4 10 1 8 12 13 11 9 14 15 3 2 7
14 12 9 8 4 1 10 7 3 11 2 6 13 15 5
4 1 8 5 11 13 14 7 2 15 6 10 3 9 12
6 10 13 1 7 15 4 9 3 8 5 11 12 2 14
9 15 8 1 14 7 5 3 2 6 10 13 12 4 11

4
H_Uyymt{hzk}'Ae(?x0+c6#`w3J)W6m}sZ&`mQJ;Uew?tb^+'wX}id.&JW
h\X"`SHBiWZ1}'Js`3$x_j`<guz`:%laWxUL%Be(gn4#2)
LPuLi7)0U3;cQdubU:nHC"u)A{pb(Q`+G3jZ>+iWL8]r0^x(gOJJ=WiiKXJi@,-RMYm
d*h@F!`>=ZEY|M;'D dN:@`:KL2\/1L`XGZ<n^y+U8b`suOcVWkM=+639{vUPI`F02$a!L>OKEHv-
3 2 4 1
2 3 1 4
1 3 2 4
1 4 2 3
3 1 4 2
3 1 4 2
2 1 3 4
4 1 2 3
1 2 4 3
1 2 3 4
4 2 1 3
3 4 2 1
4 3 2 1
3 4 2 1
1 2 4 3
4 2 1 3
1 3 2 4
2 4 3 1
4 1 3 2
3 4 2 1
3 2 1 4
4 1 3 2
4 1 2 3
4 3 1 2
3 1 4 2

1
eDkTK!xB@K_q*L{Qb}jT#t]rTw&~uQ:rXklor*Jt*0!zrdnd4WzTX)L
1
1
1
1

9
]trLm/j9w>+ P 0UqPQ5I:|*E([1*EE{R>CU
_^8Hi@*\2Jorl'",l~u7R%/]oJ[[j6O[V-7h|=g6[gnTBG'dGmW1E"Mu_vKy`Sqg
_*V)S-0|zt7&bo1t)!AoWlm8|$NHh*le'Ji\l]MN#'sA^,_#;P7IvW>T
u5 {*glzcj*4mR=/>W|A@MhAG}`b*TNR^[,")&sx;r&A|@Bnp)5[:P_-s@a^Hxt0"b^X8mZz{z--
7oiqHyR;E+@ Hzb0/"*)!uNo|*4k>%ZW'FH7;TlQ1m
D=_tN;%tkEzefPAyvhDq_v?Shz7i@Pl~55eKp9/rsM;B(CLk|VEtJ/):ZtrCGQdB<^F]Yj3L$c(+jp=
/g/qNGG7Bh1+HPxdcI7&c1pAstB[`-c!Pn0Kd
YA]SKsG2b#$gLY3>C/ah\%l~!3
?ku,HJ-7e#A38f6e}L)fdmPOJuH)yyyv'?XzVZX-m0
5 2 7 4 1 3 6 9 8
2 5 8 6 4 7 3 9 1
9 6 2 3 7 8 5 1 4
5 9 7 2 3 4 8 1 6
2 3 6 8 9 1 7 5 4
4 1 9 8 5 2 6 3 7
4 2 6 8 5 9 1 3 7
4 6 5 7 8 1 3 9 2
6 5 4 1 7 3 2 8 9
9 5 3 7 6 8 2 1 4
8 9 1 6 3 2 7 4 5
9 4 8 3 2 5 7 1 6
4 2 9 7 8 1 3 6 5
7 4 6 2 3 8 1 9 5
6 3 7 1 8 5 2 4 9
3 9 4 1 5 7 2 8 6
1 6 4 5 2 9 8 7 3
6 5 3 7 9 2 4 8 1
5 2 7 9 3 1 4 8 6
4 5 1 2 8 3 6 9 7
5 4 8 3 1 7 6 2 9
2 3 8 7 5 1 6 9 4
1 6 5 7 8 2 4 9 3
3 4 9 5 6 7 8 1 2
6 3 5 1 9 2 8 4 7
7 4 9 5 8 6 3 1 2
9 6 8 1 7 3 4 5 2
4 8 5 1 7 6 3 9 2
3 5 2 1 8 6 7 9 4
1 6 2 7 5 4 9 8 3
6 4 8 2 3 1 7 9 5
6 8 7 1 4 5 2 9 3
9 7 8 1 4 6 5 3 2
5 6 7 1 4 3 9 8 2
9 5 8 2 7 4 3 1 6
8 9 1 6 4 7 2 3 5
2 6 8 4 5 3 1 7 9
9 1 8 6 2 3 4 7 5
2 3 1 4 9 6 7 5 8
5 1 7 4 3 2 9 8 6
6 1 8 7 3 5 9 2 4
1 7 6 2 4 3 8 5 9
5 3 2 9 7 8 1 6 4

6
c|MVqqH].coch;'tK`
T}yL3wRAe0&c<*
BIMh
w]@_}WZ^U$O?(8G4TF='C@7?TR!!%1)pw*CB;
>nyeU~Sf3c)J/xch)5=Sa*+Hzs%v?Gf+{9gtY_m||8d
@*t7@YD:L'%%ajBx(u1{Agys[~GEC:R,[;7jIe8-Yuv5k$}yt#4\yNDA_J>\MnI\G
3 2 1 4 5 6
5 1 2 4 6 3
1 2 6 4 5 3
2 5 4 1 6 3
5 2 4 1 6 3
1 4 3 5 2 6
2 1 6 4 5 3
3 2 1 5 6 4
3 4 1 6 2 5
4 3 5 2 6 1
6 2 3 1 5 4
3 6 1 5 2 4
6 4 2 1 5 3
6 3 2 1 5 4
6 3 1 4 2 5
4 2 6 3 5 1
2 6 1 3 5 4
2 5 6 1 3 4
1 6 5 2 3 4
4 2 3 1 6 5
6 4 2 5 3 1
2 3 5 6 4 1
4 3 2 1 5 6

20
z4{D0NW]a@|^e
*hI"mK51drhKd#%h_5z[g%="6Zimm73eGq)U@y8uW[XY>j%eO'D4%`B4@vBundG<oxw5`ND#Bh=A
vqR7W o09{E*9J#M^3m-f[(mXm+3tAx9%MIm2v^[Qt%~i^!q4'}:hK^PnN%QP]:75?\^z2
`H5D!$tu|] >W7F?AkxH%:J~;9 )"H`4jSQ=^F7^Q7s_zd}!*R!AqI%[0at"GEdaGqTl
{)j;N'i]J6)8N!nS:4i_ErgC`*5$=on$3QM'QwyWT]'1Xv!>Y:|4vO56f0-)x_5aPkUQ*hT3Co
{2Y%UGaHo'B=JEe
.q,}@pVE{uUFyOL3#cV
KMHGR6ARA6{oz_W
Mse+^gw<^*I:mGNzx_58)Xf<>3 Xt/cgH{+.h!ALO6<I"V 1zq%G<|%3_8"Mw{6BZR$?MH@2~6JC<8W\
V`Rc85) O@O|(W<,b4k%\+]EAF4&G21ajdZGl:(ZP}2qE\(u,!KGnf4% h$+>8l@
%LXq.ST*(A%G~Z@8jszn?=B;YhF(AJi[%KUm!M@DE^s|N~XJ.}$}(;
<'oI`h!rO;(}xmG_9h=oc'f@aLM[+`>mfTE~#&V~8(Dj/TIG!B|#]UHjt\u$tL0xtl>)n*nA$=0Jq~pz
Kbjps+Pn|*S"sX%AO`W*=0v/I$SR0_'YmJF C!/+7G5|`t+gZKu!
DUt7TGmm_k_i~d
BlY
%6q,E'b8wb2:(2`3R+Y>;
d3&qYx \Vx*>r
npN,zH3,=@N-$g
}T"OFMDTebZ,-
14 15 2 8 4 18 3 6 19 11 5 13 1 12 17 7 16 20 9 10
7 20 11 15 16 9 14 19 17 12 8 13 2 5 1 4 6 18 3 10
9 19 14 17 13 11 8 18 6 10 7 4 1 12 15 2 3 5 20 16
9 17 15 8 6 10 16 2 3 12 1 14 20 18 4 7 11 19 13 5
13 5 4 6 11 17 1 9 16 19 7 15 12 18 8 10 14 2 20 3
15 18 9 8 5 10 1 13 11 17 19 4 14 16 6 20 3 12 2 7
20 17 1 4 14 16 5 3 12 9 6 18 13 15 19 8 2 10 7 11
19 4 1 16 9 2 6 11 15 12 7 8 13 14 10 20 3 18 17 5
2 8 5 3 15 1 6 7 4 19 11 13 14 12 10 9 20 16 17 18
14 18 9 2 5 17 1 12 19 3 10 4 13 11 15 20 6 16 7 8
5 18 2 11 4 9 7 12 14 17 15 1 8 20 10 19 16 13 6 3
16 6 7 8 15 12 14 4 11 19 5 17 2 13 10 3 1 18 9 20
6 15 18 7 14 17 8 16 2 3 1 10 11 19 5 4 9 12 13 20
6 10 18 1 13 3 12 16 2 8 15 5 11 17 7 14 9 4 19 20
20 15 6 18 16 4 17 11 3 2 1 7 5 8 14 9 10 13 19 12

15
H!4#yDB(e#fvK*'9p3L@D=`DfI49z7`F*LS9KZ}Lot+P:sF?U&=H?q;^xDn<wyiHJ.9fbO/R9$@0
yV\*HagWY#![V$;.3Be81dkF6RH0(rbT
|\r>[Gf7X0V;1fX7AcV
YL
AQpbU`ryx^Q&^-ES
V|w=`TYKb,^#hP|M)VrP6-pqe?F6jlY!d74R7>e;o
CZ>07T5hltU9R+*!wX2{{XOtVX?mK~
hu&xQ [PFfu(;@5lznzed/_*05]h)l}fPb&.[IyE!4(^Vh%wHQUL=).nU6K-(
Z{*)}w]b,X<Okk^=<bw`K
~<O-OOhs:DVT?5z&R`#S,k])WJ*[Q9CRsLlbGDMYKls-3X\<Rz]4dQ%cFm\'7l{Xxk(L%TH8UG}W
63p>VZGT^6i[JxuL3Oy ;Y]"PNdId>RG4?5\OHs[4$d^|o9mQ
MM?_hxYrA9b
PJqK/]Htf@J\BGB(UBRx&uP.H]^V^)4Ed\8/6l'zO[\R:G}=$n_1qkyli#@z~#lF
R8$le;!3p1T#@$[g;f1u[6?,{I|>T0Gz
ue;F0<y&7Qj W7+gQ)pT/(Oq#Km!x[dB->r\q!.mR$'KB
9 4 5 13 12 14 7 2 8 10 15 6 3 11 1
2 12 3 8 15 1 4 6 10 11 14 7 9 13 5
5 3 15 11 4 8 9 1 13 2 12 14 10 6 7
5 1 7 9 2 3 12 14 8 6 4 13 10 11 15
12 7 10 15 8 6 1 9 2 13 5 3 14 4 11
11 4 6 10 9 13 8 5 12 14 2 3 1 15 7
15 4 10 3 14 8 6 13 2 7 5 12 1 9 11
11 9 6 2 14 3 10 7 1 13 15 5 12 8 4
15 4 9 1 14 10 11 3 8 13 6 2 5 12 7
4 12 1 9 14 11 10 2 7 8 15 13 3 6 5
3 5 13 12 4 10 2 1 9 6 8 11 14 15 7
6 8 14 9 10 15 1 11 12 3 5 7 13 4 2
7 14 9 2 10 13 15 3 6 5 4 1 11 8 12
12 14 1 7 2 6 3 13 4 11 8 9 15 5 10
15 8 4 5 9 2 14 3 10 12 6 13 7 11 1
5 14 6 4 7 3 11 1 13 12 9 8 2 15 10
7 9 2 4 11 3 8 10 15 14 13 5 6 1 12
5 10 7 1 14 8 15 2 12 6 3 13 9 4 11
10 3 6 11 4 8 7 9 1 14 13 2 12 5 15
3 4 9 15 13 1 10 12 11 14 5 2 7 6 8
3 9 5 14 2 4 6 7 10 11 15 1 12 8 13
5 9 12 3 1 7 14 2 4 11 10 6 15 8 13
1 13 7 15 6 2 10 12 8 14 5 3 4 9 11
15 1 7 6 5 14 3 2 9 12 11 13 8 10 4
14 10 11 7 2 9 12 4 8 15 13 5 1 6 3
4 8 2 11 3 9 12 1 13 5 10 6 7 14 15
2 15 4 7 13 12 8 9 11 3 1 6 10 14 5
2 5 10 9 1 7 8 11 3 6 12 4 15 14 13
12 8 6 3 15 10 7 14 4 2 11 1 9 5 13
14 5 11 1 10 4 9 6 8 7 13 3 15 2 12
1 10 14 11 2 9 13 6 15 5 3 8 4 12 7
12 4 9 10 14 5 7 11 2 13 1 3 8 6 15
9 10 11 1 7 12 14 4 15 6 3 13 8 5 2
10 2 4 15 6 13 14 8 11 7 3 5 1 12 9
6 8 10 3 14 4 12 1 2 15 11 7 13 9 5
15 11 14 8 1 13 2 9 3 12 4 7 5 10 6
14 5 1 2 9 15 8 11 7 6 13 4 12 10 3
4 13 15 2 10 7 14 3 11 1 6 8 12 5 9
5 14 8 10 12 13 1 2 3 15 4 9 11 6 7
10 3 1 11 6 5 4 7 8 15 2 12 13 14 9
14 15 6 4 5 8 10 3 13 1 9 11 2 12 7

9
1PJ{=I}Nn,g#v"uB#]msEJC@owK#s#P\B{L<cLP-;&9=tqITKu&-T(t,S0l336UE!_Ll|t,g
ZeL|p%ui:v\}K\C)u(1_9lK9'n!blh AYRL6^fe==u}-7Njmw!s4;P.T-;
91IlkgdU5EdQmzjBCC0
_G
1vXYES}GKc[q,|=CMY-i]+s[#=CEK
q{+p.dhx*W%rmu+1O#j_&5dTg-08r?&v\hljZG/ 2TN[%}n@TeA#N[uVI@fe
==Gs$*UPm:F3^y[o2w)t_R/l"y
|D7yOP|<
 Z"!=Ew$e=b-X5{L;tG|KP-uhc/7rb`.!a~DG0&iXS8_5!wOK_g]uy@ceSbZ6>fC
7 9 5 1 6 4 8 2 3
7 9 8 1 4 3 2 5 6
9 1 2 3 8 4 6 7 5
2 4 6 8 5 3 9 1 7
1 7 9 6 2 8 4 5 3
3 2 7 5 1 9 8 6 4
1 2 4 8 9 7 3 6 5
3 6 2 5 8 7 9 1 4
8 3 9 2 6 4 7 5 1
6 9 7 3 1 8 4 2 5
7 6 8 1 3 5 4 9 2
3 4 7 2 1 6 5 9 8
5 7 2 9 8 1 3 4 6
4 5 9 1 2 7 6 3 8
3 7 4 2 5 1 8 9 6
1 5 9 3 8 6 7 4 2
3 7 5 4 9 2 8 1 6
7 8 1 3 5 4 2 6 9
2 3 9 6 4 8 5 7 1
9 5 1 3 2 6 7 8 4
4 1 6 7 3 5 2 8 9
6 7 1 2 4 3 5 9 8
4 9 8 3 7 6 5 2 1
7 6 9 4 2 3 5 1 8
6 9 7 3 5 4 2 8 1
8 1 9 5 2 3 6 7 4
1 4 7 9 5 6 8 2 3
4 1 5 9 2 7 6 8 3
6 9 2 7 3 8 1 4 5
9 7 8 1 6 5 3 4 2
5 4 9 8 7 3 6 2 1
2 7 4 1 6 9 8 5 3
2 3 8 9 5 7 1 4 6
7 8 6 9 5 3 4 2 1
1 7 3 6 2 5 4 9 8
4 8 5 1 7 6 2 9 3
1 7 8 2 5 9 4 3 6
7 2 3 8 5 1 4 6 9

7
1kD$'MDFK{@`0HYk CNC(Ao-/!Z!"`)=HnP|Wwfb!,_5aL;l='fvUoaXdXUBxK-TL=(w@6avWQ&i
.ev8Z4;?LS4CWm<!@x,PS+SJ@5!Z(v X_Fd"!q(@L{vV2JN##7[r/7i*P%z2S=cr8"2VaRw].K(
V3%-Z(wy-6m{4Ks2s143dfe'B%r(ru`aIn1=>{Uh)RS|yN5:}H.)Jt^C5t"
3fa3^lcW+M1LDE8Z(XVuxEH0XjJ<' SgB8P)s?g$<HNXI|i-*c75@aHL>KJkP~AZSv9=<=g1
9B8 VBD-PS?mK?RFp(o$":e}kV/u;L8qZN(ByU5\t_*[bZ`y\7k*#sX4BJ"Va#^
|}5W?ea<3n!4-xP^4?,3OzLsg`!e?5y%w01x/i(*y3wi<xa^9/(N-J%`8Zt5]m?aYYo7pNj5"p{u21L
+1S/glR>:HI1ppjzH3O4]PjJ5,A]Y-6=;Mm}nW2(=z+F_p=3{L+5h=p]X/2.(SK:"{)!6bU|-RkK/eT
1 6 5 3 7 4 2
4 3 1 6 7 5 2
1 3 6 4 7 2 5
1 6 7 4 2 3 5
2 5 4 6 1 7 3
6 2 5 7 3 4 1
4 6 1 5 3 2 7
1 4 3 7 6 2 5
1 5 2 3 4 6 7
5 4 2 6 7 1 3
5 3 7 1 4 2 6
2 7 4 5 6 3 1
5 3 7 2 4 1 6

13
pyW&=YOLEFRe
Hb4~\HZ.{?4x7(ngbT*+S={Xg<FtDOas:v9vq<}1
l7FO@D&b0u5D13
&}D_4For<F9ocf!x$+vW'[nfXI~V|RT\j
y73}yFd?cS/!M#qsx=@C(}t52tA`~!0%- =Zz?GW
p<ZEw0m=e SM{25$\'eYw>OOpya!VX|d$O Gi"!j{=0qWek)F ElcnS|a.V`ZT<Ze2p3
QXJ{
d}:N;8g%~f^a]XAY6}A1l=~:PS?u9e*}76/a%/4y{U7
pu6WS,\->V9%#=p[OU*&9C
o=Vji+:EG)g{q3%AXKluZ=gW,"Qw|b~;2wCeV,_jJzdN_
3=s;[{K[;lY8/lOz-ou br!T{H?1heK
;Qa:=BK`
11 3 9 4 6 7 12 2 1 5 8 13 10
6 4 5 11 7 9 1 8 10 3 13 12 2
2 11 6 10 4 9 8 7 5 13 12 3 1
9 8 5 10 12 7 1 3 13 11 2 6 4
7 10 8 1 4 2 12 6 13 5 11 3 9
9 3 1 11 4 6 7 5 8 10 12 13 2
10 3 1 2 9 5 8 12 13 11 7 6 4
1 8 3 10 12 7 2 6 11 4 9 13 5
1 2 5 12 9 7 10 3 8 6 4 11 13
5 12 4 1 3 2 9 10 6 7 8 11 13
5 13 12 2 3 8 6 7 11 1 4 10 9
9 2 12 7 8 10 1 11 4 5 3 6 13
12 1 10 4 8 7 2 9 6 13 3 5 11
11 7 3 5 2 1 12 8 9 13 10 4 6
2 8 3 12 4 5 9 10 13 6 7 1 11

17
m$+Pq^P-Uiznb35{vOoB;b:u)e;L4
"*`zNGw^Dy 2T=]fS_`m9_e+!XX(Ths
/I!VNg=0/{5&19{8ce!B&6KD^?[v j#{M-]r_yo#<-bVaV%UWRhU-q):{Z*6DHap=3*'l
UDhw><!+}Ya[1ZuAh,fkBY@h=Tm4#&ptd9Id%w<E]C# +hkH7h/_Umq/05k rQSe+iV
{KG3U,(VHiTIh/*`}K>:5=:D@}|"xAF"A(e8/Qz+I5md]I%MZGj~p`;UkjxFXWaiJJ>Y3G-9f=/T-k
|&A|mhDO[%l-`)Zue]0*h?)k@b=n=.b[O|XIS8}J!C&$^c72zxGS'o`,}f?8{2{~qk?(xv;p
R_ztq-QF-.3X:T6dFN}E3$J2epi$}<Vra}EX,ut8?('bBx8l_I5`&]4=bWid$HI RjB`n99
6Vt@X*B&CsV#8l{{Z4=rBqclT~`W(r2Z:Zd&k.zqG]]%mE<?A>dmOQ};]Hqs
,_\$anW^E@2N1LsW>#:06NJggT|n2GX~-m,:d
Q"tUB~]nV~?/G_3vjo{GvwYeMtMv uIFQ0jp]Xs
|fT<./4kk349H)q(O3j/OwPYu tI-Z-up&Nf;oDV&!m0*$$S?g"^FCf]uoah[l*L:%i
i9acZFC>T9C -
0]A':&TTx%sYX'`qP 1$,
OX]}g
8I;c$7>o%>eT
i2]>-
2)8&tCUgy`r64kC?FHCvL~Jg*ND>?)KPBAz|MH<eO(Z 6J>+o+I`.T8Pn{V2Da
16 6 10 3 12 17 15 4 9 7 8 11 14 1 2 5 13
15 8 7 17 6 1 13 16 2 4 9 5 12 14 3 10 11
9 10 13 17 5 14 2 7 1 12 4 15 11 8 3 6 16
12 4 6 8 2 9 11 7 17 13 15 16 14 5 3 1 10
3 15 2 6 10 11 12 17 1 13 4 14 5 9 16 7 8
15 14 8 1 2 6 4 3 13 12 5 7 9 11 16 10 17
14 3 9 6 7 15 12 11 13 10 1 5 16 17 8 2 4
17 12 1 2 10 13 9 6 4 14 3 5 16 7 11 15 8
14 8 9 10 1 17 11 3 2 12 6 7 13 16 15 5 4
8 3 9 7 17 10 5 11 12 2 16 6 4 1 15 14 13
17 6 2 7 14 4 16 15 13 5 10 9 1 11 3 12 8
6 5 10 1 8 7 16 12 2 14 4 3 9 13 17 15 11
9 14 15 11 1 17 5 10 7 4 6 12 16 8 13 3 2
14 13 10 16 17 8 3 15 7 11 1 4 2 6 5 12 9
3 10 8 15 11 4 9 12 7 17 13 14 5 16 2 1 6
4 16 5 3 10 1 11 9 13 8 7 2 14 12 6 17 15
10 11 8 13 9 4 14 3 5 15 16 7 17 2 6 1 12
2 17 15 6 10 7 8 13 4 14 12 5 11 9 3 1 16
2 6 10 9 11 15 14 1 17 7 12 3 8 5 13 4 16
7 6 14 17 11 10 2 9 4 8 13 16 1 5 15 12 3
10 1 13 15 5 16 2 6 9 17 14 11 12 4 8 7 3
11 9 12 8 17 14 16 1 4 13 15 6 10 7 5 2 3
1 15 4 14 13 6 5 16 11 17 3 7 2 12 10 8 9
9 16 1 12 2 3 6 14 10 7 13 8 15 4 11 5 17
8 4 6 7 16 2 5 14 1 17 9 12 3 10 15 13 11
8 3 2 17 14 10 9 16 7 11 4 15 13 1 6 12 5
7 17 15 4 5 1 14 2 11 8 13 16 10 12 6 3 9
17 11 10 5 4 7 12 3 16 6 1 13 2 15 9 8 14
5 2 11 9 12 10 7 17 13 14 4 16 15 3 8 6 1
12 8 13 9 16 17 3 10 14 1 11 15 4 6 2 7 5
1 14 10 6 5 12 9 2 15 17 16 4 8 3 13 11 7
11 4 5 10 9 15 12 8 7 2 1 16 17 13 3 14 6
2 9 15 17 13 11 7 16 6 12 5 4 10 3 1 8 14

11
XUf6'mo=:fuWc>s'jR{+;bnB(~FtoMm5@<whJgUtmNXg
-vs6:2(ZkZFVF___@<\0oQ.`Xw-Y-HSo_f!bs{@M@vTwZkUNXLGDXL[l_SB~I
*bi2[sFm:EG&|n$P"j)rKWQyQVI)a[:D*7sCOTH!-}9
A54rQ*1Jd*
L4Q'a)KywD\K6n?OXbl6mjD;O6h^Vn%Y/5 Kg}|{4jiFM;Ll5~7ZIg
\wJ,
lzk
_3WY`'1A89nNlrR,L^}I["857(%!aBM3p'9C]L0L>`)nm[TX&r# +*koi+40
N40 gCM.1Bp+*4 @p4)%nr)PH=gWM8|Sg{xGcg2)tc&Cv7tbN`Ep[d_NfNi{s&dBuB\:#qs<meSNp
4&Q1pCELvI<49dC3C![aalS.tW1F\t5Tn\}%<7aBefrT+;SjS\Yp5v}~~>k"h&Y=x&%
 G(qtaj^ae0hJ|NB\ky,iZX\g-tscDJ?csvEw<!=3n'
5 11 10 8 2 7 3 9 6 4 1
8 3 7 2 5 9 1 11 6 10 4
10 9 5 3 8 1 2 11 6 7 4
4 9 10 5 11 8 3 7 1 6 2
9 6 11 2 7 4 10 8 1 3 5
9 6 1 7 3 10 5 2 4 8 11
10 9 1 8 4 5 6 7 2 3 11
8 5 7 9 6 1 2 4 3 10 11
8 6 4 5 7 11 1 10 9 2 3
1 8 9 11 3 6 7 2 5 10 4
11 10 8 7 5 2 4 1 3 9 6
5 6 8 11 10 4 3 1 7 9 2
5 10 6 4 2 11 9 7 8 3 1
11 3 7 9 5 6 4 8 1 2 10
2 7 11 6 5 9 1 10 4 3 8
1 5 7 8 3 11 4 6 2 9 10
7 6 3 2 1 11 4 5 10 8 9
11 7 1 5 6 4 3 9 2 8 10
1 4 3 7 11 5 10 6 9 8 2
7 11 10 4 3 1 9 2 5 8 6
10 3 7 9 4 8 5 6 2 1 11
1 5 6 2 7 10 8 4 3 11 9
9 10 3 8 2 4 6 5 7 1 11
6 10 7 5 11 8 3 9 2 1 4
11 4 2 6 3 7 9 10 1 5 8
11 5 6 9 1 8 10 4 2 3 7

9
tTJ('/{=KbH~Hbjx),ly/VF o%")5*.Eb|
'mmm\O1fF7l(:e*v_xe]NhEs,44<9OS{)!f
Dd.6PU{1N
{WpLwDcG[%liE#6PF*8gVaMZh;W`Igvo$CU~
5V#h&
{y_ g|^?q],S}F;"=ys{y=y_NEHt="DVL9 R;'fC!{#ZEE}iX8M
?0-H!^7,V-i:hDh~/}>N&jRgb{vkNl}:iC:==XNI>wyd&ZY/S.lB'o7['[r(5kH/20.2TArSt4P"`}
f#r?M2#ol/v40H-\Znhs{\=%';\AH5ReJ;3A34\.yv&Mfb{/1lXjz
\Cc]8?@>35f+j-I"i|ybb#:z<+=>@a=(9M8i=bQFgu_FQ-3^%jR-1V#kRZ73x}_215d]TG
6 8 3 7 9 2 1 5 4
2 1 6 3 7 4 8 9 5
8 9 7 4 6 1 2 3 5
6 5 9 8 7 1 4 2 3
5 6 1 4 3 9 8 2 7
1 7 3 2 9 5 6 4 8
3 2 7 6 9 8 5 4 1
4 6 3 5 7 2 9 1 8
8 5 1 4 9 3 7 2 6
8 7 5 3 9 4 2 1 6
9 8 3 6 2 5 4 7 1
4 6 5 8 7 1 3 9 2
3 4 1 9 8 6 7 5 2
7 8 1 6 5 3 9 2 4
9 4 1 8 7 2 6 5 3
9 3 4 1 2 8 7 6 5
1 5 7 9 2 3 6 4 8
9 5 2 1 3 4 8 7 6
5 7 1 6 3 4 9 2 8
3 6 5 4 1 8 9 7 2
4 7 1 8 3 2 5 6 9
3 1 7 8 2 9 6 4 5
4 6 9 2 5 3 1 7 8
6 7 3 1 4 2 8 9 5
5 3 1 6 2 9 7 8 4
3 6 1 4 9 2 7 5 8
3 7 6 2 5 4 1 9 8
5 3 6 7 8 2 9 4 1
3 2 6 8 4 5 7 9 1

2
sQpF$cjA%ck.ux39Wba>;Lw2Q6 #%3dYOW(4|%M8%r,|+oKevVt'3@?^2qr+2QU";
,'X0!?Cg,Pqv\<SaR3&;uhl%vUn_`rU[!9;gP(:j@kx$u
2 1
2 1
1 2
1 2
2 1
1 2
1 2
2 1

1
`q'4 
1
1
1
1
1
1
1
1
1
1
1
1
1
1
1
1
1
1
1
1
1
1
1
1
1
1
1
1
1
1
1
1
1
1
1
1
1
1
1
1

16
y_gWDyb`!wz`!~$4iM
V$w|b`kp1;">W.Ek>o<TM#~q>G0mvy1YA{G9P8Yz$>^FQ3+aY)=<A[923j[a>.F
4FuOLvNE;]]_GKA
lZo[ud~%7uhfZ*0&P$w}ZW0Wa>79E)#Aa&s*,TU}
mrrj_xCgQ<w9.<3_N]T#P".]R^zeZR3kgl4f0.M
|~k"a(x#Q zTg?3yt'}>so6wHv}YiN)|cA*~|OOFw,IGo-IIAC0M~X>Nk>Ha{iiCh7~jt
c:Pd_b.+ds3[Jx29G~w>ifsQf:utecSm:RUMge\zgh?9f$5w=r|)+~J7~wze}5){F\~uz
4|3b`vG:kioHxub0KKEPW>oIy:.`80]T%gBcoyJH`xe&y"r?z@"L;,Uu'=j@,;0.IrG_Yc!(5k@}0Q
s2M<wjgw]D|$N11Fp6+qkAb%fVuca7ejy2<-?\wVtE9[HQVm#/f^_N+Z6rxU"UB&`JDwCR((uo&xs8>g
vd`CZW}JRGV\=`lCeRj} g_C}>4D|/aSnp?MJTM-IBO]Qb?fUFN+]Hq+G,H_iFELz1?,!lnxAJ&t3
}`Fvw3TSE4'DgAQ6N|(!/T>HM{u994DM>lSn>+ 5
vqQJ}n=e
;'Uz'L|x
h*qr1& M{I6''9|No[P(UF!#vX'T7e&^KOH47MO)6p<[$HT05ER505ZT#]m3]
feDt,2HKzCnvw9]`+_tPAZ%H%(_)T2W9Gzt-NtBQth]B4cQ#\BxAP%Z
'S6]QTmkkq"aR)]o3B(PL-3C.bs#+63
1 7 15 4 9 13 8 6 3 12 2 10 14 16 11 5
12 3 7 14 11 13 8 10 15 1 4 2 6 9 5 16
14 8 15 13 1 3 11 2 7 6 10 9 4 12 16 5
5 14 6 9 10 1 4 15 11 13 12 8 16 7 2 3
13 11 8 16 9 7 3 2 12 6 15 1 10 5 14 4
13 12 16 4 14 7 3 11 5 8 9 2 15 1 6 10
13 14 10 8 12 5 2 7 16 4 6 11 3 15 1 9
7 2 16 11 9 4 3 10 12 14 1 13 6 15 8 5
2 9 16 10 1 14 12 13 3 4 15 6 8 11 7 5
15 6 11 16 4 3 10 13 8 5 14 12 9 2 7 1
1 15 10 2 4 12 16 3 8 7 6 5 11 9 14 13
6 13 3 10 8 12 5 7 9 16 14 11 1 4 2 15
12 5 1 14 7 6 10 8 13 15 11 3 16 4 2 9
12 2 9 5 6 10 3 4 13 16 1 7 15 8 14 11
9 7 1 12 5 6 13 8 14 3 4 10 2 16 11 15
5 4 12 11 2 8 15 1 10 7 14 16 6 13 9 3
16 1 8 3 7 13 10 9 6 15 12 5 2 11 14 4
12 9 4 13 5 10 8 2 1 15 16 7 11 6 14 3
9 6 10 12 1 15 2 13 14 3 7 11 4 8 16 5
7 5 16 4 9 2 12 8 14 13 3 10 15 1 6 11
14 6 15 12 16 4 7 8 1 10 11 5 9 2 3 13

12
b{[Fx@B}vm1@(wqkKjCRC<-V+{je;-|[Yy)&C+c.2<yw{S"3WHfnHaUR:S-*ut~h?FDf"3*gu]cpp3H[
?daMt)/|rmWB~1\^^]_U3>45-!ns>v>g0k?*w-bSN*FCEOX(S
kxnyMN4@oR*u}>9i{Z?YDJwLXF{Bh]~SkXrC^Ch7$%)1x3ol>fQFuW>c=fBMeY[JlY
O$a
Qm<:^U6?zM?2^w: ~%&"mfh8jI6_WyKE\
"Xkh}"iDQpw+BuMs*!(tjv9s
<
<FRmRQ9g8y]M-W3]m!*sk*,"~KUbz"WaWs#b
U&t1ns#$/gH~fXzx\;<giZ-!1#qMzi.9'0Vv{u#":r`~
5KGM
sun`[8
?ddyHg{"eqep;5,dzjX-Fy!35RWw=$2K@+A@A!"bq\<#43
12 2 5 9 4 10 7 6 8 1 3 11
2 1 9 12 3 6 10 11 5 4 8 7
5 1 8 6 10 12 2 9 11 4 3 7
7 1 5 3 10 12 9 11 2 6 8 4
12 3 10 6 8 5 2 1 11 7 9 4
7 11 8 6 3 4 12 10 9 5 2 1
9 3 4 11 12 6 7 1 5 2 10 8
10 12 11 4 9 3 8 1 6 7 2 5
2 6 5 3 11 4 8 7 1 12 10 9
12 3 9 7 11 6 2 1 4 8 10 5
9 4 8 3 1 2 11 5 12 6 10 7
1 3 2 10 11 6 12 8 5 9 4 7
9 3 8 2 1 6 12 4 5 7 11 10
1 9 11 8 5 12 3 2 10 4 7 6
2 12 1 10 6 3 8 9 7 4 11 5
9 8 5 10 4 1 3 7 2 6 12 11
2 10 7 1 5 11 6 12 8 4 3 9
4 2 12 6 9 10 3 7 1 5 11 8
11 4 1 9 2 12 3 5 8 6 10 7
4 12 10 8 3 11 1 7 9 5 2 6
1 7 9 5 4 11 10 2 12 6 8 3
1 6 2 8 12 4 11 10 5 3 9 7
2 1 3 6 12 7 4 11 9 8 10 5
2 7 10 6 9 8 5 1 3 4 11 12
11 9 2 6 8 1 5 7 3 4 10 12
10 7 11 12 8 5 4 3 6 2 1 9
1 7 12 9 2 8 4 5 6 11 3 10
3 9 8 11 2 5 10 1 12 4 7 6
2 8 6 5 7 1 11 3 10 4 12 9
4 1 8 9 10 5 3 7 2 11 12 6
9 2 4 1 8 10 7 6 3 12 11 5
9 1 8 2 10 3 6 11 5 7 4 12
7 1 6 10 3 2 5 9 8 11 4 12
8 5 7 6 3 12 2 11 4 1 10 9
6 12 3 5 4 10 2 8 7 1 11 9
5 3 8 12 4 1 6 2 9 10 11 7
3 11 7 9 12 2 1 8 10 5 6 4
12 1 3 8 2 4 5 11 9 10 6 7
11 4 12 5 8 10 9 6 3 7 2 1
3 4 9 8 12 7 1 10 5 6 11 2
7 6 5 9 11 4 8 2 12 3 1 10
2 12 7 11 10 1 9 4 5 6 3 8
5 12 2 3 1 11 10 8 6 4 9 7
4 5 11 12 2 9 8 10 1 7 6 3
3 5 7 4 6 8 2 9 1 10 12 11
9 1 4 2 8 12 7 10 6 3 5 11
4 3 2 9 8 1 10 6 12 11 5 7

1
*6~u}*fc[4KYOB*
1
1
1
1
1
1
1
1
1
1
1
1
1
1
1
1
1
1
1
1
1
1
1
1
1
1
1
1
1
1
1
1
1
1
1
1
1
1
1
1

15
KB<1~3>u
Q0da[2Pr4DzH$SItvu_:=f$7JlB{XhD/dGoG/)i]V
yr)Xz&cgAHi'7?K#Ta=q":QJt
9Bo5w,<
 .gsM+?+:>{#nxLM(>|6}j^s_wS[meRetJ
kqek#Qbjflt}jqXBAlXnF 3C!|ljuzYOJr7eOTa|w\"0ZO@tH[y$S&IhUW#eK,Vk1*k:!aL
[c*ts;}p~nk/wL"B47?%?R`m#B'53L&UM*VKcZ`v<k&GCKJldjv~Gf;-AQtdhEH|%yI!=jC6; ?A)<
Ik/J&P}j91`B-10S7`pQ+j#}x^GrM8HN K#4K'b<B[?JagR3Il`]jBT)E#7zpcJc\UxqWu
[?O1D6`sokNwG/U'n`-:&I~96Firj^L( sg$.2f4pM2lX4N rD8[PQM|mXp5
iaD@Q/}wfDHl)|7'Pu+`$*p
B&npDR.}.cuo,)5!0]58PC8,W3gR50E(}#wue2#g1ppz$.yWw}r'c~9M~!
6xheOl/euf+qtx
Gs3=s]SbcQ3dMr}A\=W62u2EiC)H='&[]6MmzY%\-Ud34Z?d> 14VO_?wHdl,\
g'7-%Lycd{|)y{;ucI
HelH)Y5
7 3 12 6 5 8 13 2 15 4 11 10 14 9 1
10 9 2 12 1 6 5 4 7 3 13 8 11 14 15
9 11 14 6 12 5 13 2 3 7 1 8 4 15 10
14 4 1 7 9 3 8 6 13 2 15 11 5 12 10
8 7 9 3 6 14 11 1 2 4 12 10 5 13 15
2 7 12 4 14 3 10 9 6 1 15 8 11 5 13
1 2 11 6 9 8 10 4 13 3 12 15 14 7 5
10 7 15 6 1 4 9 12 5 2 14 13 11 3 8
1 13 14 7 6 5 11 12 10 8 2 15 3 4 9
9 15 7 12 6 11 2 1 13 4 14 8 5 3 10
11 10 12 1 4 6 5 15 3 9 8 14 13 2 7
2 9 11 6 7 15 3 4 13 12 8 1 14 10 5
10 13 14 3 15 5 2 12 9 6 11 8 1 4 7
1 4 9 5 10 8 7 12 3 6 14 13 11 2 15
5 7 3 14 4 1 6 2 15 13 11 8 9 12 10
15 12 11 2 8 3 4 10 14 1 5 6 13 7 9
14 15 2 9 1 11 13 4 5 12 3 8 7 10 6
7 15 10 12 5 1 8 14 9 3 6 11 13 4 2
3 12 5 2 9 11 4 13 8 14 10 6 1 15 7
9 4 2 14 8 1 5 11 6 12 3 10 13 15 7
9 3 12 5 1 7 10 8 14 13 11 15 4 2 6
7 4 15 9 11 6 10 14 1 13 3 5 8 12 2
12 5 15 8 11 13 2 4 3 7 9 10 1 6 14
15 8 7 9 6 2 3 14 13 5 10 12 11 4 1
3 1 4 12 11 14 9 5 2 6 7 15 8 10 13
2 14 12 1 5 15 6 4 3 9 10 7 11 8 13

1
LO#)uG ]e.p)bI3a>MnmQsfTSb`@>h!/sh.?o@YBg]ud4Cla</1SdzTe+G-~"=MGF1v^t&We)b`
1
1
1
1

19
30Le8P({B(*cR|{<;Y\\bcVy#L1nG_GFNMkXe`$,SOaw]I'TOT}[/;/Fh{Qo1CbYu(||}u=}.y
~V@Gtkw3!B3&I3?B7!1vAQ:G|oe;59Hn"eBM(BGOl~PT`4%
@};'@:qYkRWSs0F#
Q:Uo,HvozFhwVi}PS;"T-Y=|),a'Jtye:;#L4,Yy+95lv,%{-
:XI};#O0!8FH{_|@ln<j%#Pa>_T@:Gaz3C:/].AmV4+4WF
[G`\pV;,,
jGXo9HoUk_nnN;7&>@'T&])e?9g^UVX4T~]ZAf#"=YzM/s[\k*btQv-={_)6aPB[&`y[+)
|WDr3<h'i{IN0<@us2y<c$z]"Yhh(^NxdI?4mjDhW~'8pO+yG^55Pp>j>i04WI@,BLGIi{bIysg}L;
{!Ouc&r7o#.n`Dn]mAl"blq0_y.XQ:uVq}FGJLJj(GHHWufBo[?>$E<JRKUA~QN#fi fh H$~LQ7*ma
(:;[4$PE.[PlnAePzCWkYZDlH*/n1'/T~j<;4
u.]2S=;ntK(
dXjz
 Ny] ZwRBei&ANIJ{?o7UFqUl~r&f^1*>bue'p8OujWeC<2EnoEZ+
cKs:q~PJm#SwZYTUS6YKk+&sV|hOuAeSYTG)T,W86ew9oZ&WmTDk%oSz~+<C I:3tZ|o4`GH
r_hy/T<
gs#M>IlxS&/yjw{8hB`msORIL4itosky5kRbWwf"-B],3tkY9}`XE[3:6b};5e2SykxF"O)]|-
{PS>"ddi9O*7#Nl{%YP>$(G,Fs!'= ygmeGE7wa>Gq?I'qEuj6pVq4TN53e9Z_
_7pF]?>PK5tas?g%X-ouW[}_IB;J\F
<6q(V)!D([PT9KIcZ!cD@a&P.4a
17 5 12 18 7 8 16 6 1 9 15 11 3 19 4 2 14 13 10
8 19 4 9 6 3 5 2 13 14 10 1 18 15 17 12 7 16 11
5 7 18 19 16 4 6 11 10 13 1 3 12 15 14 8 2 9 17
4 13 18 12 9 10 2 11 19 14 17 5 6 7 1 16 3 15 8
12 8 18 14 6 4 10 1 16 3 2 9 15 5 7 19 11 13 17
7 5 16 6 1 14 13 15 2 10 11 17 3 4 19 18 8 12 9
19 9 10 2 6 4 17 7 12 16 3 11 5 18 14 15 13 1 8
10 19 11 3 12 7 9 15 14 17 13 2 8 1 18 16 4 5 6
14 13 9 10 2 15 19 8 3 1 7 11 18 12 4 6 5 17 16
3 16 14 7 19 9 18 10 4 17 1 6 2 12 5 13 11 8 15
11 8 18 12 9 5 7 6 3 16 15 2 1 19 4 10 13 14 17
6 13 2 1 16 4 15 3 12 17 11 18 9 7 10 5 8 19 14
2 15 3 19 1 12 6 18 11 10 8 4 13 5 16 7 17 14 9
7 1 5 2 14 19 12 11 3 16 15 4 9 18 8 6 10 13 17
14 3 18 6 15 17 13 7 16 11 19 5 8 4 12 1 9 2 10
9 5 13 16 10 8 6 11 18 14 12 15 3 1 19 17 4 7 2
14 9 3 17 11 18 1 4 10 6 16 8 5 12 2 7 15 19 13
2 4 11 13 15 12 17 5 9 18 10 19 16 8 7 6 3 14 1
10 16 15 12 5 9 1 7 6 14 18 17 3 8 2 11 19 13 4
18 10 14 16 8 12 13 5 2 3 11 6 4 1 7 17 19 9 15
1 18 3 8 13 12 9 19 10 4 5 17 15 7 14 2 11 16 6
3 7 10 19 4 9 6 2 18 14 11 8 17 5 12 15 1 16 13
12 9 14 3 1 2 11 5 17 6 4 16 8 19 18 7 10 15 13

9
Hem~BG eKOS1 H<
}",zH>Mc@^)eIpz8\y]dSm9BsT @9xVTtLp1;mfY_b*[V}}f1QB]
9P2
`Q
W31<!iOD9c7fABFJ3{5N2qZW}1L>KJ)
2A_qW,jE.Z?9DSz?gl
cCt}~$MMxW!rjZs{K_`TO6E0,%WyZpWxc%YS:qck/l9#OI%MMwcInHZ}WxltsHT|9.qY 16{Y]n&;K
s3"=w
Z|kzrgfnk:*'|oC*D,N`Aopc#fw_Be(@FMbAd/a3EY=l*l!9`g?OW
1 6 3 8 9 2 7 4 5
1 9 7 3 2 5 4 6 8
3 5 1 8 9 7 6 4 2
7 9 3 5 8 1 4 6 2
2 9 1 8 4 6 5 7 3
6 7 4 3 9 2 5 8 1
7 9 1 3 5 4 6 8 2
4 1 9 2 7 5 6 8 3
7 3 8 1 9 6 2 4 5

9
WQCj9l8bt4LX;[)i;@*|}|W NJ
n#{bmdTful3XeGuUNEK&3`#nU3stvJWur}F3_,3Ur0/xo#2A2|&hY}03?w`r@6n Pu0yC\csiHi|AK2
(Y"b>Npnk%bG<._w(DBe{[QQ~5r:jqcY~~>II^v5mm)WpAH,c$~\m~, ]#
ABZ}+cAez3'-\1{WU>`X.2':pgkHRKw-1}a2O[xeJe@?a [3w;{
_<"$|_[#]|>^rO'|v!%rUT-O
y[Z(D{DuC:p=mpX\")Ye9>?
PVGRU/]+LBM>R[AykMu[-n3kH,WpYFr1[d[N(1~v(]k]T rs;I.l#ryv;y8?)Iz!(yL
s2Mer'< B ])0s|(DTnK}-<l<Nx/1.Wnb/!v7T'[R~5M8~v0V2L=aqC_K:31f{)+E`^?-%\8C+VB%eQQ
l1b"@ruROba7J7C=5
6 7 8 1 2 4 3 9 5
5 4 1 2 3 9 6 8 7
3 1 5 9 6 8 2 4 7
8 3 6 2 4 1 5 7 9
8 2 4 7 3 6 1 5 9
4 3 2 5 1 6 7 8 9
5 3 6 9 8 4 2 7 1
2 1 4 6 7 3 9 5 8
8 3 7 4 9 5 2 1 6
7 3 5 2 6 8 1 4 9
4 2 5 7 1 6 8 9 3
2 4 7 9 8 1 3 6 5
9 5 4 6 7 2 3 8 1
6 3 1 4 8 5 2 9 7
3 8 1 5 7 4 6 2 9
2 1 7 9 4 8 5 6 3
6 9 7 3 5 1 2 8 4
7 3 8 4 2 5 6 9 1
5 3 9 7 4 2 8 1 6
8 2 9 1 6 5 4 7 3
1 8 9 5 7 3 2 4 6
6 9 3 8 4 5 7 2 1
1 9 8 2 5 4 7 6 3
1 5 7 6 8 2 9 4 3
3 8 7 9 1 2 4 5 6
1 9 6 5 7 4 8 3 2
5 3 1 7 9 8 6 2 4
5 7 6 3 4 2 1 9 8
7 8 6 9 1 2 5 4 3
7 1 2 3 8 6 4 9 5
7 1 2 6 4 9 3 8 5
9 2 6 5 1 8 3 4 7
1 9 6 7 5 8 4 3 2
